%!PS-Adobe-3.0 EPSF-3.0
%%Creator: (MATLAB, The Mathworks, Inc. Version 8.4.0.150421 \(R2014b\). Operating System: Mac OS X)
%%Title: /Users/Martin/Projects/matlab-mva/Reinforcement_Learning/Project/transfer_bandit/complexity.eps
%%CreationDate: 2015-01-05T22:26:22
%%Pages: (atend)
%%BoundingBox: 0 0 698 397
%%LanguageLevel: 2
%%EndComments
%%BeginProlog
%%BeginResource: procset (Apache XML Graphics Std ProcSet) 1.2 0
%%Version: 1.2 0
%%Copyright: (Copyright 2001-2003,2010 The Apache Software Foundation. License terms: http://www.apache.org/licenses/LICENSE-2.0)
/bd{bind def}bind def
/ld{load def}bd
/GR/grestore ld
/M/moveto ld
/LJ/setlinejoin ld
/C/curveto ld
/f/fill ld
/LW/setlinewidth ld
/GC/setgray ld
/t/show ld
/N/newpath ld
/CT/concat ld
/cp/closepath ld
/S/stroke ld
/L/lineto ld
/CC/setcmykcolor ld
/A/ashow ld
/GS/gsave ld
/RC/setrgbcolor ld
/RM/rmoveto ld
/ML/setmiterlimit ld
/re {4 2 roll M
1 index 0 rlineto
0 exch rlineto
neg 0 rlineto
cp } bd
/_ctm matrix def
/_tm matrix def
/BT { _ctm currentmatrix pop matrix _tm copy pop 0 0 moveto } bd
/ET { _ctm setmatrix } bd
/iTm { _ctm setmatrix _tm concat } bd
/Tm { _tm astore pop iTm 0 0 moveto } bd
/ux 0.0 def
/uy 0.0 def
/F {
  /Tp exch def
  /Tf exch def
  Tf findfont Tp scalefont setfont
  /cf Tf def  /cs Tp def
} bd
/ULS {currentpoint /uy exch def /ux exch def} bd
/ULE {
  /Tcx currentpoint pop def
  gsave
  newpath
  cf findfont cs scalefont dup
  /FontMatrix get 0 get /Ts exch def /FontInfo get dup
  /UnderlinePosition get Ts mul /To exch def
  /UnderlineThickness get Ts mul /Tt exch def
  ux uy To add moveto  Tcx uy To add lineto
  Tt setlinewidth stroke
  grestore
} bd
/OLE {
  /Tcx currentpoint pop def
  gsave
  newpath
  cf findfont cs scalefont dup
  /FontMatrix get 0 get /Ts exch def /FontInfo get dup
  /UnderlinePosition get Ts mul /To exch def
  /UnderlineThickness get Ts mul /Tt exch def
  ux uy To add cs add moveto Tcx uy To add cs add lineto
  Tt setlinewidth stroke
  grestore
} bd
/SOE {
  /Tcx currentpoint pop def
  gsave
  newpath
  cf findfont cs scalefont dup
  /FontMatrix get 0 get /Ts exch def /FontInfo get dup
  /UnderlinePosition get Ts mul /To exch def
  /UnderlineThickness get Ts mul /Tt exch def
  ux uy To add cs 10 mul 26 idiv add moveto Tcx uy To add cs 10 mul 26 idiv add lineto
  Tt setlinewidth stroke
  grestore
} bd
/QT {
/Y22 exch store
/X22 exch store
/Y21 exch store
/X21 exch store
currentpoint
/Y21 load 2 mul add 3 div exch
/X21 load 2 mul add 3 div exch
/X21 load 2 mul /X22 load add 3 div
/Y21 load 2 mul /Y22 load add 3 div
/X22 load /Y22 load curveto
} bd
/SSPD {
dup length /d exch dict def
{
/v exch def
/k exch def
currentpagedevice k known {
/cpdv currentpagedevice k get def
v cpdv ne {
/upd false def
/nullv v type /nulltype eq def
/nullcpdv cpdv type /nulltype eq def
nullv nullcpdv or
{
/upd true def
} {
/sametype v type cpdv type eq def
sametype {
v type /arraytype eq {
/vlen v length def
/cpdvlen cpdv length def
vlen cpdvlen eq {
0 1 vlen 1 sub {
/i exch def
/obj v i get def
/cpdobj cpdv i get def
obj cpdobj ne {
/upd true def
exit
} if
} for
} {
/upd true def
} ifelse
} {
v type /dicttype eq {
v {
/dv exch def
/dk exch def
/cpddv cpdv dk get def
dv cpddv ne {
/upd true def
exit
} if
} forall
} {
/upd true def
} ifelse
} ifelse
} if
} ifelse
upd true eq {
d k v put
} if
} if
} if
} forall
d length 0 gt {
d setpagedevice
} if
} bd
%%EndResource
%%BeginResource: procset (Apache XML Graphics EPS ProcSet) 1.0 0
%%Version: 1.0 0
%%Copyright: (Copyright 2002-2003 The Apache Software Foundation. License terms: http://www.apache.org/licenses/LICENSE-2.0)
/BeginEPSF { %def
/b4_Inc_state save def         % Save state for cleanup
/dict_count countdictstack def % Count objects on dict stack
/op_count count 1 sub def      % Count objects on operand stack
userdict begin                 % Push userdict on dict stack
/showpage { } def              % Redefine showpage, { } = null proc
0 setgray 0 setlinecap         % Prepare graphics state
1 setlinewidth 0 setlinejoin
10 setmiterlimit [ ] 0 setdash newpath
/languagelevel where           % If level not equal to 1 then
{pop languagelevel             % set strokeadjust and
1 ne                           % overprint to their defaults.
{false setstrokeadjust false setoverprint
} if
} if
} bd
/EndEPSF { %def
count op_count sub {pop} repeat            % Clean up stacks
countdictstack dict_count sub {end} repeat
b4_Inc_state restore
} bd
%%EndResource
%FOPBeginFontDict
%%IncludeResource: font Courier-Bold
%%IncludeResource: font Helvetica
%%IncludeResource: font Courier-BoldOblique
%%IncludeResource: font Courier-Oblique
%%IncludeResource: font Times-Roman
%%IncludeResource: font Helvetica-BoldOblique
%%IncludeResource: font Helvetica-Bold
%%IncludeResource: font Helvetica-Oblique
%%IncludeResource: font Times-BoldItalic
%%IncludeResource: font Courier
%%IncludeResource: font Times-Italic
%%IncludeResource: font Times-Bold
%%IncludeResource: font Symbol
%%IncludeResource: font ZapfDingbats
%FOPEndFontDict
%%BeginResource: encoding WinAnsiEncoding
/WinAnsiEncoding [
/.notdef /.notdef /.notdef /.notdef /.notdef
/.notdef /.notdef /.notdef /.notdef /.notdef
/.notdef /.notdef /.notdef /.notdef /.notdef
/.notdef /.notdef /.notdef /.notdef /.notdef
/.notdef /.notdef /.notdef /.notdef /.notdef
/.notdef /.notdef /.notdef /.notdef /.notdef
/.notdef /.notdef /space /exclam /quotedbl
/numbersign /dollar /percent /ampersand /quotesingle
/parenleft /parenright /asterisk /plus /comma
/hyphen /period /slash /zero /one
/two /three /four /five /six
/seven /eight /nine /colon /semicolon
/less /equal /greater /question /at
/A /B /C /D /E
/F /G /H /I /J
/K /L /M /N /O
/P /Q /R /S /T
/U /V /W /X /Y
/Z /bracketleft /backslash /bracketright /asciicircum
/underscore /quoteleft /a /b /c
/d /e /f /g /h
/i /j /k /l /m
/n /o /p /q /r
/s /t /u /v /w
/x /y /z /braceleft /bar
/braceright /asciitilde /bullet /Euro /bullet
/quotesinglbase /florin /quotedblbase /ellipsis /dagger
/daggerdbl /circumflex /perthousand /Scaron /guilsinglleft
/OE /bullet /Zcaron /bullet /bullet
/quoteleft /quoteright /quotedblleft /quotedblright /bullet
/endash /emdash /asciitilde /trademark /scaron
/guilsinglright /oe /bullet /zcaron /Ydieresis
/space /exclamdown /cent /sterling /currency
/yen /brokenbar /section /dieresis /copyright
/ordfeminine /guillemotleft /logicalnot /sfthyphen /registered
/macron /degree /plusminus /twosuperior /threesuperior
/acute /mu /paragraph /middot /cedilla
/onesuperior /ordmasculine /guillemotright /onequarter /onehalf
/threequarters /questiondown /Agrave /Aacute /Acircumflex
/Atilde /Adieresis /Aring /AE /Ccedilla
/Egrave /Eacute /Ecircumflex /Edieresis /Igrave
/Iacute /Icircumflex /Idieresis /Eth /Ntilde
/Ograve /Oacute /Ocircumflex /Otilde /Odieresis
/multiply /Oslash /Ugrave /Uacute /Ucircumflex
/Udieresis /Yacute /Thorn /germandbls /agrave
/aacute /acircumflex /atilde /adieresis /aring
/ae /ccedilla /egrave /eacute /ecircumflex
/edieresis /igrave /iacute /icircumflex /idieresis
/eth /ntilde /ograve /oacute /ocircumflex
/otilde /odieresis /divide /oslash /ugrave
/uacute /ucircumflex /udieresis /yacute /thorn
/ydieresis
] def
%%EndResource
%FOPBeginFontReencode
/Courier-Bold findfont
dup length dict begin
  {1 index /FID ne {def} {pop pop} ifelse} forall
  /Encoding WinAnsiEncoding def
  currentdict
end
/Courier-Bold exch definefont pop
/Helvetica findfont
dup length dict begin
  {1 index /FID ne {def} {pop pop} ifelse} forall
  /Encoding WinAnsiEncoding def
  currentdict
end
/Helvetica exch definefont pop
/Courier-BoldOblique findfont
dup length dict begin
  {1 index /FID ne {def} {pop pop} ifelse} forall
  /Encoding WinAnsiEncoding def
  currentdict
end
/Courier-BoldOblique exch definefont pop
/Courier-Oblique findfont
dup length dict begin
  {1 index /FID ne {def} {pop pop} ifelse} forall
  /Encoding WinAnsiEncoding def
  currentdict
end
/Courier-Oblique exch definefont pop
/Times-Roman findfont
dup length dict begin
  {1 index /FID ne {def} {pop pop} ifelse} forall
  /Encoding WinAnsiEncoding def
  currentdict
end
/Times-Roman exch definefont pop
/Helvetica-BoldOblique findfont
dup length dict begin
  {1 index /FID ne {def} {pop pop} ifelse} forall
  /Encoding WinAnsiEncoding def
  currentdict
end
/Helvetica-BoldOblique exch definefont pop
/Helvetica-Bold findfont
dup length dict begin
  {1 index /FID ne {def} {pop pop} ifelse} forall
  /Encoding WinAnsiEncoding def
  currentdict
end
/Helvetica-Bold exch definefont pop
/Helvetica-Oblique findfont
dup length dict begin
  {1 index /FID ne {def} {pop pop} ifelse} forall
  /Encoding WinAnsiEncoding def
  currentdict
end
/Helvetica-Oblique exch definefont pop
/Times-BoldItalic findfont
dup length dict begin
  {1 index /FID ne {def} {pop pop} ifelse} forall
  /Encoding WinAnsiEncoding def
  currentdict
end
/Times-BoldItalic exch definefont pop
/Courier findfont
dup length dict begin
  {1 index /FID ne {def} {pop pop} ifelse} forall
  /Encoding WinAnsiEncoding def
  currentdict
end
/Courier exch definefont pop
/Times-Italic findfont
dup length dict begin
  {1 index /FID ne {def} {pop pop} ifelse} forall
  /Encoding WinAnsiEncoding def
  currentdict
end
/Times-Italic exch definefont pop
/Times-Bold findfont
dup length dict begin
  {1 index /FID ne {def} {pop pop} ifelse} forall
  /Encoding WinAnsiEncoding def
  currentdict
end
/Times-Bold exch definefont pop
%FOPEndFontReencode
%%EndProlog
%%Page: 1 1
%%PageBoundingBox: 0 0 698 397
%%BeginPageSetup
[1 0 0 -1 0 397] CT
%%EndPageSetup
GS
1 GC
N
0 0 698 397 re
f
GR
GS
1 GC
N
0 0 698 397 re
f
GR
GS
1 GC
N
91 353 M
632 353 L
632 30 L
91 30 L
cp
f
GR
GS
[1 0 0 1 361.5 371.79999] CT
0.149 GC
/Helvetica 18 F
GS
[1 0 0 1 0 0] CT
-81.514 13.86 moveto 
1 -1 scale
(Number of Tasks \(J\)) t 
GR
GR
GS
0.149 GC
2 setlinecap
10.0 ML
N
91 353 M
632 353 L
S
GR
GS
0.149 GC
2 setlinecap
10.0 ML
N
91 30 M
632 30 L
S
GR
GS
0.149 GC
2 setlinecap
10.0 ML
N
91 353 M
91 347.59 L
S
GR
GS
0.149 GC
2 setlinecap
10.0 ML
N
91 30 M
91 35.41 L
S
GR
GS
0.149 GC
2 setlinecap
10.0 ML
N
145.1 353 M
145.1 347.59 L
S
GR
GS
0.149 GC
2 setlinecap
10.0 ML
N
145.1 30 M
145.1 35.41 L
S
GR
GS
0.149 GC
2 setlinecap
10.0 ML
N
199.2 353 M
199.2 347.59 L
S
GR
GS
0.149 GC
2 setlinecap
10.0 ML
N
199.2 30 M
199.2 35.41 L
S
GR
GS
0.149 GC
2 setlinecap
10.0 ML
N
253.3 353 M
253.3 347.59 L
S
GR
GS
0.149 GC
2 setlinecap
10.0 ML
N
253.3 30 M
253.3 35.41 L
S
GR
GS
0.149 GC
2 setlinecap
10.0 ML
N
307.4 353 M
307.4 347.59 L
S
GR
GS
0.149 GC
2 setlinecap
10.0 ML
N
307.4 30 M
307.4 35.41 L
S
GR
GS
0.149 GC
2 setlinecap
10.0 ML
N
361.5 353 M
361.5 347.59 L
S
GR
GS
0.149 GC
2 setlinecap
10.0 ML
N
361.5 30 M
361.5 35.41 L
S
GR
GS
0.149 GC
2 setlinecap
10.0 ML
N
415.6 353 M
415.6 347.59 L
S
GR
GS
0.149 GC
2 setlinecap
10.0 ML
N
415.6 30 M
415.6 35.41 L
S
GR
GS
0.149 GC
2 setlinecap
10.0 ML
N
469.7 353 M
469.7 347.59 L
S
GR
GS
0.149 GC
2 setlinecap
10.0 ML
N
469.7 30 M
469.7 35.41 L
S
GR
GS
0.149 GC
2 setlinecap
10.0 ML
N
523.8 353 M
523.8 347.59 L
S
GR
GS
0.149 GC
2 setlinecap
10.0 ML
N
523.8 30 M
523.8 35.41 L
S
GR
GS
0.149 GC
2 setlinecap
10.0 ML
N
577.9 353 M
577.9 347.59 L
S
GR
GS
0.149 GC
2 setlinecap
10.0 ML
N
577.9 30 M
577.9 35.41 L
S
GR
GS
0.149 GC
2 setlinecap
10.0 ML
N
632 353 M
632 347.59 L
S
GR
GS
0.149 GC
2 setlinecap
10.0 ML
N
632 30 M
632 35.41 L
S
GR
GS
[1 0 0 1 91 357.79999] CT
0.149 GC
/Helvetica 14 F
GS
[1 0 0 1 0 0] CT
-3.893 10.78 moveto 
1 -1 scale
(0) t 
GR
GR
GS
[1 0 0 1 145.10001 357.79999] CT
0.149 GC
/Helvetica 14 F
GS
[1 0 0 1 0 0] CT
-15.572 10.78 moveto 
1 -1 scale
(1000) t 
GR
GR
GS
[1 0 0 1 199.2 357.79999] CT
0.149 GC
/Helvetica 14 F
GS
[1 0 0 1 0 0] CT
-15.572 10.78 moveto 
1 -1 scale
(2000) t 
GR
GR
GS
[1 0 0 1 253.3 357.79999] CT
0.149 GC
/Helvetica 14 F
GS
[1 0 0 1 0 0] CT
-15.572 10.78 moveto 
1 -1 scale
(3000) t 
GR
GR
GS
[1 0 0 1 307.39999 357.79999] CT
0.149 GC
/Helvetica 14 F
GS
[1 0 0 1 0 0] CT
-15.572 10.78 moveto 
1 -1 scale
(4000) t 
GR
GR
GS
[1 0 0 1 361.5 357.79999] CT
0.149 GC
/Helvetica 14 F
GS
[1 0 0 1 0 0] CT
-15.572 10.78 moveto 
1 -1 scale
(5000) t 
GR
GR
GS
[1 0 0 1 415.60001 357.79999] CT
0.149 GC
/Helvetica 14 F
GS
[1 0 0 1 0 0] CT
-15.572 10.78 moveto 
1 -1 scale
(6000) t 
GR
GR
GS
[1 0 0 1 469.70001 357.79999] CT
0.149 GC
/Helvetica 14 F
GS
[1 0 0 1 0 0] CT
-15.572 10.78 moveto 
1 -1 scale
(7000) t 
GR
GR
GS
[1 0 0 1 523.79999 357.79999] CT
0.149 GC
/Helvetica 14 F
GS
[1 0 0 1 0 0] CT
-15.572 10.78 moveto 
1 -1 scale
(8000) t 
GR
GR
GS
[1 0 0 1 577.90002 357.79999] CT
0.149 GC
/Helvetica 14 F
GS
[1 0 0 1 0 0] CT
-15.572 10.78 moveto 
1 -1 scale
(9000) t 
GR
GR
GS
[1 0 0 1 632 357.79999] CT
0.149 GC
/Helvetica 14 F
GS
[1 0 0 1 0 0] CT
-19.465 10.78 moveto 
1 -1 scale
(10000) t 
GR
GR
GS
[0 -1 1 0 67.62773 191.5] CT
0.149 GC
/Helvetica 18 F
GS
[1 0 0 1 0 0] CT
-44.512 -3.14 moveto 
1 -1 scale
(Complexity) t 
GR
GR
GS
0.149 GC
2 setlinecap
10.0 ML
N
91 353 M
91 30 L
S
GR
GS
0.149 GC
2 setlinecap
10.0 ML
N
632 353 M
632 30 L
S
GR
GS
0.149 GC
2 setlinecap
10.0 ML
N
91 353 M
96.41 353 L
S
GR
GS
0.149 GC
2 setlinecap
10.0 ML
N
632 353 M
626.59 353 L
S
GR
GS
0.149 GC
2 setlinecap
10.0 ML
N
91 312.625 M
96.41 312.625 L
S
GR
GS
0.149 GC
2 setlinecap
10.0 ML
N
632 312.625 M
626.59 312.625 L
S
GR
GS
0.149 GC
2 setlinecap
10.0 ML
N
91 272.25 M
96.41 272.25 L
S
GR
GS
0.149 GC
2 setlinecap
10.0 ML
N
632 272.25 M
626.59 272.25 L
S
GR
GS
0.149 GC
2 setlinecap
10.0 ML
N
91 231.875 M
96.41 231.875 L
S
GR
GS
0.149 GC
2 setlinecap
10.0 ML
N
632 231.875 M
626.59 231.875 L
S
GR
GS
0.149 GC
2 setlinecap
10.0 ML
N
91 191.5 M
96.41 191.5 L
S
GR
GS
0.149 GC
2 setlinecap
10.0 ML
N
632 191.5 M
626.59 191.5 L
S
GR
GS
0.149 GC
2 setlinecap
10.0 ML
N
91 151.125 M
96.41 151.125 L
S
GR
GS
0.149 GC
2 setlinecap
10.0 ML
N
632 151.125 M
626.59 151.125 L
S
GR
GS
0.149 GC
2 setlinecap
10.0 ML
N
91 110.75 M
96.41 110.75 L
S
GR
GS
0.149 GC
2 setlinecap
10.0 ML
N
632 110.75 M
626.59 110.75 L
S
GR
GS
0.149 GC
2 setlinecap
10.0 ML
N
91 70.375 M
96.41 70.375 L
S
GR
GS
0.149 GC
2 setlinecap
10.0 ML
N
632 70.375 M
626.59 70.375 L
S
GR
GS
0.149 GC
2 setlinecap
10.0 ML
N
91 30 M
96.41 30 L
S
GR
GS
0.149 GC
2 setlinecap
10.0 ML
N
632 30 M
626.59 30 L
S
GR
GS
[1 0 0 1 86.2 353] CT
0.149 GC
/Helvetica 14 F
GS
[1 0 0 1 0 0] CT
-7.786 4.28 moveto 
1 -1 scale
(0) t 
GR
GR
GS
[1 0 0 1 86.2 312.625] CT
0.149 GC
/Helvetica 14 F
GS
[1 0 0 1 0 0] CT
-15.572 4.28 moveto 
1 -1 scale
(10) t 
GR
GR
GS
[1 0 0 1 86.2 272.25] CT
0.149 GC
/Helvetica 14 F
GS
[1 0 0 1 0 0] CT
-15.572 4.28 moveto 
1 -1 scale
(20) t 
GR
GR
GS
[1 0 0 1 86.2 231.875] CT
0.149 GC
/Helvetica 14 F
GS
[1 0 0 1 0 0] CT
-15.572 4.28 moveto 
1 -1 scale
(30) t 
GR
GR
GS
[1 0 0 1 86.2 191.5] CT
0.149 GC
/Helvetica 14 F
GS
[1 0 0 1 0 0] CT
-15.572 4.28 moveto 
1 -1 scale
(40) t 
GR
GR
GS
[1 0 0 1 86.2 151.125] CT
0.149 GC
/Helvetica 14 F
GS
[1 0 0 1 0 0] CT
-15.572 4.28 moveto 
1 -1 scale
(50) t 
GR
GR
GS
[1 0 0 1 86.2 110.75] CT
0.149 GC
/Helvetica 14 F
GS
[1 0 0 1 0 0] CT
-15.572 4.28 moveto 
1 -1 scale
(60) t 
GR
GR
GS
[1 0 0 1 86.2 70.375] CT
0.149 GC
/Helvetica 14 F
GS
[1 0 0 1 0 0] CT
-15.572 4.28 moveto 
1 -1 scale
(70) t 
GR
GR
GS
[1 0 0 1 86.2 30] CT
0.149 GC
/Helvetica 14 F
GS
[1 0 0 1 0 0] CT
-15.572 4.28 moveto 
1 -1 scale
(80) t 
GR
GR
GS
0 0 1 RC
2 setlinecap
10.0 ML
2 LW
N
91.054 68.469 M
118.104 68.469 L
145.154 68.469 L
172.204 68.469 L
199.254 68.469 L
226.304 68.469 L
253.354 68.469 L
280.404 68.469 L
307.454 68.469 L
334.504 68.469 L
361.554 68.469 L
388.604 68.469 L
415.654 68.469 L
442.704 68.469 L
469.754 68.469 L
496.804 68.469 L
523.854 68.469 L
550.904 68.469 L
577.954 68.469 L
605.004 68.469 L
S
GR
GS
0 0 1 RC
2 setlinecap
10.0 ML
2 LW
N
96.5 68.5 M
95.545 65.561 L
93.045 63.745 L
89.955 63.745 L
87.455 65.561 L
86.5 68.5 L
87.455 71.439 L
89.955 73.255 L
93.045 73.255 L
95.545 71.439 L
96.5 68.5 L
S
GR
GS
0 0 1 RC
2 setlinecap
10.0 ML
2 LW
N
123.5 68.5 M
122.545 65.561 L
120.045 63.745 L
116.955 63.745 L
114.455 65.561 L
113.5 68.5 L
114.455 71.439 L
116.955 73.255 L
120.045 73.255 L
122.545 71.439 L
123.5 68.5 L
S
GR
GS
0 0 1 RC
2 setlinecap
10.0 ML
2 LW
N
150.5 68.5 M
149.545 65.561 L
147.045 63.745 L
143.955 63.745 L
141.455 65.561 L
140.5 68.5 L
141.455 71.439 L
143.955 73.255 L
147.045 73.255 L
149.545 71.439 L
150.5 68.5 L
S
GR
GS
0 0 1 RC
2 setlinecap
10.0 ML
2 LW
N
177.5 68.5 M
176.545 65.561 L
174.045 63.745 L
170.955 63.745 L
168.455 65.561 L
167.5 68.5 L
168.455 71.439 L
170.955 73.255 L
174.045 73.255 L
176.545 71.439 L
177.5 68.5 L
S
GR
GS
0 0 1 RC
2 setlinecap
10.0 ML
2 LW
N
204.5 68.5 M
203.545 65.561 L
201.045 63.745 L
197.955 63.745 L
195.455 65.561 L
194.5 68.5 L
195.455 71.439 L
197.955 73.255 L
201.045 73.255 L
203.545 71.439 L
204.5 68.5 L
S
GR
GS
0 0 1 RC
2 setlinecap
10.0 ML
2 LW
N
231.5 68.5 M
230.545 65.561 L
228.045 63.745 L
224.955 63.745 L
222.455 65.561 L
221.5 68.5 L
222.455 71.439 L
224.955 73.255 L
228.045 73.255 L
230.545 71.439 L
231.5 68.5 L
S
GR
GS
0 0 1 RC
2 setlinecap
10.0 ML
2 LW
N
258.5 68.5 M
257.545 65.561 L
255.045 63.745 L
251.955 63.745 L
249.455 65.561 L
248.5 68.5 L
249.455 71.439 L
251.955 73.255 L
255.045 73.255 L
257.545 71.439 L
258.5 68.5 L
S
GR
GS
0 0 1 RC
2 setlinecap
10.0 ML
2 LW
N
285.5 68.5 M
284.545 65.561 L
282.045 63.745 L
278.955 63.745 L
276.455 65.561 L
275.5 68.5 L
276.455 71.439 L
278.955 73.255 L
282.045 73.255 L
284.545 71.439 L
285.5 68.5 L
S
GR
GS
0 0 1 RC
2 setlinecap
10.0 ML
2 LW
N
312.5 68.5 M
311.545 65.561 L
309.045 63.745 L
305.955 63.745 L
303.455 65.561 L
302.5 68.5 L
303.455 71.439 L
305.955 73.255 L
309.045 73.255 L
311.545 71.439 L
312.5 68.5 L
S
GR
GS
0 0 1 RC
2 setlinecap
10.0 ML
2 LW
N
339.5 68.5 M
338.545 65.561 L
336.045 63.745 L
332.955 63.745 L
330.455 65.561 L
329.5 68.5 L
330.455 71.439 L
332.955 73.255 L
336.045 73.255 L
338.545 71.439 L
339.5 68.5 L
S
GR
GS
0 0 1 RC
2 setlinecap
10.0 ML
2 LW
N
366.5 68.5 M
365.545 65.561 L
363.045 63.745 L
359.955 63.745 L
357.455 65.561 L
356.5 68.5 L
357.455 71.439 L
359.955 73.255 L
363.045 73.255 L
365.545 71.439 L
366.5 68.5 L
S
GR
GS
0 0 1 RC
2 setlinecap
10.0 ML
2 LW
N
393.5 68.5 M
392.545 65.561 L
390.045 63.745 L
386.955 63.745 L
384.455 65.561 L
383.5 68.5 L
384.455 71.439 L
386.955 73.255 L
390.045 73.255 L
392.545 71.439 L
393.5 68.5 L
S
GR
GS
0 0 1 RC
2 setlinecap
10.0 ML
2 LW
N
420.5 68.5 M
419.545 65.561 L
417.045 63.745 L
413.955 63.745 L
411.455 65.561 L
410.5 68.5 L
411.455 71.439 L
413.955 73.255 L
417.045 73.255 L
419.545 71.439 L
420.5 68.5 L
S
GR
GS
0 0 1 RC
2 setlinecap
10.0 ML
2 LW
N
447.5 68.5 M
446.545 65.561 L
444.045 63.745 L
440.955 63.745 L
438.455 65.561 L
437.5 68.5 L
438.455 71.439 L
440.955 73.255 L
444.045 73.255 L
446.545 71.439 L
447.5 68.5 L
S
GR
GS
0 0 1 RC
2 setlinecap
10.0 ML
2 LW
N
474.5 68.5 M
473.545 65.561 L
471.045 63.745 L
467.955 63.745 L
465.455 65.561 L
464.5 68.5 L
465.455 71.439 L
467.955 73.255 L
471.045 73.255 L
473.545 71.439 L
474.5 68.5 L
S
GR
GS
0 0 1 RC
2 setlinecap
10.0 ML
2 LW
N
501.5 68.5 M
500.545 65.561 L
498.045 63.745 L
494.955 63.745 L
492.455 65.561 L
491.5 68.5 L
492.455 71.439 L
494.955 73.255 L
498.045 73.255 L
500.545 71.439 L
501.5 68.5 L
S
GR
GS
0 0 1 RC
2 setlinecap
10.0 ML
2 LW
N
528.5 68.5 M
527.545 65.561 L
525.045 63.745 L
521.955 63.745 L
519.455 65.561 L
518.5 68.5 L
519.455 71.439 L
521.955 73.255 L
525.045 73.255 L
527.545 71.439 L
528.5 68.5 L
S
GR
GS
0 0 1 RC
2 setlinecap
10.0 ML
2 LW
N
555.5 68.5 M
554.545 65.561 L
552.045 63.745 L
548.955 63.745 L
546.455 65.561 L
545.5 68.5 L
546.455 71.439 L
548.955 73.255 L
552.045 73.255 L
554.545 71.439 L
555.5 68.5 L
S
GR
GS
0 0 1 RC
2 setlinecap
10.0 ML
2 LW
N
582.5 68.5 M
581.545 65.561 L
579.045 63.745 L
575.955 63.745 L
573.455 65.561 L
572.5 68.5 L
573.455 71.439 L
575.955 73.255 L
579.045 73.255 L
581.545 71.439 L
582.5 68.5 L
S
GR
GS
0 0 1 RC
2 setlinecap
10.0 ML
2 LW
N
610.5 68.5 M
609.545 65.561 L
607.045 63.745 L
603.955 63.745 L
601.455 65.561 L
600.5 68.5 L
601.455 71.439 L
603.955 73.255 L
607.045 73.255 L
609.545 71.439 L
610.5 68.5 L
S
GR
GS
0 0.6 0 RC
2 setlinecap
10.0 ML
2 LW
N
91.054 101.908 M
118.104 101.908 L
145.154 101.908 L
172.204 101.908 L
199.254 101.908 L
226.304 101.908 L
253.354 101.908 L
280.404 101.908 L
307.454 101.908 L
334.504 101.908 L
361.554 101.908 L
388.604 101.908 L
415.654 101.908 L
442.704 101.908 L
469.754 101.908 L
496.804 101.908 L
523.854 101.908 L
550.904 101.908 L
577.954 101.908 L
605.004 101.908 L
S
GR
GS
0 0.6 0 RC
2 setlinecap
10.0 ML
2 LW
N
87.6 105.4 M
87.6 97.6 L
95.4 97.6 L
95.4 105.4 L
87.6 105.4 L
S
GR
GS
0 0.6 0 RC
2 setlinecap
10.0 ML
2 LW
N
114.6 105.4 M
114.6 97.6 L
122.4 97.6 L
122.4 105.4 L
114.6 105.4 L
S
GR
GS
0 0.6 0 RC
2 setlinecap
10.0 ML
2 LW
N
141.6 105.4 M
141.6 97.6 L
149.4 97.6 L
149.4 105.4 L
141.6 105.4 L
S
GR
GS
0 0.6 0 RC
2 setlinecap
10.0 ML
2 LW
N
168.6 105.4 M
168.6 97.6 L
176.4 97.6 L
176.4 105.4 L
168.6 105.4 L
S
GR
GS
0 0.6 0 RC
2 setlinecap
10.0 ML
2 LW
N
195.6 105.4 M
195.6 97.6 L
203.4 97.6 L
203.4 105.4 L
195.6 105.4 L
S
GR
GS
0 0.6 0 RC
2 setlinecap
10.0 ML
2 LW
N
222.6 105.4 M
222.6 97.6 L
230.4 97.6 L
230.4 105.4 L
222.6 105.4 L
S
GR
GS
0 0.6 0 RC
2 setlinecap
10.0 ML
2 LW
N
249.6 105.4 M
249.6 97.6 L
257.4 97.6 L
257.4 105.4 L
249.6 105.4 L
S
GR
GS
0 0.6 0 RC
2 setlinecap
10.0 ML
2 LW
N
276.6 105.4 M
276.6 97.6 L
284.4 97.6 L
284.4 105.4 L
276.6 105.4 L
S
GR
GS
0 0.6 0 RC
2 setlinecap
10.0 ML
2 LW
N
303.6 105.4 M
303.6 97.6 L
311.4 97.6 L
311.4 105.4 L
303.6 105.4 L
S
GR
GS
0 0.6 0 RC
2 setlinecap
10.0 ML
2 LW
N
330.6 105.4 M
330.6 97.6 L
338.4 97.6 L
338.4 105.4 L
330.6 105.4 L
S
GR
GS
0 0.6 0 RC
2 setlinecap
10.0 ML
2 LW
N
357.6 105.4 M
357.6 97.6 L
365.4 97.6 L
365.4 105.4 L
357.6 105.4 L
S
GR
GS
0 0.6 0 RC
2 setlinecap
10.0 ML
2 LW
N
384.6 105.4 M
384.6 97.6 L
392.4 97.6 L
392.4 105.4 L
384.6 105.4 L
S
GR
GS
0 0.6 0 RC
2 setlinecap
10.0 ML
2 LW
N
411.6 105.4 M
411.6 97.6 L
419.4 97.6 L
419.4 105.4 L
411.6 105.4 L
S
GR
GS
0 0.6 0 RC
2 setlinecap
10.0 ML
2 LW
N
438.6 105.4 M
438.6 97.6 L
446.4 97.6 L
446.4 105.4 L
438.6 105.4 L
S
GR
GS
0 0.6 0 RC
2 setlinecap
10.0 ML
2 LW
N
465.6 105.4 M
465.6 97.6 L
473.4 97.6 L
473.4 105.4 L
465.6 105.4 L
S
GR
GS
0 0.6 0 RC
2 setlinecap
10.0 ML
2 LW
N
492.6 105.4 M
492.6 97.6 L
500.4 97.6 L
500.4 105.4 L
492.6 105.4 L
S
GR
GS
0 0.6 0 RC
2 setlinecap
10.0 ML
2 LW
N
519.6 105.4 M
519.6 97.6 L
527.4 97.6 L
527.4 105.4 L
519.6 105.4 L
S
GR
GS
0 0.6 0 RC
2 setlinecap
10.0 ML
2 LW
N
546.6 105.4 M
546.6 97.6 L
554.4 97.6 L
554.4 105.4 L
546.6 105.4 L
S
GR
GS
0 0.6 0 RC
2 setlinecap
10.0 ML
2 LW
N
573.6 105.4 M
573.6 97.6 L
581.4 97.6 L
581.4 105.4 L
573.6 105.4 L
S
GR
GS
0 0.6 0 RC
2 setlinecap
10.0 ML
2 LW
N
601.6 105.4 M
601.6 97.6 L
609.4 97.6 L
609.4 105.4 L
601.6 105.4 L
S
GR
GS
1 0 0 RC
2 setlinecap
10.0 ML
2 LW
N
91.054 345.826 M
118.104 345.826 L
145.154 345.826 L
172.204 345.826 L
199.254 345.826 L
226.304 345.826 L
253.354 345.826 L
280.404 345.826 L
307.454 345.826 L
334.504 345.826 L
361.554 345.826 L
388.604 345.826 L
415.654 345.826 L
442.704 345.826 L
469.754 345.826 L
496.804 345.826 L
523.854 345.826 L
550.904 345.826 L
577.954 345.826 L
605.004 345.826 L
S
GR
GS
1 0 0 RC
2 setlinecap
10.0 ML
2 LW
N
86 351 M
97 340 L
S
GR
GS
1 0 0 RC
2 setlinecap
10.0 ML
2 LW
N
86 340 M
97 351 L
S
GR
GS
1 0 0 RC
2 setlinecap
10.0 ML
2 LW
N
113 351 M
124 340 L
S
GR
GS
1 0 0 RC
2 setlinecap
10.0 ML
2 LW
N
113 340 M
124 351 L
S
GR
GS
1 0 0 RC
2 setlinecap
10.0 ML
2 LW
N
140 351 M
151 340 L
S
GR
GS
1 0 0 RC
2 setlinecap
10.0 ML
2 LW
N
140 340 M
151 351 L
S
GR
GS
1 0 0 RC
2 setlinecap
10.0 ML
2 LW
N
167 351 M
178 340 L
S
GR
GS
1 0 0 RC
2 setlinecap
10.0 ML
2 LW
N
167 340 M
178 351 L
S
GR
GS
1 0 0 RC
2 setlinecap
10.0 ML
2 LW
N
194 351 M
205 340 L
S
GR
GS
1 0 0 RC
2 setlinecap
10.0 ML
2 LW
N
194 340 M
205 351 L
S
GR
GS
1 0 0 RC
2 setlinecap
10.0 ML
2 LW
N
221 351 M
232 340 L
S
GR
GS
1 0 0 RC
2 setlinecap
10.0 ML
2 LW
N
221 340 M
232 351 L
S
GR
GS
1 0 0 RC
2 setlinecap
10.0 ML
2 LW
N
248 351 M
259 340 L
S
GR
GS
1 0 0 RC
2 setlinecap
10.0 ML
2 LW
N
248 340 M
259 351 L
S
GR
GS
1 0 0 RC
2 setlinecap
10.0 ML
2 LW
N
275 351 M
286 340 L
S
GR
GS
1 0 0 RC
2 setlinecap
10.0 ML
2 LW
N
275 340 M
286 351 L
S
GR
GS
1 0 0 RC
2 setlinecap
10.0 ML
2 LW
N
302 351 M
313 340 L
S
GR
GS
1 0 0 RC
2 setlinecap
10.0 ML
2 LW
N
302 340 M
313 351 L
S
GR
GS
1 0 0 RC
2 setlinecap
10.0 ML
2 LW
N
329 351 M
340 340 L
S
GR
GS
1 0 0 RC
2 setlinecap
10.0 ML
2 LW
N
329 340 M
340 351 L
S
GR
GS
1 0 0 RC
2 setlinecap
10.0 ML
2 LW
N
356 351 M
367 340 L
S
GR
GS
1 0 0 RC
2 setlinecap
10.0 ML
2 LW
N
356 340 M
367 351 L
S
GR
GS
1 0 0 RC
2 setlinecap
10.0 ML
2 LW
N
383 351 M
394 340 L
S
GR
GS
1 0 0 RC
2 setlinecap
10.0 ML
2 LW
N
383 340 M
394 351 L
S
GR
GS
1 0 0 RC
2 setlinecap
10.0 ML
2 LW
N
410 351 M
421 340 L
S
GR
GS
1 0 0 RC
2 setlinecap
10.0 ML
2 LW
N
410 340 M
421 351 L
S
GR
GS
1 0 0 RC
2 setlinecap
10.0 ML
2 LW
N
437 351 M
448 340 L
S
GR
GS
1 0 0 RC
2 setlinecap
10.0 ML
2 LW
N
437 340 M
448 351 L
S
GR
GS
1 0 0 RC
2 setlinecap
10.0 ML
2 LW
N
464 351 M
475 340 L
S
GR
GS
1 0 0 RC
2 setlinecap
10.0 ML
2 LW
N
464 340 M
475 351 L
S
GR
GS
1 0 0 RC
2 setlinecap
10.0 ML
2 LW
N
491 351 M
502 340 L
S
GR
GS
1 0 0 RC
2 setlinecap
10.0 ML
2 LW
N
491 340 M
502 351 L
S
GR
GS
1 0 0 RC
2 setlinecap
10.0 ML
2 LW
N
518 351 M
529 340 L
S
GR
GS
1 0 0 RC
2 setlinecap
10.0 ML
2 LW
N
518 340 M
529 351 L
S
GR
GS
1 0 0 RC
2 setlinecap
10.0 ML
2 LW
N
545 351 M
556 340 L
S
GR
GS
1 0 0 RC
2 setlinecap
10.0 ML
2 LW
N
545 340 M
556 351 L
S
GR
GS
1 0 0 RC
2 setlinecap
10.0 ML
2 LW
N
572 351 M
583 340 L
S
GR
GS
1 0 0 RC
2 setlinecap
10.0 ML
2 LW
N
572 340 M
583 351 L
S
GR
GS
1 0 0 RC
2 setlinecap
10.0 ML
2 LW
N
600 351 M
611 340 L
S
GR
GS
1 0 0 RC
2 setlinecap
10.0 ML
2 LW
N
600 340 M
611 351 L
S
GR
GS
0 0.8 0.8 RC
2 setlinecap
10.0 ML
2 LW
N
91.054 68.469 M
118.104 68.469 L
145.154 68.469 L
172.204 68.469 L
199.254 73.28 L
226.304 78.09 L
253.354 82.21 L
280.404 83.067 L
307.454 90.933 L
334.504 98.744 L
361.554 102.141 L
388.604 102.168 L
415.654 103.754 L
442.704 107.753 L
469.754 108.669 L
496.804 111.14 L
523.854 112.668 L
550.904 115.024 L
577.954 115.734 L
605.004 117.234 L
S
GR
GS
0 0.8 0.8 RC
2 setlinecap
10.0 ML
2 LW
N
83 68.5 M
100 68.5 L
S
GR
GS
0 0.8 0.8 RC
2 setlinecap
10.0 ML
2 LW
N
91.5 77 M
91.5 60 L
S
GR
GS
0 0.8 0.8 RC
2 setlinecap
10.0 ML
2 LW
N
86 74 M
97 63 L
S
GR
GS
0 0.8 0.8 RC
2 setlinecap
10.0 ML
2 LW
N
86 63 M
97 74 L
S
GR
GS
0 0.8 0.8 RC
2 setlinecap
10.0 ML
2 LW
N
110 68.5 M
127 68.5 L
S
GR
GS
0 0.8 0.8 RC
2 setlinecap
10.0 ML
2 LW
N
118.5 77 M
118.5 60 L
S
GR
GS
0 0.8 0.8 RC
2 setlinecap
10.0 ML
2 LW
N
113 74 M
124 63 L
S
GR
GS
0 0.8 0.8 RC
2 setlinecap
10.0 ML
2 LW
N
113 63 M
124 74 L
S
GR
GS
0 0.8 0.8 RC
2 setlinecap
10.0 ML
2 LW
N
137 68.5 M
154 68.5 L
S
GR
GS
0 0.8 0.8 RC
2 setlinecap
10.0 ML
2 LW
N
145.5 77 M
145.5 60 L
S
GR
GS
0 0.8 0.8 RC
2 setlinecap
10.0 ML
2 LW
N
140 74 M
151 63 L
S
GR
GS
0 0.8 0.8 RC
2 setlinecap
10.0 ML
2 LW
N
140 63 M
151 74 L
S
GR
GS
0 0.8 0.8 RC
2 setlinecap
10.0 ML
2 LW
N
164 68.5 M
181 68.5 L
S
GR
GS
0 0.8 0.8 RC
2 setlinecap
10.0 ML
2 LW
N
172.5 77 M
172.5 60 L
S
GR
GS
0 0.8 0.8 RC
2 setlinecap
10.0 ML
2 LW
N
167 74 M
178 63 L
S
GR
GS
0 0.8 0.8 RC
2 setlinecap
10.0 ML
2 LW
N
167 63 M
178 74 L
S
GR
GS
0 0.8 0.8 RC
2 setlinecap
10.0 ML
2 LW
N
191 73.5 M
208 73.5 L
S
GR
GS
0 0.8 0.8 RC
2 setlinecap
10.0 ML
2 LW
N
199.5 82 M
199.5 65 L
S
GR
GS
0 0.8 0.8 RC
2 setlinecap
10.0 ML
2 LW
N
194 79 M
205 68 L
S
GR
GS
0 0.8 0.8 RC
2 setlinecap
10.0 ML
2 LW
N
194 68 M
205 79 L
S
GR
GS
0 0.8 0.8 RC
2 setlinecap
10.0 ML
2 LW
N
218 78.5 M
235 78.5 L
S
GR
GS
0 0.8 0.8 RC
2 setlinecap
10.0 ML
2 LW
N
226.5 87 M
226.5 70 L
S
GR
GS
0 0.8 0.8 RC
2 setlinecap
10.0 ML
2 LW
N
221 84 M
232 73 L
S
GR
GS
0 0.8 0.8 RC
2 setlinecap
10.0 ML
2 LW
N
221 73 M
232 84 L
S
GR
GS
0 0.8 0.8 RC
2 setlinecap
10.0 ML
2 LW
N
245 82.5 M
262 82.5 L
S
GR
GS
0 0.8 0.8 RC
2 setlinecap
10.0 ML
2 LW
N
253.5 91 M
253.5 74 L
S
GR
GS
0 0.8 0.8 RC
2 setlinecap
10.0 ML
2 LW
N
248 88 M
259 77 L
S
GR
GS
0 0.8 0.8 RC
2 setlinecap
10.0 ML
2 LW
N
248 77 M
259 88 L
S
GR
GS
0 0.8 0.8 RC
2 setlinecap
10.0 ML
2 LW
N
272 83.5 M
289 83.5 L
S
GR
GS
0 0.8 0.8 RC
2 setlinecap
10.0 ML
2 LW
N
280.5 92 M
280.5 75 L
S
GR
GS
0 0.8 0.8 RC
2 setlinecap
10.0 ML
2 LW
N
275 89 M
286 78 L
S
GR
GS
0 0.8 0.8 RC
2 setlinecap
10.0 ML
2 LW
N
275 78 M
286 89 L
S
GR
GS
0 0.8 0.8 RC
2 setlinecap
10.0 ML
2 LW
N
299 90.5 M
316 90.5 L
S
GR
GS
0 0.8 0.8 RC
2 setlinecap
10.0 ML
2 LW
N
307.5 99 M
307.5 82 L
S
GR
GS
0 0.8 0.8 RC
2 setlinecap
10.0 ML
2 LW
N
302 96 M
313 85 L
S
GR
GS
0 0.8 0.8 RC
2 setlinecap
10.0 ML
2 LW
N
302 85 M
313 96 L
S
GR
GS
0 0.8 0.8 RC
2 setlinecap
10.0 ML
2 LW
N
326 98.5 M
343 98.5 L
S
GR
GS
0 0.8 0.8 RC
2 setlinecap
10.0 ML
2 LW
N
334.5 107 M
334.5 90 L
S
GR
GS
0 0.8 0.8 RC
2 setlinecap
10.0 ML
2 LW
N
329 104 M
340 93 L
S
GR
GS
0 0.8 0.8 RC
2 setlinecap
10.0 ML
2 LW
N
329 93 M
340 104 L
S
GR
GS
0 0.8 0.8 RC
2 setlinecap
10.0 ML
2 LW
N
353 102.5 M
370 102.5 L
S
GR
GS
0 0.8 0.8 RC
2 setlinecap
10.0 ML
2 LW
N
361.5 111 M
361.5 94 L
S
GR
GS
0 0.8 0.8 RC
2 setlinecap
10.0 ML
2 LW
N
356 108 M
367 97 L
S
GR
GS
0 0.8 0.8 RC
2 setlinecap
10.0 ML
2 LW
N
356 97 M
367 108 L
S
GR
GS
0 0.8 0.8 RC
2 setlinecap
10.0 ML
2 LW
N
380 102.5 M
397 102.5 L
S
GR
GS
0 0.8 0.8 RC
2 setlinecap
10.0 ML
2 LW
N
388.5 111 M
388.5 94 L
S
GR
GS
0 0.8 0.8 RC
2 setlinecap
10.0 ML
2 LW
N
383 108 M
394 97 L
S
GR
GS
0 0.8 0.8 RC
2 setlinecap
10.0 ML
2 LW
N
383 97 M
394 108 L
S
GR
GS
0 0.8 0.8 RC
2 setlinecap
10.0 ML
2 LW
N
407 103.5 M
424 103.5 L
S
GR
GS
0 0.8 0.8 RC
2 setlinecap
10.0 ML
2 LW
N
415.5 112 M
415.5 95 L
S
GR
GS
0 0.8 0.8 RC
2 setlinecap
10.0 ML
2 LW
N
410 109 M
421 98 L
S
GR
GS
0 0.8 0.8 RC
2 setlinecap
10.0 ML
2 LW
N
410 98 M
421 109 L
S
GR
GS
0 0.8 0.8 RC
2 setlinecap
10.0 ML
2 LW
N
434 107.5 M
451 107.5 L
S
GR
GS
0 0.8 0.8 RC
2 setlinecap
10.0 ML
2 LW
N
442.5 116 M
442.5 99 L
S
GR
GS
0 0.8 0.8 RC
2 setlinecap
10.0 ML
2 LW
N
437 113 M
448 102 L
S
GR
GS
0 0.8 0.8 RC
2 setlinecap
10.0 ML
2 LW
N
437 102 M
448 113 L
S
GR
GS
0 0.8 0.8 RC
2 setlinecap
10.0 ML
2 LW
N
461 108.5 M
478 108.5 L
S
GR
GS
0 0.8 0.8 RC
2 setlinecap
10.0 ML
2 LW
N
469.5 117 M
469.5 100 L
S
GR
GS
0 0.8 0.8 RC
2 setlinecap
10.0 ML
2 LW
N
464 114 M
475 103 L
S
GR
GS
0 0.8 0.8 RC
2 setlinecap
10.0 ML
2 LW
N
464 103 M
475 114 L
S
GR
GS
0 0.8 0.8 RC
2 setlinecap
10.0 ML
2 LW
N
488 111.5 M
505 111.5 L
S
GR
GS
0 0.8 0.8 RC
2 setlinecap
10.0 ML
2 LW
N
496.5 120 M
496.5 103 L
S
GR
GS
0 0.8 0.8 RC
2 setlinecap
10.0 ML
2 LW
N
491 117 M
502 106 L
S
GR
GS
0 0.8 0.8 RC
2 setlinecap
10.0 ML
2 LW
N
491 106 M
502 117 L
S
GR
GS
0 0.8 0.8 RC
2 setlinecap
10.0 ML
2 LW
N
515 112.5 M
532 112.5 L
S
GR
GS
0 0.8 0.8 RC
2 setlinecap
10.0 ML
2 LW
N
523.5 121 M
523.5 104 L
S
GR
GS
0 0.8 0.8 RC
2 setlinecap
10.0 ML
2 LW
N
518 118 M
529 107 L
S
GR
GS
0 0.8 0.8 RC
2 setlinecap
10.0 ML
2 LW
N
518 107 M
529 118 L
S
GR
GS
0 0.8 0.8 RC
2 setlinecap
10.0 ML
2 LW
N
542 115.5 M
559 115.5 L
S
GR
GS
0 0.8 0.8 RC
2 setlinecap
10.0 ML
2 LW
N
550.5 124 M
550.5 107 L
S
GR
GS
0 0.8 0.8 RC
2 setlinecap
10.0 ML
2 LW
N
545 121 M
556 110 L
S
GR
GS
0 0.8 0.8 RC
2 setlinecap
10.0 ML
2 LW
N
545 110 M
556 121 L
S
GR
GS
0 0.8 0.8 RC
2 setlinecap
10.0 ML
2 LW
N
569 115.5 M
586 115.5 L
S
GR
GS
0 0.8 0.8 RC
2 setlinecap
10.0 ML
2 LW
N
577.5 124 M
577.5 107 L
S
GR
GS
0 0.8 0.8 RC
2 setlinecap
10.0 ML
2 LW
N
572 121 M
583 110 L
S
GR
GS
0 0.8 0.8 RC
2 setlinecap
10.0 ML
2 LW
N
572 110 M
583 121 L
S
GR
GS
0 0.8 0.8 RC
2 setlinecap
10.0 ML
2 LW
N
597 117.5 M
614 117.5 L
S
GR
GS
0 0.8 0.8 RC
2 setlinecap
10.0 ML
2 LW
N
605.5 126 M
605.5 109 L
S
GR
GS
0 0.8 0.8 RC
2 setlinecap
10.0 ML
2 LW
N
600 123 M
611 112 L
S
GR
GS
0 0.8 0.8 RC
2 setlinecap
10.0 ML
2 LW
N
600 112 M
611 123 L
S
GR
GS
1 GC
N
527 343 M
527 269 L
622 269 L
622 343 L
cp
f
GR
GS
[1 0 0 1 566.00079 279.57144] CT
/Helvetica 18 F
GS
[1 0 0 1 0 0] CT
0 5.36 moveto 
1 -1 scale
(UCB) t 
GR
GR
GS
0 0 1 RC
2 setlinecap
10.0 ML
2 LW
N
533 279.571 M
563.001 279.571 L
S
GR
GS
0 0 1 RC
2 setlinecap
10.0 ML
2 LW
N
553.5 279.5 M
552.545 276.561 L
550.045 274.745 L
546.955 274.745 L
544.455 276.561 L
543.5 279.5 L
544.455 282.439 L
546.955 284.255 L
550.045 284.255 L
552.545 282.439 L
553.5 279.5 L
S
GR
GS
[1 0 0 1 566.00079 297.19046] CT
/Helvetica 18 F
GS
[1 0 0 1 0 0] CT
0 5.36 moveto 
1 -1 scale
(UCB+) t 
GR
GR
GS
0 0.6 0 RC
2 setlinecap
10.0 ML
2 LW
N
533 297.19 M
563.001 297.19 L
S
GR
GS
0 0.6 0 RC
2 setlinecap
10.0 ML
2 LW
N
544.6 301.4 M
544.6 293.6 L
552.4 293.6 L
552.4 301.4 L
544.6 301.4 L
S
GR
GS
[1 0 0 1 566.00079 314.80951] CT
/Helvetica 18 F
GS
[1 0 0 1 0 0] CT
0 5.36 moveto 
1 -1 scale
(mUCB) t 
GR
GR
GS
1 0 0 RC
2 setlinecap
10.0 ML
2 LW
N
533 314.81 M
563.001 314.81 L
S
GR
GS
1 0 0 RC
2 setlinecap
10.0 ML
2 LW
N
543 320 M
554 309 L
S
GR
GS
1 0 0 RC
2 setlinecap
10.0 ML
2 LW
N
543 309 M
554 320 L
S
GR
GS
[1 0 0 1 566.00079 332.42856] CT
/Helvetica 18 F
GS
[1 0 0 1 0 0] CT
0 5.36 moveto 
1 -1 scale
(tUCB) t 
GR
GR
GS
0 0.8 0.8 RC
2 setlinecap
10.0 ML
2 LW
N
533 332.429 M
563.001 332.429 L
S
GR
GS
0 0.8 0.8 RC
2 setlinecap
10.0 ML
2 LW
N
540 332.5 M
557 332.5 L
S
GR
GS
0 0.8 0.8 RC
2 setlinecap
10.0 ML
2 LW
N
548.5 341 M
548.5 324 L
S
GR
GS
0 0.8 0.8 RC
2 setlinecap
10.0 ML
2 LW
N
543 338 M
554 327 L
S
GR
GS
0 0.8 0.8 RC
2 setlinecap
10.0 ML
2 LW
N
543 327 M
554 338 L
S
GR
GS
0.149 GC
2 setlinecap
10.0 ML
N
527 343 M
527 269 L
622 269 L
622 343 L
527 343 L
S
GR
%%Trailer
%%Pages: 1
%%EOF
