%!PS-Adobe-3.0 EPSF-3.0
%%Creator: (MATLAB, The Mathworks, Inc. Version 8.4.0.150421 \(R2014b\). Operating System: Mac OS X)
%%Title: /Users/Martin/Projects/matlab-mva/Reinforcement_Learning/Project/transfer_bandit/movie_distribution.eps
%%CreationDate: 2015-01-05T22:04:49
%%Pages: (atend)
%%BoundingBox: 0 0 657 395
%%LanguageLevel: 2
%%EndComments
%%BeginProlog
%%BeginResource: procset (Apache XML Graphics Std ProcSet) 1.2 0
%%Version: 1.2 0
%%Copyright: (Copyright 2001-2003,2010 The Apache Software Foundation. License terms: http://www.apache.org/licenses/LICENSE-2.0)
/bd{bind def}bind def
/ld{load def}bd
/GR/grestore ld
/M/moveto ld
/LJ/setlinejoin ld
/C/curveto ld
/f/fill ld
/LW/setlinewidth ld
/GC/setgray ld
/t/show ld
/N/newpath ld
/CT/concat ld
/cp/closepath ld
/S/stroke ld
/L/lineto ld
/CC/setcmykcolor ld
/A/ashow ld
/GS/gsave ld
/RC/setrgbcolor ld
/RM/rmoveto ld
/ML/setmiterlimit ld
/re {4 2 roll M
1 index 0 rlineto
0 exch rlineto
neg 0 rlineto
cp } bd
/_ctm matrix def
/_tm matrix def
/BT { _ctm currentmatrix pop matrix _tm copy pop 0 0 moveto } bd
/ET { _ctm setmatrix } bd
/iTm { _ctm setmatrix _tm concat } bd
/Tm { _tm astore pop iTm 0 0 moveto } bd
/ux 0.0 def
/uy 0.0 def
/F {
  /Tp exch def
  /Tf exch def
  Tf findfont Tp scalefont setfont
  /cf Tf def  /cs Tp def
} bd
/ULS {currentpoint /uy exch def /ux exch def} bd
/ULE {
  /Tcx currentpoint pop def
  gsave
  newpath
  cf findfont cs scalefont dup
  /FontMatrix get 0 get /Ts exch def /FontInfo get dup
  /UnderlinePosition get Ts mul /To exch def
  /UnderlineThickness get Ts mul /Tt exch def
  ux uy To add moveto  Tcx uy To add lineto
  Tt setlinewidth stroke
  grestore
} bd
/OLE {
  /Tcx currentpoint pop def
  gsave
  newpath
  cf findfont cs scalefont dup
  /FontMatrix get 0 get /Ts exch def /FontInfo get dup
  /UnderlinePosition get Ts mul /To exch def
  /UnderlineThickness get Ts mul /Tt exch def
  ux uy To add cs add moveto Tcx uy To add cs add lineto
  Tt setlinewidth stroke
  grestore
} bd
/SOE {
  /Tcx currentpoint pop def
  gsave
  newpath
  cf findfont cs scalefont dup
  /FontMatrix get 0 get /Ts exch def /FontInfo get dup
  /UnderlinePosition get Ts mul /To exch def
  /UnderlineThickness get Ts mul /Tt exch def
  ux uy To add cs 10 mul 26 idiv add moveto Tcx uy To add cs 10 mul 26 idiv add lineto
  Tt setlinewidth stroke
  grestore
} bd
/QT {
/Y22 exch store
/X22 exch store
/Y21 exch store
/X21 exch store
currentpoint
/Y21 load 2 mul add 3 div exch
/X21 load 2 mul add 3 div exch
/X21 load 2 mul /X22 load add 3 div
/Y21 load 2 mul /Y22 load add 3 div
/X22 load /Y22 load curveto
} bd
/SSPD {
dup length /d exch dict def
{
/v exch def
/k exch def
currentpagedevice k known {
/cpdv currentpagedevice k get def
v cpdv ne {
/upd false def
/nullv v type /nulltype eq def
/nullcpdv cpdv type /nulltype eq def
nullv nullcpdv or
{
/upd true def
} {
/sametype v type cpdv type eq def
sametype {
v type /arraytype eq {
/vlen v length def
/cpdvlen cpdv length def
vlen cpdvlen eq {
0 1 vlen 1 sub {
/i exch def
/obj v i get def
/cpdobj cpdv i get def
obj cpdobj ne {
/upd true def
exit
} if
} for
} {
/upd true def
} ifelse
} {
v type /dicttype eq {
v {
/dv exch def
/dk exch def
/cpddv cpdv dk get def
dv cpddv ne {
/upd true def
exit
} if
} forall
} {
/upd true def
} ifelse
} ifelse
} if
} ifelse
upd true eq {
d k v put
} if
} if
} if
} forall
d length 0 gt {
d setpagedevice
} if
} bd
%%EndResource
%%BeginResource: procset (Apache XML Graphics EPS ProcSet) 1.0 0
%%Version: 1.0 0
%%Copyright: (Copyright 2002-2003 The Apache Software Foundation. License terms: http://www.apache.org/licenses/LICENSE-2.0)
/BeginEPSF { %def
/b4_Inc_state save def         % Save state for cleanup
/dict_count countdictstack def % Count objects on dict stack
/op_count count 1 sub def      % Count objects on operand stack
userdict begin                 % Push userdict on dict stack
/showpage { } def              % Redefine showpage, { } = null proc
0 setgray 0 setlinecap         % Prepare graphics state
1 setlinewidth 0 setlinejoin
10 setmiterlimit [ ] 0 setdash newpath
/languagelevel where           % If level not equal to 1 then
{pop languagelevel             % set strokeadjust and
1 ne                           % overprint to their defaults.
{false setstrokeadjust false setoverprint
} if
} if
} bd
/EndEPSF { %def
count op_count sub {pop} repeat            % Clean up stacks
countdictstack dict_count sub {end} repeat
b4_Inc_state restore
} bd
%%EndResource
%FOPBeginFontDict
%%IncludeResource: font Courier-Bold
%%IncludeResource: font Helvetica
%%IncludeResource: font Courier-BoldOblique
%%IncludeResource: font Courier-Oblique
%%IncludeResource: font Times-Roman
%%IncludeResource: font Helvetica-BoldOblique
%%IncludeResource: font Helvetica-Bold
%%IncludeResource: font Helvetica-Oblique
%%IncludeResource: font Times-BoldItalic
%%IncludeResource: font Courier
%%IncludeResource: font Times-Italic
%%IncludeResource: font Times-Bold
%%IncludeResource: font Symbol
%%IncludeResource: font ZapfDingbats
%FOPEndFontDict
%%BeginResource: encoding WinAnsiEncoding
/WinAnsiEncoding [
/.notdef /.notdef /.notdef /.notdef /.notdef
/.notdef /.notdef /.notdef /.notdef /.notdef
/.notdef /.notdef /.notdef /.notdef /.notdef
/.notdef /.notdef /.notdef /.notdef /.notdef
/.notdef /.notdef /.notdef /.notdef /.notdef
/.notdef /.notdef /.notdef /.notdef /.notdef
/.notdef /.notdef /space /exclam /quotedbl
/numbersign /dollar /percent /ampersand /quotesingle
/parenleft /parenright /asterisk /plus /comma
/hyphen /period /slash /zero /one
/two /three /four /five /six
/seven /eight /nine /colon /semicolon
/less /equal /greater /question /at
/A /B /C /D /E
/F /G /H /I /J
/K /L /M /N /O
/P /Q /R /S /T
/U /V /W /X /Y
/Z /bracketleft /backslash /bracketright /asciicircum
/underscore /quoteleft /a /b /c
/d /e /f /g /h
/i /j /k /l /m
/n /o /p /q /r
/s /t /u /v /w
/x /y /z /braceleft /bar
/braceright /asciitilde /bullet /Euro /bullet
/quotesinglbase /florin /quotedblbase /ellipsis /dagger
/daggerdbl /circumflex /perthousand /Scaron /guilsinglleft
/OE /bullet /Zcaron /bullet /bullet
/quoteleft /quoteright /quotedblleft /quotedblright /bullet
/endash /emdash /asciitilde /trademark /scaron
/guilsinglright /oe /bullet /zcaron /Ydieresis
/space /exclamdown /cent /sterling /currency
/yen /brokenbar /section /dieresis /copyright
/ordfeminine /guillemotleft /logicalnot /sfthyphen /registered
/macron /degree /plusminus /twosuperior /threesuperior
/acute /mu /paragraph /middot /cedilla
/onesuperior /ordmasculine /guillemotright /onequarter /onehalf
/threequarters /questiondown /Agrave /Aacute /Acircumflex
/Atilde /Adieresis /Aring /AE /Ccedilla
/Egrave /Eacute /Ecircumflex /Edieresis /Igrave
/Iacute /Icircumflex /Idieresis /Eth /Ntilde
/Ograve /Oacute /Ocircumflex /Otilde /Odieresis
/multiply /Oslash /Ugrave /Uacute /Ucircumflex
/Udieresis /Yacute /Thorn /germandbls /agrave
/aacute /acircumflex /atilde /adieresis /aring
/ae /ccedilla /egrave /eacute /ecircumflex
/edieresis /igrave /iacute /icircumflex /idieresis
/eth /ntilde /ograve /oacute /ocircumflex
/otilde /odieresis /divide /oslash /ugrave
/uacute /ucircumflex /udieresis /yacute /thorn
/ydieresis
] def
%%EndResource
%FOPBeginFontReencode
/Courier-Bold findfont
dup length dict begin
  {1 index /FID ne {def} {pop pop} ifelse} forall
  /Encoding WinAnsiEncoding def
  currentdict
end
/Courier-Bold exch definefont pop
/Helvetica findfont
dup length dict begin
  {1 index /FID ne {def} {pop pop} ifelse} forall
  /Encoding WinAnsiEncoding def
  currentdict
end
/Helvetica exch definefont pop
/Courier-BoldOblique findfont
dup length dict begin
  {1 index /FID ne {def} {pop pop} ifelse} forall
  /Encoding WinAnsiEncoding def
  currentdict
end
/Courier-BoldOblique exch definefont pop
/Courier-Oblique findfont
dup length dict begin
  {1 index /FID ne {def} {pop pop} ifelse} forall
  /Encoding WinAnsiEncoding def
  currentdict
end
/Courier-Oblique exch definefont pop
/Times-Roman findfont
dup length dict begin
  {1 index /FID ne {def} {pop pop} ifelse} forall
  /Encoding WinAnsiEncoding def
  currentdict
end
/Times-Roman exch definefont pop
/Helvetica-BoldOblique findfont
dup length dict begin
  {1 index /FID ne {def} {pop pop} ifelse} forall
  /Encoding WinAnsiEncoding def
  currentdict
end
/Helvetica-BoldOblique exch definefont pop
/Helvetica-Bold findfont
dup length dict begin
  {1 index /FID ne {def} {pop pop} ifelse} forall
  /Encoding WinAnsiEncoding def
  currentdict
end
/Helvetica-Bold exch definefont pop
/Helvetica-Oblique findfont
dup length dict begin
  {1 index /FID ne {def} {pop pop} ifelse} forall
  /Encoding WinAnsiEncoding def
  currentdict
end
/Helvetica-Oblique exch definefont pop
/Times-BoldItalic findfont
dup length dict begin
  {1 index /FID ne {def} {pop pop} ifelse} forall
  /Encoding WinAnsiEncoding def
  currentdict
end
/Times-BoldItalic exch definefont pop
/Courier findfont
dup length dict begin
  {1 index /FID ne {def} {pop pop} ifelse} forall
  /Encoding WinAnsiEncoding def
  currentdict
end
/Courier exch definefont pop
/Times-Italic findfont
dup length dict begin
  {1 index /FID ne {def} {pop pop} ifelse} forall
  /Encoding WinAnsiEncoding def
  currentdict
end
/Times-Italic exch definefont pop
/Times-Bold findfont
dup length dict begin
  {1 index /FID ne {def} {pop pop} ifelse} forall
  /Encoding WinAnsiEncoding def
  currentdict
end
/Times-Bold exch definefont pop
%FOPEndFontReencode
%%EndProlog
%%Page: 1 1
%%PageBoundingBox: 0 0 657 395
%%BeginPageSetup
[1 0 0 -1 0 395] CT
%%EndPageSetup
GS
1 GC
N
0 0 657 395 re
f
GR
GS
1 GC
N
0 0 657 395 re
f
GR
GS
1 GC
N
85 164 M
305 164 L
305 30 L
85 30 L
cp
f
GR
GS
[1 0 0 1 195 178] CT
0.149 GC
/Helvetica 14 F
GS
[1 0 0 1 0 0] CT
-17.51 10.78 moveto 
1 -1 scale
(rating) t 
GR
GR
GS
0.149 GC
2 setlinecap
10.0 ML
N
85 164 M
305 164 L
S
GR
GS
0.149 GC
2 setlinecap
10.0 ML
N
85 30 M
305 30 L
S
GR
GS
0.149 GC
2 setlinecap
10.0 ML
N
121.667 164 M
121.667 161.8 L
S
GR
GS
0.149 GC
2 setlinecap
10.0 ML
N
121.667 30 M
121.667 32.2 L
S
GR
GS
0.149 GC
2 setlinecap
10.0 ML
N
158.333 164 M
158.333 161.8 L
S
GR
GS
0.149 GC
2 setlinecap
10.0 ML
N
158.333 30 M
158.333 32.2 L
S
GR
GS
0.149 GC
2 setlinecap
10.0 ML
N
195 164 M
195 161.8 L
S
GR
GS
0.149 GC
2 setlinecap
10.0 ML
N
195 30 M
195 32.2 L
S
GR
GS
0.149 GC
2 setlinecap
10.0 ML
N
231.667 164 M
231.667 161.8 L
S
GR
GS
0.149 GC
2 setlinecap
10.0 ML
N
231.667 30 M
231.667 32.2 L
S
GR
GS
0.149 GC
2 setlinecap
10.0 ML
N
268.333 164 M
268.333 161.8 L
S
GR
GS
0.149 GC
2 setlinecap
10.0 ML
N
268.333 30 M
268.333 32.2 L
S
GR
GS
[1 0 0 1 121.66666 168] CT
0.149 GC
/Helvetica 10 F
GS
[1 0 0 1 0 0] CT
-2.781 7.7 moveto 
1 -1 scale
(1) t 
GR
GR
GS
[1 0 0 1 158.33333 168] CT
0.149 GC
/Helvetica 10 F
GS
[1 0 0 1 0 0] CT
-2.781 7.7 moveto 
1 -1 scale
(2) t 
GR
GR
GS
[1 0 0 1 195 168] CT
0.149 GC
/Helvetica 10 F
GS
[1 0 0 1 0 0] CT
-2.781 7.7 moveto 
1 -1 scale
(3) t 
GR
GR
GS
[1 0 0 1 231.66667 168] CT
0.149 GC
/Helvetica 10 F
GS
[1 0 0 1 0 0] CT
-2.781 7.7 moveto 
1 -1 scale
(4) t 
GR
GR
GS
[1 0 0 1 268.33334 168] CT
0.149 GC
/Helvetica 10 F
GS
[1 0 0 1 0 0] CT
-2.781 7.7 moveto 
1 -1 scale
(5) t 
GR
GR
GS
[0 -1 1 0 64.09863 97] CT
0.149 GC
/Helvetica 14 F
GS
[1 0 0 1 0 0] CT
-31.907 -2.22 moveto 
1 -1 scale
(probability) t 
GR
GR
GS
0.149 GC
2 setlinecap
10.0 ML
N
85 164 M
85 30 L
S
GR
GS
0.149 GC
2 setlinecap
10.0 ML
N
305 164 M
305 30 L
S
GR
GS
0.149 GC
2 setlinecap
10.0 ML
N
85 164 M
87.2 164 L
S
GR
GS
0.149 GC
2 setlinecap
10.0 ML
N
305 164 M
302.8 164 L
S
GR
GS
0.149 GC
2 setlinecap
10.0 ML
N
85 144.857 M
87.2 144.857 L
S
GR
GS
0.149 GC
2 setlinecap
10.0 ML
N
305 144.857 M
302.8 144.857 L
S
GR
GS
0.149 GC
2 setlinecap
10.0 ML
N
85 125.714 M
87.2 125.714 L
S
GR
GS
0.149 GC
2 setlinecap
10.0 ML
N
305 125.714 M
302.8 125.714 L
S
GR
GS
0.149 GC
2 setlinecap
10.0 ML
N
85 106.571 M
87.2 106.571 L
S
GR
GS
0.149 GC
2 setlinecap
10.0 ML
N
305 106.571 M
302.8 106.571 L
S
GR
GS
0.149 GC
2 setlinecap
10.0 ML
N
85 87.429 M
87.2 87.429 L
S
GR
GS
0.149 GC
2 setlinecap
10.0 ML
N
305 87.429 M
302.8 87.429 L
S
GR
GS
0.149 GC
2 setlinecap
10.0 ML
N
85 68.286 M
87.2 68.286 L
S
GR
GS
0.149 GC
2 setlinecap
10.0 ML
N
305 68.286 M
302.8 68.286 L
S
GR
GS
0.149 GC
2 setlinecap
10.0 ML
N
85 49.143 M
87.2 49.143 L
S
GR
GS
0.149 GC
2 setlinecap
10.0 ML
N
305 49.143 M
302.8 49.143 L
S
GR
GS
0.149 GC
2 setlinecap
10.0 ML
N
85 30 M
87.2 30 L
S
GR
GS
0.149 GC
2 setlinecap
10.0 ML
N
305 30 M
302.8 30 L
S
GR
GS
[1 0 0 1 81 164] CT
0.149 GC
/Helvetica 10 F
GS
[1 0 0 1 0 0] CT
-5.562 3.2 moveto 
1 -1 scale
(0) t 
GR
GR
GS
[1 0 0 1 81 144.85715] CT
0.149 GC
/Helvetica 10 F
GS
[1 0 0 1 0 0] CT
-13.901 3.2 moveto 
1 -1 scale
(0.1) t 
GR
GR
GS
[1 0 0 1 81 125.71429] CT
0.149 GC
/Helvetica 10 F
GS
[1 0 0 1 0 0] CT
-13.901 3.2 moveto 
1 -1 scale
(0.2) t 
GR
GR
GS
[1 0 0 1 81 106.57143] CT
0.149 GC
/Helvetica 10 F
GS
[1 0 0 1 0 0] CT
-13.901 3.2 moveto 
1 -1 scale
(0.3) t 
GR
GR
GS
[1 0 0 1 81 87.42857] CT
0.149 GC
/Helvetica 10 F
GS
[1 0 0 1 0 0] CT
-13.901 3.2 moveto 
1 -1 scale
(0.4) t 
GR
GR
GS
[1 0 0 1 81 68.28571] CT
0.149 GC
/Helvetica 10 F
GS
[1 0 0 1 0 0] CT
-13.901 3.2 moveto 
1 -1 scale
(0.5) t 
GR
GR
GS
[1 0 0 1 81 49.14285] CT
0.149 GC
/Helvetica 10 F
GS
[1 0 0 1 0 0] CT
-13.901 3.2 moveto 
1 -1 scale
(0.6) t 
GR
GR
GS
[1 0 0 1 81 30] CT
0.149 GC
/Helvetica 10 F
GS
[1 0 0 1 0 0] CT
-13.901 3.2 moveto 
1 -1 scale
(0.7) t 
GR
GR
GS
0.208 0.165 0.525 RC
N
107 164 M
107 151.143 L
136.333 151.143 L
136.333 164 L
cp
f
GR
GS
0.208 0.165 0.525 RC
N
143.667 164 M
143.667 106.857 L
173 106.857 L
173 164 L
cp
f
GR
GS
0.208 0.165 0.525 RC
N
180.333 164 M
180.333 42.571 L
209.667 42.571 L
209.667 164 L
cp
f
GR
GS
0.208 0.165 0.525 RC
N
217 164 M
217 164 L
246.333 164 L
246.333 164 L
cp
f
GR
GS
0.208 0.165 0.525 RC
N
253.667 164 M
253.667 164 L
283 164 L
283 164 L
cp
f
GR
GS
2 setlinecap
10.0 ML
N
107 164 M
107 151.143 L
136.333 151.143 L
136.333 164 L
107 164 L
S
GR
GS
2 setlinecap
10.0 ML
N
143.667 164 M
143.667 106.857 L
173 106.857 L
173 164 L
143.667 164 L
S
GR
GS
2 setlinecap
10.0 ML
N
180.333 164 M
180.333 42.571 L
209.667 42.571 L
209.667 164 L
180.333 164 L
S
GR
GS
2 setlinecap
10.0 ML
N
217 164 M
217 164 L
246.333 164 L
246.333 164 L
217 164 L
S
GR
GS
2 setlinecap
10.0 ML
N
253.667 164 M
253.667 164 L
283 164 L
283 164 L
253.667 164 L
S
GR
GS
[1 0 0 1 195 26] CT
/Helvetica-Bold 16 F
GS
[1 0 0 1 0 0] CT
-122.703 -2.68 moveto 
1 -1 scale
(Cluster 2, movie 2 \(worst movie\)) t 
GR
GR
GS
0.149 GC
2 setlinecap
10.0 ML
N
85 164 M
305 164 L
S
GR
GS
1 GC
N
375 164 M
595 164 L
595 30 L
375 30 L
cp
f
GR
GS
[1 0 0 1 485 178] CT
0.149 GC
/Helvetica 14 F
GS
[1 0 0 1 0 0] CT
-17.51 10.78 moveto 
1 -1 scale
(rating) t 
GR
GR
GS
0.149 GC
2 setlinecap
10.0 ML
N
375 164 M
595 164 L
S
GR
GS
0.149 GC
2 setlinecap
10.0 ML
N
375 30 M
595 30 L
S
GR
GS
0.149 GC
2 setlinecap
10.0 ML
N
411.667 164 M
411.667 161.8 L
S
GR
GS
0.149 GC
2 setlinecap
10.0 ML
N
411.667 30 M
411.667 32.2 L
S
GR
GS
0.149 GC
2 setlinecap
10.0 ML
N
448.333 164 M
448.333 161.8 L
S
GR
GS
0.149 GC
2 setlinecap
10.0 ML
N
448.333 30 M
448.333 32.2 L
S
GR
GS
0.149 GC
2 setlinecap
10.0 ML
N
485 164 M
485 161.8 L
S
GR
GS
0.149 GC
2 setlinecap
10.0 ML
N
485 30 M
485 32.2 L
S
GR
GS
0.149 GC
2 setlinecap
10.0 ML
N
521.667 164 M
521.667 161.8 L
S
GR
GS
0.149 GC
2 setlinecap
10.0 ML
N
521.667 30 M
521.667 32.2 L
S
GR
GS
0.149 GC
2 setlinecap
10.0 ML
N
558.333 164 M
558.333 161.8 L
S
GR
GS
0.149 GC
2 setlinecap
10.0 ML
N
558.333 30 M
558.333 32.2 L
S
GR
GS
[1 0 0 1 411.66666 168] CT
0.149 GC
/Helvetica 10 F
GS
[1 0 0 1 0 0] CT
-2.781 7.7 moveto 
1 -1 scale
(1) t 
GR
GR
GS
[1 0 0 1 448.33334 168] CT
0.149 GC
/Helvetica 10 F
GS
[1 0 0 1 0 0] CT
-2.781 7.7 moveto 
1 -1 scale
(2) t 
GR
GR
GS
[1 0 0 1 485 168] CT
0.149 GC
/Helvetica 10 F
GS
[1 0 0 1 0 0] CT
-2.781 7.7 moveto 
1 -1 scale
(3) t 
GR
GR
GS
[1 0 0 1 521.66669 168] CT
0.149 GC
/Helvetica 10 F
GS
[1 0 0 1 0 0] CT
-2.781 7.7 moveto 
1 -1 scale
(4) t 
GR
GR
GS
[1 0 0 1 558.33331 168] CT
0.149 GC
/Helvetica 10 F
GS
[1 0 0 1 0 0] CT
-2.781 7.7 moveto 
1 -1 scale
(5) t 
GR
GR
GS
[0 -1 1 0 354.09863 97] CT
0.149 GC
/Helvetica 14 F
GS
[1 0 0 1 0 0] CT
-31.907 -2.22 moveto 
1 -1 scale
(probability) t 
GR
GR
GS
0.149 GC
2 setlinecap
10.0 ML
N
375 164 M
375 30 L
S
GR
GS
0.149 GC
2 setlinecap
10.0 ML
N
595 164 M
595 30 L
S
GR
GS
0.149 GC
2 setlinecap
10.0 ML
N
375 164 M
377.2 164 L
S
GR
GS
0.149 GC
2 setlinecap
10.0 ML
N
595 164 M
592.8 164 L
S
GR
GS
0.149 GC
2 setlinecap
10.0 ML
N
375 144.857 M
377.2 144.857 L
S
GR
GS
0.149 GC
2 setlinecap
10.0 ML
N
595 144.857 M
592.8 144.857 L
S
GR
GS
0.149 GC
2 setlinecap
10.0 ML
N
375 125.714 M
377.2 125.714 L
S
GR
GS
0.149 GC
2 setlinecap
10.0 ML
N
595 125.714 M
592.8 125.714 L
S
GR
GS
0.149 GC
2 setlinecap
10.0 ML
N
375 106.571 M
377.2 106.571 L
S
GR
GS
0.149 GC
2 setlinecap
10.0 ML
N
595 106.571 M
592.8 106.571 L
S
GR
GS
0.149 GC
2 setlinecap
10.0 ML
N
375 87.429 M
377.2 87.429 L
S
GR
GS
0.149 GC
2 setlinecap
10.0 ML
N
595 87.429 M
592.8 87.429 L
S
GR
GS
0.149 GC
2 setlinecap
10.0 ML
N
375 68.286 M
377.2 68.286 L
S
GR
GS
0.149 GC
2 setlinecap
10.0 ML
N
595 68.286 M
592.8 68.286 L
S
GR
GS
0.149 GC
2 setlinecap
10.0 ML
N
375 49.143 M
377.2 49.143 L
S
GR
GS
0.149 GC
2 setlinecap
10.0 ML
N
595 49.143 M
592.8 49.143 L
S
GR
GS
0.149 GC
2 setlinecap
10.0 ML
N
375 30 M
377.2 30 L
S
GR
GS
0.149 GC
2 setlinecap
10.0 ML
N
595 30 M
592.8 30 L
S
GR
GS
[1 0 0 1 371 164] CT
0.149 GC
/Helvetica 10 F
GS
[1 0 0 1 0 0] CT
-5.562 3.2 moveto 
1 -1 scale
(0) t 
GR
GR
GS
[1 0 0 1 371 144.85715] CT
0.149 GC
/Helvetica 10 F
GS
[1 0 0 1 0 0] CT
-13.901 3.2 moveto 
1 -1 scale
(0.1) t 
GR
GR
GS
[1 0 0 1 371 125.71429] CT
0.149 GC
/Helvetica 10 F
GS
[1 0 0 1 0 0] CT
-13.901 3.2 moveto 
1 -1 scale
(0.2) t 
GR
GR
GS
[1 0 0 1 371 106.57143] CT
0.149 GC
/Helvetica 10 F
GS
[1 0 0 1 0 0] CT
-13.901 3.2 moveto 
1 -1 scale
(0.3) t 
GR
GR
GS
[1 0 0 1 371 87.42857] CT
0.149 GC
/Helvetica 10 F
GS
[1 0 0 1 0 0] CT
-13.901 3.2 moveto 
1 -1 scale
(0.4) t 
GR
GR
GS
[1 0 0 1 371 68.28571] CT
0.149 GC
/Helvetica 10 F
GS
[1 0 0 1 0 0] CT
-13.901 3.2 moveto 
1 -1 scale
(0.5) t 
GR
GR
GS
[1 0 0 1 371 49.14285] CT
0.149 GC
/Helvetica 10 F
GS
[1 0 0 1 0 0] CT
-13.901 3.2 moveto 
1 -1 scale
(0.6) t 
GR
GR
GS
[1 0 0 1 371 30] CT
0.149 GC
/Helvetica 10 F
GS
[1 0 0 1 0 0] CT
-13.901 3.2 moveto 
1 -1 scale
(0.7) t 
GR
GR
GS
0.208 0.165 0.525 RC
N
397 164 M
397 164 L
426.333 164 L
426.333 164 L
cp
f
GR
GS
0.208 0.165 0.525 RC
N
433.667 164 M
433.667 157.511 L
463 157.511 L
463 164 L
cp
f
GR
GS
0.208 0.165 0.525 RC
N
470.333 164 M
470.333 112.087 L
499.667 112.087 L
499.667 164 L
cp
f
GR
GS
0.208 0.165 0.525 RC
N
507 164 M
507 34.218 L
536.333 34.218 L
536.333 164 L
cp
f
GR
GS
0.208 0.165 0.525 RC
N
543.667 164 M
543.667 151.022 L
573 151.022 L
573 164 L
cp
f
GR
GS
2 setlinecap
10.0 ML
N
397 164 M
397 164 L
426.333 164 L
426.333 164 L
397 164 L
S
GR
GS
2 setlinecap
10.0 ML
N
433.667 164 M
433.667 157.511 L
463 157.511 L
463 164 L
433.667 164 L
S
GR
GS
2 setlinecap
10.0 ML
N
470.333 164 M
470.333 112.087 L
499.667 112.087 L
499.667 164 L
470.333 164 L
S
GR
GS
2 setlinecap
10.0 ML
N
507 164 M
507 34.218 L
536.333 34.218 L
536.333 164 L
507 164 L
S
GR
GS
2 setlinecap
10.0 ML
N
543.667 164 M
543.667 151.022 L
573 151.022 L
573 164 L
543.667 164 L
S
GR
GS
[1 0 0 1 485 26] CT
/Helvetica-Bold 16 F
GS
[1 0 0 1 0 0] CT
-68.473 -2.68 moveto 
1 -1 scale
(Cluster 1, movie 1) t 
GR
GR
GS
0.149 GC
2 setlinecap
10.0 ML
N
375 164 M
595 164 L
S
GR
GS
1 GC
N
85 352 M
305 352 L
305 217 L
85 217 L
cp
f
GR
GS
[1 0 0 1 195 366] CT
0.149 GC
/Helvetica 14 F
GS
[1 0 0 1 0 0] CT
-17.51 10.78 moveto 
1 -1 scale
(rating) t 
GR
GR
GS
0.149 GC
2 setlinecap
10.0 ML
N
85 352 M
305 352 L
S
GR
GS
0.149 GC
2 setlinecap
10.0 ML
N
85 217 M
305 217 L
S
GR
GS
0.149 GC
2 setlinecap
10.0 ML
N
121.667 352 M
121.667 349.8 L
S
GR
GS
0.149 GC
2 setlinecap
10.0 ML
N
121.667 217 M
121.667 219.2 L
S
GR
GS
0.149 GC
2 setlinecap
10.0 ML
N
158.333 352 M
158.333 349.8 L
S
GR
GS
0.149 GC
2 setlinecap
10.0 ML
N
158.333 217 M
158.333 219.2 L
S
GR
GS
0.149 GC
2 setlinecap
10.0 ML
N
195 352 M
195 349.8 L
S
GR
GS
0.149 GC
2 setlinecap
10.0 ML
N
195 217 M
195 219.2 L
S
GR
GS
0.149 GC
2 setlinecap
10.0 ML
N
231.667 352 M
231.667 349.8 L
S
GR
GS
0.149 GC
2 setlinecap
10.0 ML
N
231.667 217 M
231.667 219.2 L
S
GR
GS
0.149 GC
2 setlinecap
10.0 ML
N
268.333 352 M
268.333 349.8 L
S
GR
GS
0.149 GC
2 setlinecap
10.0 ML
N
268.333 217 M
268.333 219.2 L
S
GR
GS
[1 0 0 1 121.66666 356] CT
0.149 GC
/Helvetica 10 F
GS
[1 0 0 1 0 0] CT
-2.781 7.7 moveto 
1 -1 scale
(1) t 
GR
GR
GS
[1 0 0 1 158.33333 356] CT
0.149 GC
/Helvetica 10 F
GS
[1 0 0 1 0 0] CT
-2.781 7.7 moveto 
1 -1 scale
(2) t 
GR
GR
GS
[1 0 0 1 195 356] CT
0.149 GC
/Helvetica 10 F
GS
[1 0 0 1 0 0] CT
-2.781 7.7 moveto 
1 -1 scale
(3) t 
GR
GR
GS
[1 0 0 1 231.66667 356] CT
0.149 GC
/Helvetica 10 F
GS
[1 0 0 1 0 0] CT
-2.781 7.7 moveto 
1 -1 scale
(4) t 
GR
GR
GS
[1 0 0 1 268.33334 356] CT
0.149 GC
/Helvetica 10 F
GS
[1 0 0 1 0 0] CT
-2.781 7.7 moveto 
1 -1 scale
(5) t 
GR
GR
GS
[0 -1 1 0 64.09863 284.5] CT
0.149 GC
/Helvetica 14 F
GS
[1 0 0 1 0 0] CT
-31.907 -2.22 moveto 
1 -1 scale
(probability) t 
GR
GR
GS
0.149 GC
2 setlinecap
10.0 ML
N
85 352 M
85 217 L
S
GR
GS
0.149 GC
2 setlinecap
10.0 ML
N
305 352 M
305 217 L
S
GR
GS
0.149 GC
2 setlinecap
10.0 ML
N
85 352 M
87.2 352 L
S
GR
GS
0.149 GC
2 setlinecap
10.0 ML
N
305 352 M
302.8 352 L
S
GR
GS
0.149 GC
2 setlinecap
10.0 ML
N
85 325 M
87.2 325 L
S
GR
GS
0.149 GC
2 setlinecap
10.0 ML
N
305 325 M
302.8 325 L
S
GR
GS
0.149 GC
2 setlinecap
10.0 ML
N
85 298 M
87.2 298 L
S
GR
GS
0.149 GC
2 setlinecap
10.0 ML
N
305 298 M
302.8 298 L
S
GR
GS
0.149 GC
2 setlinecap
10.0 ML
N
85 271 M
87.2 271 L
S
GR
GS
0.149 GC
2 setlinecap
10.0 ML
N
305 271 M
302.8 271 L
S
GR
GS
0.149 GC
2 setlinecap
10.0 ML
N
85 244 M
87.2 244 L
S
GR
GS
0.149 GC
2 setlinecap
10.0 ML
N
305 244 M
302.8 244 L
S
GR
GS
0.149 GC
2 setlinecap
10.0 ML
N
85 217 M
87.2 217 L
S
GR
GS
0.149 GC
2 setlinecap
10.0 ML
N
305 217 M
302.8 217 L
S
GR
GS
[1 0 0 1 81 352] CT
0.149 GC
/Helvetica 10 F
GS
[1 0 0 1 0 0] CT
-5.562 3.2 moveto 
1 -1 scale
(0) t 
GR
GR
GS
[1 0 0 1 81 325] CT
0.149 GC
/Helvetica 10 F
GS
[1 0 0 1 0 0] CT
-13.901 3.2 moveto 
1 -1 scale
(0.1) t 
GR
GR
GS
[1 0 0 1 81 298] CT
0.149 GC
/Helvetica 10 F
GS
[1 0 0 1 0 0] CT
-13.901 3.2 moveto 
1 -1 scale
(0.2) t 
GR
GR
GS
[1 0 0 1 81 271] CT
0.149 GC
/Helvetica 10 F
GS
[1 0 0 1 0 0] CT
-13.901 3.2 moveto 
1 -1 scale
(0.3) t 
GR
GR
GS
[1 0 0 1 81 244] CT
0.149 GC
/Helvetica 10 F
GS
[1 0 0 1 0 0] CT
-13.901 3.2 moveto 
1 -1 scale
(0.4) t 
GR
GR
GS
[1 0 0 1 81 217] CT
0.149 GC
/Helvetica 10 F
GS
[1 0 0 1 0 0] CT
-13.901 3.2 moveto 
1 -1 scale
(0.5) t 
GR
GR
GS
0.208 0.165 0.525 RC
N
107 352 M
107 330.496 L
136.333 330.496 L
136.333 352 L
cp
f
GR
GS
0.208 0.165 0.525 RC
N
143.667 352 M
143.667 313.77 L
173 313.77 L
173 352 L
cp
f
GR
GS
0.208 0.165 0.525 RC
N
180.333 352 M
180.333 230.142 L
209.667 230.142 L
209.667 352 L
cp
f
GR
GS
0.208 0.165 0.525 RC
N
217 352 M
217 265.982 L
246.333 265.982 L
246.333 352 L
cp
f
GR
GS
0.208 0.165 0.525 RC
N
253.667 352 M
253.667 349.611 L
283 349.611 L
283 352 L
cp
f
GR
GS
2 setlinecap
10.0 ML
N
107 352 M
107 330.496 L
136.333 330.496 L
136.333 352 L
107 352 L
S
GR
GS
2 setlinecap
10.0 ML
N
143.667 352 M
143.667 313.77 L
173 313.77 L
173 352 L
143.667 352 L
S
GR
GS
2 setlinecap
10.0 ML
N
180.333 352 M
180.333 230.142 L
209.667 230.142 L
209.667 352 L
180.333 352 L
S
GR
GS
2 setlinecap
10.0 ML
N
217 352 M
217 265.982 L
246.333 265.982 L
246.333 352 L
217 352 L
S
GR
GS
2 setlinecap
10.0 ML
N
253.667 352 M
253.667 349.611 L
283 349.611 L
283 352 L
253.667 352 L
S
GR
GS
[1 0 0 1 195 213] CT
/Helvetica-Bold 16 F
GS
[1 0 0 1 0 0] CT
-68.473 -2.68 moveto 
1 -1 scale
(Cluster 4, movie 4) t 
GR
GR
GS
0.149 GC
2 setlinecap
10.0 ML
N
85 352 M
305 352 L
S
GR
GS
1 GC
N
375 352 M
595 352 L
595 217 L
375 217 L
cp
f
GR
GS
[1 0 0 1 485 366] CT
0.149 GC
/Helvetica 14 F
GS
[1 0 0 1 0 0] CT
-17.51 10.78 moveto 
1 -1 scale
(rating) t 
GR
GR
GS
0.149 GC
2 setlinecap
10.0 ML
N
375 352 M
595 352 L
S
GR
GS
0.149 GC
2 setlinecap
10.0 ML
N
375 217 M
595 217 L
S
GR
GS
0.149 GC
2 setlinecap
10.0 ML
N
411.667 352 M
411.667 349.8 L
S
GR
GS
0.149 GC
2 setlinecap
10.0 ML
N
411.667 217 M
411.667 219.2 L
S
GR
GS
0.149 GC
2 setlinecap
10.0 ML
N
448.333 352 M
448.333 349.8 L
S
GR
GS
0.149 GC
2 setlinecap
10.0 ML
N
448.333 217 M
448.333 219.2 L
S
GR
GS
0.149 GC
2 setlinecap
10.0 ML
N
485 352 M
485 349.8 L
S
GR
GS
0.149 GC
2 setlinecap
10.0 ML
N
485 217 M
485 219.2 L
S
GR
GS
0.149 GC
2 setlinecap
10.0 ML
N
521.667 352 M
521.667 349.8 L
S
GR
GS
0.149 GC
2 setlinecap
10.0 ML
N
521.667 217 M
521.667 219.2 L
S
GR
GS
0.149 GC
2 setlinecap
10.0 ML
N
558.333 352 M
558.333 349.8 L
S
GR
GS
0.149 GC
2 setlinecap
10.0 ML
N
558.333 217 M
558.333 219.2 L
S
GR
GS
[1 0 0 1 411.66666 356] CT
0.149 GC
/Helvetica 10 F
GS
[1 0 0 1 0 0] CT
-2.781 7.7 moveto 
1 -1 scale
(1) t 
GR
GR
GS
[1 0 0 1 448.33334 356] CT
0.149 GC
/Helvetica 10 F
GS
[1 0 0 1 0 0] CT
-2.781 7.7 moveto 
1 -1 scale
(2) t 
GR
GR
GS
[1 0 0 1 485 356] CT
0.149 GC
/Helvetica 10 F
GS
[1 0 0 1 0 0] CT
-2.781 7.7 moveto 
1 -1 scale
(3) t 
GR
GR
GS
[1 0 0 1 521.66669 356] CT
0.149 GC
/Helvetica 10 F
GS
[1 0 0 1 0 0] CT
-2.781 7.7 moveto 
1 -1 scale
(4) t 
GR
GR
GS
[1 0 0 1 558.33331 356] CT
0.149 GC
/Helvetica 10 F
GS
[1 0 0 1 0 0] CT
-2.781 7.7 moveto 
1 -1 scale
(5) t 
GR
GR
GS
[0 -1 1 0 354.09863 284.5] CT
0.149 GC
/Helvetica 14 F
GS
[1 0 0 1 0 0] CT
-31.907 -2.22 moveto 
1 -1 scale
(probability) t 
GR
GR
GS
0.149 GC
2 setlinecap
10.0 ML
N
375 352 M
375 217 L
S
GR
GS
0.149 GC
2 setlinecap
10.0 ML
N
595 352 M
595 217 L
S
GR
GS
0.149 GC
2 setlinecap
10.0 ML
N
375 352 M
377.2 352 L
S
GR
GS
0.149 GC
2 setlinecap
10.0 ML
N
595 352 M
592.8 352 L
S
GR
GS
0.149 GC
2 setlinecap
10.0 ML
N
375 325 M
377.2 325 L
S
GR
GS
0.149 GC
2 setlinecap
10.0 ML
N
595 325 M
592.8 325 L
S
GR
GS
0.149 GC
2 setlinecap
10.0 ML
N
375 298 M
377.2 298 L
S
GR
GS
0.149 GC
2 setlinecap
10.0 ML
N
595 298 M
592.8 298 L
S
GR
GS
0.149 GC
2 setlinecap
10.0 ML
N
375 271 M
377.2 271 L
S
GR
GS
0.149 GC
2 setlinecap
10.0 ML
N
595 271 M
592.8 271 L
S
GR
GS
0.149 GC
2 setlinecap
10.0 ML
N
375 244 M
377.2 244 L
S
GR
GS
0.149 GC
2 setlinecap
10.0 ML
N
595 244 M
592.8 244 L
S
GR
GS
0.149 GC
2 setlinecap
10.0 ML
N
375 217 M
377.2 217 L
S
GR
GS
0.149 GC
2 setlinecap
10.0 ML
N
595 217 M
592.8 217 L
S
GR
GS
[1 0 0 1 371 352] CT
0.149 GC
/Helvetica 10 F
GS
[1 0 0 1 0 0] CT
-5.562 3.2 moveto 
1 -1 scale
(0) t 
GR
GR
GS
[1 0 0 1 371 325] CT
0.149 GC
/Helvetica 10 F
GS
[1 0 0 1 0 0] CT
-13.901 3.2 moveto 
1 -1 scale
(0.2) t 
GR
GR
GS
[1 0 0 1 371 298] CT
0.149 GC
/Helvetica 10 F
GS
[1 0 0 1 0 0] CT
-13.901 3.2 moveto 
1 -1 scale
(0.4) t 
GR
GR
GS
[1 0 0 1 371 271] CT
0.149 GC
/Helvetica 10 F
GS
[1 0 0 1 0 0] CT
-13.901 3.2 moveto 
1 -1 scale
(0.6) t 
GR
GR
GS
[1 0 0 1 371 244] CT
0.149 GC
/Helvetica 10 F
GS
[1 0 0 1 0 0] CT
-13.901 3.2 moveto 
1 -1 scale
(0.8) t 
GR
GR
GS
[1 0 0 1 371 217] CT
0.149 GC
/Helvetica 10 F
GS
[1 0 0 1 0 0] CT
-5.562 3.2 moveto 
1 -1 scale
(1) t 
GR
GR
GS
0.208 0.165 0.525 RC
N
397 352 M
397 352 L
426.333 352 L
426.333 352 L
cp
f
GR
GS
0.208 0.165 0.525 RC
N
433.667 352 M
433.667 352 L
463 352 L
463 352 L
cp
f
GR
GS
0.208 0.165 0.525 RC
N
470.333 352 M
470.333 352 L
499.667 352 L
499.667 352 L
cp
f
GR
GS
0.208 0.165 0.525 RC
N
507 352 M
507 330.523 L
536.333 330.523 L
536.333 352 L
cp
f
GR
GS
0.208 0.165 0.525 RC
N
543.667 352 M
543.667 238.477 L
573 238.477 L
573 352 L
cp
f
GR
GS
2 setlinecap
10.0 ML
N
397 352 M
397 352 L
426.333 352 L
426.333 352 L
397 352 L
S
GR
GS
2 setlinecap
10.0 ML
N
433.667 352 M
433.667 352 L
463 352 L
463 352 L
433.667 352 L
S
GR
GS
2 setlinecap
10.0 ML
N
470.333 352 M
470.333 352 L
499.667 352 L
499.667 352 L
470.333 352 L
S
GR
GS
2 setlinecap
10.0 ML
N
507 352 M
507 330.523 L
536.333 330.523 L
536.333 352 L
507 352 L
S
GR
GS
2 setlinecap
10.0 ML
N
543.667 352 M
543.667 238.477 L
573 238.477 L
573 352 L
543.667 352 L
S
GR
GS
[1 0 0 1 485 213] CT
/Helvetica-Bold 16 F
GS
[1 0 0 1 0 0] CT
-117.816 -2.68 moveto 
1 -1 scale
(Cluster 3, movie 4 \(best movie\)) t 
GR
GR
GS
0.149 GC
2 setlinecap
10.0 ML
N
375 352 M
595 352 L
S
GR
%%Trailer
%%Pages: 1
%%EOF
