%!PS-Adobe-3.0 EPSF-3.0
%%Creator: (MATLAB, The Mathworks, Inc. Version 8.4.0.150421 \(R2014b\). Operating System: Mac OS X)
%%Title: /Users/Martin/Projects/matlab-mva/Reinforcement_Learning/Project/transfer_bandit/plot_comparison_n_all.eps
%%CreationDate: 2015-01-05T18:08:25
%%Pages: (atend)
%%BoundingBox: 0 0 581 345
%%LanguageLevel: 2
%%EndComments
%%BeginProlog
%%BeginResource: procset (Apache XML Graphics Std ProcSet) 1.2 0
%%Version: 1.2 0
%%Copyright: (Copyright 2001-2003,2010 The Apache Software Foundation. License terms: http://www.apache.org/licenses/LICENSE-2.0)
/bd{bind def}bind def
/ld{load def}bd
/GR/grestore ld
/M/moveto ld
/LJ/setlinejoin ld
/C/curveto ld
/f/fill ld
/LW/setlinewidth ld
/GC/setgray ld
/t/show ld
/N/newpath ld
/CT/concat ld
/cp/closepath ld
/S/stroke ld
/L/lineto ld
/CC/setcmykcolor ld
/A/ashow ld
/GS/gsave ld
/RC/setrgbcolor ld
/RM/rmoveto ld
/ML/setmiterlimit ld
/re {4 2 roll M
1 index 0 rlineto
0 exch rlineto
neg 0 rlineto
cp } bd
/_ctm matrix def
/_tm matrix def
/BT { _ctm currentmatrix pop matrix _tm copy pop 0 0 moveto } bd
/ET { _ctm setmatrix } bd
/iTm { _ctm setmatrix _tm concat } bd
/Tm { _tm astore pop iTm 0 0 moveto } bd
/ux 0.0 def
/uy 0.0 def
/F {
  /Tp exch def
  /Tf exch def
  Tf findfont Tp scalefont setfont
  /cf Tf def  /cs Tp def
} bd
/ULS {currentpoint /uy exch def /ux exch def} bd
/ULE {
  /Tcx currentpoint pop def
  gsave
  newpath
  cf findfont cs scalefont dup
  /FontMatrix get 0 get /Ts exch def /FontInfo get dup
  /UnderlinePosition get Ts mul /To exch def
  /UnderlineThickness get Ts mul /Tt exch def
  ux uy To add moveto  Tcx uy To add lineto
  Tt setlinewidth stroke
  grestore
} bd
/OLE {
  /Tcx currentpoint pop def
  gsave
  newpath
  cf findfont cs scalefont dup
  /FontMatrix get 0 get /Ts exch def /FontInfo get dup
  /UnderlinePosition get Ts mul /To exch def
  /UnderlineThickness get Ts mul /Tt exch def
  ux uy To add cs add moveto Tcx uy To add cs add lineto
  Tt setlinewidth stroke
  grestore
} bd
/SOE {
  /Tcx currentpoint pop def
  gsave
  newpath
  cf findfont cs scalefont dup
  /FontMatrix get 0 get /Ts exch def /FontInfo get dup
  /UnderlinePosition get Ts mul /To exch def
  /UnderlineThickness get Ts mul /Tt exch def
  ux uy To add cs 10 mul 26 idiv add moveto Tcx uy To add cs 10 mul 26 idiv add lineto
  Tt setlinewidth stroke
  grestore
} bd
/QT {
/Y22 exch store
/X22 exch store
/Y21 exch store
/X21 exch store
currentpoint
/Y21 load 2 mul add 3 div exch
/X21 load 2 mul add 3 div exch
/X21 load 2 mul /X22 load add 3 div
/Y21 load 2 mul /Y22 load add 3 div
/X22 load /Y22 load curveto
} bd
/SSPD {
dup length /d exch dict def
{
/v exch def
/k exch def
currentpagedevice k known {
/cpdv currentpagedevice k get def
v cpdv ne {
/upd false def
/nullv v type /nulltype eq def
/nullcpdv cpdv type /nulltype eq def
nullv nullcpdv or
{
/upd true def
} {
/sametype v type cpdv type eq def
sametype {
v type /arraytype eq {
/vlen v length def
/cpdvlen cpdv length def
vlen cpdvlen eq {
0 1 vlen 1 sub {
/i exch def
/obj v i get def
/cpdobj cpdv i get def
obj cpdobj ne {
/upd true def
exit
} if
} for
} {
/upd true def
} ifelse
} {
v type /dicttype eq {
v {
/dv exch def
/dk exch def
/cpddv cpdv dk get def
dv cpddv ne {
/upd true def
exit
} if
} forall
} {
/upd true def
} ifelse
} ifelse
} if
} ifelse
upd true eq {
d k v put
} if
} if
} if
} forall
d length 0 gt {
d setpagedevice
} if
} bd
%%EndResource
%%BeginResource: procset (Apache XML Graphics EPS ProcSet) 1.0 0
%%Version: 1.0 0
%%Copyright: (Copyright 2002-2003 The Apache Software Foundation. License terms: http://www.apache.org/licenses/LICENSE-2.0)
/BeginEPSF { %def
/b4_Inc_state save def         % Save state for cleanup
/dict_count countdictstack def % Count objects on dict stack
/op_count count 1 sub def      % Count objects on operand stack
userdict begin                 % Push userdict on dict stack
/showpage { } def              % Redefine showpage, { } = null proc
0 setgray 0 setlinecap         % Prepare graphics state
1 setlinewidth 0 setlinejoin
10 setmiterlimit [ ] 0 setdash newpath
/languagelevel where           % If level not equal to 1 then
{pop languagelevel             % set strokeadjust and
1 ne                           % overprint to their defaults.
{false setstrokeadjust false setoverprint
} if
} if
} bd
/EndEPSF { %def
count op_count sub {pop} repeat            % Clean up stacks
countdictstack dict_count sub {end} repeat
b4_Inc_state restore
} bd
%%EndResource
%FOPBeginFontDict
%%IncludeResource: font Courier-Bold
%%IncludeResource: font Helvetica
%%IncludeResource: font Courier-BoldOblique
%%IncludeResource: font Courier-Oblique
%%IncludeResource: font Times-Roman
%%IncludeResource: font Helvetica-BoldOblique
%%IncludeResource: font Helvetica-Bold
%%IncludeResource: font Helvetica-Oblique
%%IncludeResource: font Times-BoldItalic
%%IncludeResource: font Courier
%%IncludeResource: font Times-Italic
%%IncludeResource: font Times-Bold
%%IncludeResource: font Symbol
%%IncludeResource: font ZapfDingbats
%FOPEndFontDict
%%BeginResource: encoding WinAnsiEncoding
/WinAnsiEncoding [
/.notdef /.notdef /.notdef /.notdef /.notdef
/.notdef /.notdef /.notdef /.notdef /.notdef
/.notdef /.notdef /.notdef /.notdef /.notdef
/.notdef /.notdef /.notdef /.notdef /.notdef
/.notdef /.notdef /.notdef /.notdef /.notdef
/.notdef /.notdef /.notdef /.notdef /.notdef
/.notdef /.notdef /space /exclam /quotedbl
/numbersign /dollar /percent /ampersand /quotesingle
/parenleft /parenright /asterisk /plus /comma
/hyphen /period /slash /zero /one
/two /three /four /five /six
/seven /eight /nine /colon /semicolon
/less /equal /greater /question /at
/A /B /C /D /E
/F /G /H /I /J
/K /L /M /N /O
/P /Q /R /S /T
/U /V /W /X /Y
/Z /bracketleft /backslash /bracketright /asciicircum
/underscore /quoteleft /a /b /c
/d /e /f /g /h
/i /j /k /l /m
/n /o /p /q /r
/s /t /u /v /w
/x /y /z /braceleft /bar
/braceright /asciitilde /bullet /Euro /bullet
/quotesinglbase /florin /quotedblbase /ellipsis /dagger
/daggerdbl /circumflex /perthousand /Scaron /guilsinglleft
/OE /bullet /Zcaron /bullet /bullet
/quoteleft /quoteright /quotedblleft /quotedblright /bullet
/endash /emdash /asciitilde /trademark /scaron
/guilsinglright /oe /bullet /zcaron /Ydieresis
/space /exclamdown /cent /sterling /currency
/yen /brokenbar /section /dieresis /copyright
/ordfeminine /guillemotleft /logicalnot /sfthyphen /registered
/macron /degree /plusminus /twosuperior /threesuperior
/acute /mu /paragraph /middot /cedilla
/onesuperior /ordmasculine /guillemotright /onequarter /onehalf
/threequarters /questiondown /Agrave /Aacute /Acircumflex
/Atilde /Adieresis /Aring /AE /Ccedilla
/Egrave /Eacute /Ecircumflex /Edieresis /Igrave
/Iacute /Icircumflex /Idieresis /Eth /Ntilde
/Ograve /Oacute /Ocircumflex /Otilde /Odieresis
/multiply /Oslash /Ugrave /Uacute /Ucircumflex
/Udieresis /Yacute /Thorn /germandbls /agrave
/aacute /acircumflex /atilde /adieresis /aring
/ae /ccedilla /egrave /eacute /ecircumflex
/edieresis /igrave /iacute /icircumflex /idieresis
/eth /ntilde /ograve /oacute /ocircumflex
/otilde /odieresis /divide /oslash /ugrave
/uacute /ucircumflex /udieresis /yacute /thorn
/ydieresis
] def
%%EndResource
%FOPBeginFontReencode
/Courier-Bold findfont
dup length dict begin
  {1 index /FID ne {def} {pop pop} ifelse} forall
  /Encoding WinAnsiEncoding def
  currentdict
end
/Courier-Bold exch definefont pop
/Helvetica findfont
dup length dict begin
  {1 index /FID ne {def} {pop pop} ifelse} forall
  /Encoding WinAnsiEncoding def
  currentdict
end
/Helvetica exch definefont pop
/Courier-BoldOblique findfont
dup length dict begin
  {1 index /FID ne {def} {pop pop} ifelse} forall
  /Encoding WinAnsiEncoding def
  currentdict
end
/Courier-BoldOblique exch definefont pop
/Courier-Oblique findfont
dup length dict begin
  {1 index /FID ne {def} {pop pop} ifelse} forall
  /Encoding WinAnsiEncoding def
  currentdict
end
/Courier-Oblique exch definefont pop
/Times-Roman findfont
dup length dict begin
  {1 index /FID ne {def} {pop pop} ifelse} forall
  /Encoding WinAnsiEncoding def
  currentdict
end
/Times-Roman exch definefont pop
/Helvetica-BoldOblique findfont
dup length dict begin
  {1 index /FID ne {def} {pop pop} ifelse} forall
  /Encoding WinAnsiEncoding def
  currentdict
end
/Helvetica-BoldOblique exch definefont pop
/Helvetica-Bold findfont
dup length dict begin
  {1 index /FID ne {def} {pop pop} ifelse} forall
  /Encoding WinAnsiEncoding def
  currentdict
end
/Helvetica-Bold exch definefont pop
/Helvetica-Oblique findfont
dup length dict begin
  {1 index /FID ne {def} {pop pop} ifelse} forall
  /Encoding WinAnsiEncoding def
  currentdict
end
/Helvetica-Oblique exch definefont pop
/Times-BoldItalic findfont
dup length dict begin
  {1 index /FID ne {def} {pop pop} ifelse} forall
  /Encoding WinAnsiEncoding def
  currentdict
end
/Times-BoldItalic exch definefont pop
/Courier findfont
dup length dict begin
  {1 index /FID ne {def} {pop pop} ifelse} forall
  /Encoding WinAnsiEncoding def
  currentdict
end
/Courier exch definefont pop
/Times-Italic findfont
dup length dict begin
  {1 index /FID ne {def} {pop pop} ifelse} forall
  /Encoding WinAnsiEncoding def
  currentdict
end
/Times-Italic exch definefont pop
/Times-Bold findfont
dup length dict begin
  {1 index /FID ne {def} {pop pop} ifelse} forall
  /Encoding WinAnsiEncoding def
  currentdict
end
/Times-Bold exch definefont pop
%FOPEndFontReencode
%%EndProlog
%%Page: 1 1
%%PageBoundingBox: 0 0 581 345
%%BeginPageSetup
[1 0 0 -1 0 345] CT
%%EndPageSetup
GS
1 GC
N
0 0 581 345 re
f
GR
GS
1 GC
N
0 0 581 345 re
f
GR
GS
1 GC
N
76 307 M
526 307 L
526 26 L
76 26 L
cp
f
GR
GS
[1 0 0 1 301 325.79999] CT
0.149 GC
/Helvetica 18 F
GS
[1 0 0 1 0 0] CT
-81.031 13.86 moveto 
1 -1 scale
(Number of Steps \(n\)) t 
GR
GR
GS
0.149 GC
2 setlinecap
10.0 ML
N
76 307 M
526 307 L
S
GR
GS
0.149 GC
2 setlinecap
10.0 ML
N
76 26 M
526 26 L
S
GR
GS
0.149 GC
2 setlinecap
10.0 ML
N
76 307 M
76 302.5 L
S
GR
GS
0.149 GC
2 setlinecap
10.0 ML
N
76 26 M
76 30.5 L
S
GR
GS
0.149 GC
2 setlinecap
10.0 ML
N
166 307 M
166 302.5 L
S
GR
GS
0.149 GC
2 setlinecap
10.0 ML
N
166 26 M
166 30.5 L
S
GR
GS
0.149 GC
2 setlinecap
10.0 ML
N
256 307 M
256 302.5 L
S
GR
GS
0.149 GC
2 setlinecap
10.0 ML
N
256 26 M
256 30.5 L
S
GR
GS
0.149 GC
2 setlinecap
10.0 ML
N
346 307 M
346 302.5 L
S
GR
GS
0.149 GC
2 setlinecap
10.0 ML
N
346 26 M
346 30.5 L
S
GR
GS
0.149 GC
2 setlinecap
10.0 ML
N
436 307 M
436 302.5 L
S
GR
GS
0.149 GC
2 setlinecap
10.0 ML
N
436 26 M
436 30.5 L
S
GR
GS
0.149 GC
2 setlinecap
10.0 ML
N
526 307 M
526 302.5 L
S
GR
GS
0.149 GC
2 setlinecap
10.0 ML
N
526 26 M
526 30.5 L
S
GR
GS
[1 0 0 1 76 311.79999] CT
0.149 GC
/Helvetica 14 F
GS
[1 0 0 1 0 0] CT
-3.893 10.78 moveto 
1 -1 scale
(0) t 
GR
GR
GS
[1 0 0 1 166 311.79999] CT
0.149 GC
/Helvetica 14 F
GS
[1 0 0 1 0 0] CT
-15.572 10.78 moveto 
1 -1 scale
(2000) t 
GR
GR
GS
[1 0 0 1 256 311.79999] CT
0.149 GC
/Helvetica 14 F
GS
[1 0 0 1 0 0] CT
-15.572 10.78 moveto 
1 -1 scale
(4000) t 
GR
GR
GS
[1 0 0 1 346 311.79999] CT
0.149 GC
/Helvetica 14 F
GS
[1 0 0 1 0 0] CT
-15.572 10.78 moveto 
1 -1 scale
(6000) t 
GR
GR
GS
[1 0 0 1 436 311.79999] CT
0.149 GC
/Helvetica 14 F
GS
[1 0 0 1 0 0] CT
-15.572 10.78 moveto 
1 -1 scale
(8000) t 
GR
GR
GS
[1 0 0 1 526 311.79999] CT
0.149 GC
/Helvetica 14 F
GS
[1 0 0 1 0 0] CT
-19.465 10.78 moveto 
1 -1 scale
(10000) t 
GR
GR
GS
[0 -1 1 0 44.8416 166.5] CT
0.149 GC
/Helvetica 18 F
GS
[1 0 0 1 0 0] CT
-27.013 -3.14 moveto 
1 -1 scale
(Regret) t 
GR
GR
GS
0.149 GC
2 setlinecap
10.0 ML
N
76 307 M
76 26 L
S
GR
GS
0.149 GC
2 setlinecap
10.0 ML
N
526 307 M
526 26 L
S
GR
GS
0.149 GC
2 setlinecap
10.0 ML
N
76 307 M
80.5 307 L
S
GR
GS
0.149 GC
2 setlinecap
10.0 ML
N
526 307 M
521.5 307 L
S
GR
GS
0.149 GC
2 setlinecap
10.0 ML
N
76 275.778 M
80.5 275.778 L
S
GR
GS
0.149 GC
2 setlinecap
10.0 ML
N
526 275.778 M
521.5 275.778 L
S
GR
GS
0.149 GC
2 setlinecap
10.0 ML
N
76 244.556 M
80.5 244.556 L
S
GR
GS
0.149 GC
2 setlinecap
10.0 ML
N
526 244.556 M
521.5 244.556 L
S
GR
GS
0.149 GC
2 setlinecap
10.0 ML
N
76 213.333 M
80.5 213.333 L
S
GR
GS
0.149 GC
2 setlinecap
10.0 ML
N
526 213.333 M
521.5 213.333 L
S
GR
GS
0.149 GC
2 setlinecap
10.0 ML
N
76 182.111 M
80.5 182.111 L
S
GR
GS
0.149 GC
2 setlinecap
10.0 ML
N
526 182.111 M
521.5 182.111 L
S
GR
GS
0.149 GC
2 setlinecap
10.0 ML
N
76 150.889 M
80.5 150.889 L
S
GR
GS
0.149 GC
2 setlinecap
10.0 ML
N
526 150.889 M
521.5 150.889 L
S
GR
GS
0.149 GC
2 setlinecap
10.0 ML
N
76 119.667 M
80.5 119.667 L
S
GR
GS
0.149 GC
2 setlinecap
10.0 ML
N
526 119.667 M
521.5 119.667 L
S
GR
GS
0.149 GC
2 setlinecap
10.0 ML
N
76 88.444 M
80.5 88.444 L
S
GR
GS
0.149 GC
2 setlinecap
10.0 ML
N
526 88.444 M
521.5 88.444 L
S
GR
GS
0.149 GC
2 setlinecap
10.0 ML
N
76 57.222 M
80.5 57.222 L
S
GR
GS
0.149 GC
2 setlinecap
10.0 ML
N
526 57.222 M
521.5 57.222 L
S
GR
GS
0.149 GC
2 setlinecap
10.0 ML
N
76 26 M
80.5 26 L
S
GR
GS
0.149 GC
2 setlinecap
10.0 ML
N
526 26 M
521.5 26 L
S
GR
GS
[1 0 0 1 71.2 307] CT
0.149 GC
/Helvetica 14 F
GS
[1 0 0 1 0 0] CT
-7.786 4.28 moveto 
1 -1 scale
(0) t 
GR
GR
GS
[1 0 0 1 71.2 275.77777] CT
0.149 GC
/Helvetica 14 F
GS
[1 0 0 1 0 0] CT
-15.572 4.28 moveto 
1 -1 scale
(20) t 
GR
GR
GS
[1 0 0 1 71.2 244.55556] CT
0.149 GC
/Helvetica 14 F
GS
[1 0 0 1 0 0] CT
-15.572 4.28 moveto 
1 -1 scale
(40) t 
GR
GR
GS
[1 0 0 1 71.2 213.33333] CT
0.149 GC
/Helvetica 14 F
GS
[1 0 0 1 0 0] CT
-15.572 4.28 moveto 
1 -1 scale
(60) t 
GR
GR
GS
[1 0 0 1 71.2 182.11111] CT
0.149 GC
/Helvetica 14 F
GS
[1 0 0 1 0 0] CT
-15.572 4.28 moveto 
1 -1 scale
(80) t 
GR
GR
GS
[1 0 0 1 71.2 150.88889] CT
0.149 GC
/Helvetica 14 F
GS
[1 0 0 1 0 0] CT
-23.358 4.28 moveto 
1 -1 scale
(100) t 
GR
GR
GS
[1 0 0 1 71.2 119.66666] CT
0.149 GC
/Helvetica 14 F
GS
[1 0 0 1 0 0] CT
-23.358 4.28 moveto 
1 -1 scale
(120) t 
GR
GR
GS
[1 0 0 1 71.2 88.44444] CT
0.149 GC
/Helvetica 14 F
GS
[1 0 0 1 0 0] CT
-23.358 4.28 moveto 
1 -1 scale
(140) t 
GR
GR
GS
[1 0 0 1 71.2 57.22222] CT
0.149 GC
/Helvetica 14 F
GS
[1 0 0 1 0 0] CT
-23.358 4.28 moveto 
1 -1 scale
(160) t 
GR
GR
GS
[1 0 0 1 71.2 26] CT
0.149 GC
/Helvetica 14 F
GS
[1 0 0 1 0 0] CT
-23.358 4.28 moveto 
1 -1 scale
(180) t 
GR
GR
GS
0 0 1 RC
2 setlinecap
10.0 ML
1.5 LW
N
98.5 260.268 M
166 196.339 L
301 125.439 L
526 49.971 L
S
GR
GS
0 0 1 RC
2 setlinecap
10.0 ML
1.5 LW
N
103.5 260.5 M
102.545 257.561 L
100.045 255.745 L
96.955 255.745 L
94.455 257.561 L
93.5 260.5 L
94.455 263.439 L
96.955 265.255 L
100.045 265.255 L
102.545 263.439 L
103.5 260.5 L
S
GR
GS
0 0 1 RC
2 setlinecap
10.0 ML
1.5 LW
N
170.5 196.5 M
169.545 193.561 L
167.045 191.745 L
163.955 191.745 L
161.455 193.561 L
160.5 196.5 L
161.455 199.439 L
163.955 201.255 L
167.045 201.255 L
169.545 199.439 L
170.5 196.5 L
S
GR
GS
0 0 1 RC
2 setlinecap
10.0 ML
1.5 LW
N
306.5 125.5 M
305.545 122.561 L
303.045 120.745 L
299.955 120.745 L
297.455 122.561 L
296.5 125.5 L
297.455 128.439 L
299.955 130.255 L
303.045 130.255 L
305.545 128.439 L
306.5 125.5 L
S
GR
GS
0 0 1 RC
2 setlinecap
10.0 ML
1.5 LW
N
531.5 49.5 M
530.545 46.561 L
528.045 44.745 L
524.955 44.745 L
522.455 46.561 L
521.5 49.5 L
522.455 52.439 L
524.955 54.255 L
528.045 54.255 L
530.545 52.439 L
531.5 49.5 L
S
GR
GS
0 0.6 0 RC
2 setlinecap
10.0 ML
1.5 LW
N
98.5 273.415 M
166 234.628 L
301 189.881 L
526 140.683 L
S
GR
GS
0 0.6 0 RC
2 setlinecap
10.0 ML
1.5 LW
N
94.6 277.4 M
94.6 269.6 L
102.4 269.6 L
102.4 277.4 L
94.6 277.4 L
S
GR
GS
0 0.6 0 RC
2 setlinecap
10.0 ML
1.5 LW
N
161.6 238.4 M
161.6 230.6 L
169.4 230.6 L
169.4 238.4 L
161.6 238.4 L
S
GR
GS
0 0.6 0 RC
2 setlinecap
10.0 ML
1.5 LW
N
297.6 193.4 M
297.6 185.6 L
305.4 185.6 L
305.4 193.4 L
297.6 193.4 L
S
GR
GS
0 0.6 0 RC
2 setlinecap
10.0 ML
1.5 LW
N
522.6 144.4 M
522.6 136.6 L
530.4 136.6 L
530.4 144.4 L
522.6 144.4 L
S
GR
GS
1 0 0 RC
2 setlinecap
10.0 ML
1.5 LW
N
98.5 281.824 M
166 257.405 L
301 250.445 L
526 248.139 L
S
GR
GS
1 0 0 RC
2 setlinecap
10.0 ML
1.5 LW
N
93 287 M
104 276 L
S
GR
GS
1 0 0 RC
2 setlinecap
10.0 ML
1.5 LW
N
93 276 M
104 287 L
S
GR
GS
1 0 0 RC
2 setlinecap
10.0 ML
1.5 LW
N
160 263 M
171 252 L
S
GR
GS
1 0 0 RC
2 setlinecap
10.0 ML
1.5 LW
N
160 252 M
171 263 L
S
GR
GS
1 0 0 RC
2 setlinecap
10.0 ML
1.5 LW
N
296 256 M
307 245 L
S
GR
GS
1 0 0 RC
2 setlinecap
10.0 ML
1.5 LW
N
296 245 M
307 256 L
S
GR
GS
1 0 0 RC
2 setlinecap
10.0 ML
1.5 LW
N
521 254 M
532 243 L
S
GR
GS
1 0 0 RC
2 setlinecap
10.0 ML
1.5 LW
N
521 243 M
532 254 L
S
GR
GS
0 0.8 0.8 RC
2 setlinecap
10.0 ML
1.5 LW
N
98.5 285.795 M
166 239.441 L
301 162.239 L
526 77.457 L
S
GR
GS
0 0.8 0.8 RC
2 setlinecap
10.0 ML
1.5 LW
N
90 285.5 M
107 285.5 L
S
GR
GS
0 0.8 0.8 RC
2 setlinecap
10.0 ML
1.5 LW
N
98.5 294 M
98.5 277 L
S
GR
GS
0 0.8 0.8 RC
2 setlinecap
10.0 ML
1.5 LW
N
93 291 M
104 280 L
S
GR
GS
0 0.8 0.8 RC
2 setlinecap
10.0 ML
1.5 LW
N
93 280 M
104 291 L
S
GR
GS
0 0.8 0.8 RC
2 setlinecap
10.0 ML
1.5 LW
N
157 239.5 M
174 239.5 L
S
GR
GS
0 0.8 0.8 RC
2 setlinecap
10.0 ML
1.5 LW
N
165.5 248 M
165.5 231 L
S
GR
GS
0 0.8 0.8 RC
2 setlinecap
10.0 ML
1.5 LW
N
160 245 M
171 234 L
S
GR
GS
0 0.8 0.8 RC
2 setlinecap
10.0 ML
1.5 LW
N
160 234 M
171 245 L
S
GR
GS
0 0.8 0.8 RC
2 setlinecap
10.0 ML
1.5 LW
N
293 162.5 M
310 162.5 L
S
GR
GS
0 0.8 0.8 RC
2 setlinecap
10.0 ML
1.5 LW
N
301.5 171 M
301.5 154 L
S
GR
GS
0 0.8 0.8 RC
2 setlinecap
10.0 ML
1.5 LW
N
296 168 M
307 157 L
S
GR
GS
0 0.8 0.8 RC
2 setlinecap
10.0 ML
1.5 LW
N
296 157 M
307 168 L
S
GR
GS
0 0.8 0.8 RC
2 setlinecap
10.0 ML
1.5 LW
N
518 77.5 M
535 77.5 L
S
GR
GS
0 0.8 0.8 RC
2 setlinecap
10.0 ML
1.5 LW
N
526.5 86 M
526.5 69 L
S
GR
GS
0 0.8 0.8 RC
2 setlinecap
10.0 ML
1.5 LW
N
521 83 M
532 72 L
S
GR
GS
0 0.8 0.8 RC
2 setlinecap
10.0 ML
1.5 LW
N
521 72 M
532 83 L
S
GR
GS
0.8 0 0.8 RC
2 setlinecap
10.0 ML
1.5 LW
N
98.5 276.638 M
166 247.282 L
301 197.018 L
526 142.269 L
S
GR
GS
0.8 0 0.8 RC
2 setlinecap
10.0 ML
1.5 LW
N
90 276.5 M
107 276.5 L
S
GR
GS
0.8 0 0.8 RC
2 setlinecap
10.0 ML
1.5 LW
N
98.5 285 M
98.5 268 L
S
GR
GS
0.8 0 0.8 RC
2 setlinecap
10.0 ML
1.5 LW
N
93 282 M
104 271 L
S
GR
GS
0.8 0 0.8 RC
2 setlinecap
10.0 ML
1.5 LW
N
93 271 M
104 282 L
S
GR
GS
0.8 0 0.8 RC
2 setlinecap
10.0 ML
1.5 LW
N
157 247.5 M
174 247.5 L
S
GR
GS
0.8 0 0.8 RC
2 setlinecap
10.0 ML
1.5 LW
N
165.5 256 M
165.5 239 L
S
GR
GS
0.8 0 0.8 RC
2 setlinecap
10.0 ML
1.5 LW
N
160 253 M
171 242 L
S
GR
GS
0.8 0 0.8 RC
2 setlinecap
10.0 ML
1.5 LW
N
160 242 M
171 253 L
S
GR
GS
0.8 0 0.8 RC
2 setlinecap
10.0 ML
1.5 LW
N
293 197.5 M
310 197.5 L
S
GR
GS
0.8 0 0.8 RC
2 setlinecap
10.0 ML
1.5 LW
N
301.5 206 M
301.5 189 L
S
GR
GS
0.8 0 0.8 RC
2 setlinecap
10.0 ML
1.5 LW
N
296 203 M
307 192 L
S
GR
GS
0.8 0 0.8 RC
2 setlinecap
10.0 ML
1.5 LW
N
296 192 M
307 203 L
S
GR
GS
0.8 0 0.8 RC
2 setlinecap
10.0 ML
1.5 LW
N
518 142.5 M
535 142.5 L
S
GR
GS
0.8 0 0.8 RC
2 setlinecap
10.0 ML
1.5 LW
N
526.5 151 M
526.5 134 L
S
GR
GS
0.8 0 0.8 RC
2 setlinecap
10.0 ML
1.5 LW
N
521 148 M
532 137 L
S
GR
GS
0.8 0 0.8 RC
2 setlinecap
10.0 ML
1.5 LW
N
521 137 M
532 148 L
S
GR
GS
0.8 0.8 0 RC
2 setlinecap
10.0 ML
1.5 LW
N
98.5 275.745 M
166 264.915 L
301 228.883 L
526 195.056 L
S
GR
GS
0.8 0.8 0 RC
2 setlinecap
10.0 ML
1.5 LW
N
90 275.5 M
107 275.5 L
S
GR
GS
0.8 0.8 0 RC
2 setlinecap
10.0 ML
1.5 LW
N
98.5 284 M
98.5 267 L
S
GR
GS
0.8 0.8 0 RC
2 setlinecap
10.0 ML
1.5 LW
N
93 281 M
104 270 L
S
GR
GS
0.8 0.8 0 RC
2 setlinecap
10.0 ML
1.5 LW
N
93 270 M
104 281 L
S
GR
GS
0.8 0.8 0 RC
2 setlinecap
10.0 ML
1.5 LW
N
157 264.5 M
174 264.5 L
S
GR
GS
0.8 0.8 0 RC
2 setlinecap
10.0 ML
1.5 LW
N
165.5 273 M
165.5 256 L
S
GR
GS
0.8 0.8 0 RC
2 setlinecap
10.0 ML
1.5 LW
N
160 270 M
171 259 L
S
GR
GS
0.8 0.8 0 RC
2 setlinecap
10.0 ML
1.5 LW
N
160 259 M
171 270 L
S
GR
GS
0.8 0.8 0 RC
2 setlinecap
10.0 ML
1.5 LW
N
293 228.5 M
310 228.5 L
S
GR
GS
0.8 0.8 0 RC
2 setlinecap
10.0 ML
1.5 LW
N
301.5 237 M
301.5 220 L
S
GR
GS
0.8 0.8 0 RC
2 setlinecap
10.0 ML
1.5 LW
N
296 234 M
307 223 L
S
GR
GS
0.8 0.8 0 RC
2 setlinecap
10.0 ML
1.5 LW
N
296 223 M
307 234 L
S
GR
GS
0.8 0.8 0 RC
2 setlinecap
10.0 ML
1.5 LW
N
518 195.5 M
535 195.5 L
S
GR
GS
0.8 0.8 0 RC
2 setlinecap
10.0 ML
1.5 LW
N
526.5 204 M
526.5 187 L
S
GR
GS
0.8 0.8 0 RC
2 setlinecap
10.0 ML
1.5 LW
N
521 201 M
532 190 L
S
GR
GS
0.8 0.8 0 RC
2 setlinecap
10.0 ML
1.5 LW
N
521 190 M
532 201 L
S
GR
GS
1 GC
N
86 132 M
86 36 L
234 36 L
234 132 L
cp
f
GR
GS
[1 0 0 1 124.93013 45.45078] CT
/Helvetica 16 F
GS
[1 0 0 1 0 0] CT
0 4.82 moveto 
1 -1 scale
(UCB) t 
GR
GR
GS
0 0 1 RC
2 setlinecap
10.0 ML
1.5 LW
N
91.989 45.451 M
121.936 45.451 L
S
GR
GS
0 0 1 RC
2 setlinecap
10.0 ML
1.5 LW
N
111.5 45.5 M
110.545 42.561 L
108.045 40.745 L
104.955 40.745 L
102.455 42.561 L
101.5 45.5 L
102.455 48.439 L
104.955 50.255 L
108.045 50.255 L
110.545 48.439 L
111.5 45.5 L
S
GR
GS
[1 0 0 1 124.93013 60.87046] CT
/Helvetica 16 F
GS
[1 0 0 1 0 0] CT
0 4.82 moveto 
1 -1 scale
(UCB+) t 
GR
GR
GS
0 0.6 0 RC
2 setlinecap
10.0 ML
1.5 LW
N
91.989 60.87 M
121.936 60.87 L
S
GR
GS
0 0.6 0 RC
2 setlinecap
10.0 ML
1.5 LW
N
102.6 64.4 M
102.6 56.6 L
110.4 56.6 L
110.4 64.4 L
102.6 64.4 L
S
GR
GS
[1 0 0 1 124.93013 76.29015] CT
/Helvetica 16 F
GS
[1 0 0 1 0 0] CT
0 4.82 moveto 
1 -1 scale
(mUCB) t 
GR
GR
GS
1 0 0 RC
2 setlinecap
10.0 ML
1.5 LW
N
91.989 76.29 M
121.936 76.29 L
S
GR
GS
1 0 0 RC
2 setlinecap
10.0 ML
1.5 LW
N
101 82 M
112 71 L
S
GR
GS
1 0 0 RC
2 setlinecap
10.0 ML
1.5 LW
N
101 71 M
112 82 L
S
GR
GS
[1 0 0 1 124.93013 91.70985] CT
/Helvetica 16 F
GS
[1 0 0 1 0 0] CT
0 4.82 moveto 
1 -1 scale
(tUCB \(J=1000\)) t 
GR
GR
GS
0 0.8 0.8 RC
2 setlinecap
10.0 ML
1.5 LW
N
91.989 91.71 M
121.936 91.71 L
S
GR
GS
0 0.8 0.8 RC
2 setlinecap
10.0 ML
1.5 LW
N
98 91.5 M
115 91.5 L
S
GR
GS
0 0.8 0.8 RC
2 setlinecap
10.0 ML
1.5 LW
N
106.5 100 M
106.5 83 L
S
GR
GS
0 0.8 0.8 RC
2 setlinecap
10.0 ML
1.5 LW
N
101 97 M
112 86 L
S
GR
GS
0 0.8 0.8 RC
2 setlinecap
10.0 ML
1.5 LW
N
101 86 M
112 97 L
S
GR
GS
[1 0 0 1 124.93013 107.12953] CT
/Helvetica 16 F
GS
[1 0 0 1 0 0] CT
0 4.82 moveto 
1 -1 scale
(tUCB \(J=2000\)) t 
GR
GR
GS
0.8 0 0.8 RC
2 setlinecap
10.0 ML
1.5 LW
N
91.989 107.13 M
121.936 107.13 L
S
GR
GS
0.8 0 0.8 RC
2 setlinecap
10.0 ML
1.5 LW
N
98 107.5 M
115 107.5 L
S
GR
GS
0.8 0 0.8 RC
2 setlinecap
10.0 ML
1.5 LW
N
106.5 116 M
106.5 99 L
S
GR
GS
0.8 0 0.8 RC
2 setlinecap
10.0 ML
1.5 LW
N
101 113 M
112 102 L
S
GR
GS
0.8 0 0.8 RC
2 setlinecap
10.0 ML
1.5 LW
N
101 102 M
112 113 L
S
GR
GS
[1 0 0 1 124.93013 122.54922] CT
/Helvetica 16 F
GS
[1 0 0 1 0 0] CT
0 4.82 moveto 
1 -1 scale
(tUCB \(J=5000\)) t 
GR
GR
GS
0.8 0.8 0 RC
2 setlinecap
10.0 ML
1.5 LW
N
91.989 122.549 M
121.936 122.549 L
S
GR
GS
0.8 0.8 0 RC
2 setlinecap
10.0 ML
1.5 LW
N
98 122.5 M
115 122.5 L
S
GR
GS
0.8 0.8 0 RC
2 setlinecap
10.0 ML
1.5 LW
N
106.5 131 M
106.5 114 L
S
GR
GS
0.8 0.8 0 RC
2 setlinecap
10.0 ML
1.5 LW
N
101 128 M
112 117 L
S
GR
GS
0.8 0.8 0 RC
2 setlinecap
10.0 ML
1.5 LW
N
101 117 M
112 128 L
S
GR
GS
0.149 GC
2 setlinecap
10.0 ML
N
86 132 M
86 36 L
234 36 L
234 132 L
86 132 L
S
GR
%%Trailer
%%Pages: 1
%%EOF
