%!PS-Adobe-3.0 EPSF-3.0
%%Creator: (MATLAB, The Mathworks, Inc. Version 8.4.0.150421 \(R2014b\). Operating System: Mac OS X)
%%Title: /Users/Martin/Projects/matlab-mva/Reinforcement_Learning/Project/transfer_bandit/regret_per_episode.eps
%%CreationDate: 2015-01-05T23:07:34
%%Pages: (atend)
%%BoundingBox: 0 0 619 336
%%LanguageLevel: 2
%%EndComments
%%BeginProlog
%%BeginResource: procset (Apache XML Graphics Std ProcSet) 1.2 0
%%Version: 1.2 0
%%Copyright: (Copyright 2001-2003,2010 The Apache Software Foundation. License terms: http://www.apache.org/licenses/LICENSE-2.0)
/bd{bind def}bind def
/ld{load def}bd
/GR/grestore ld
/M/moveto ld
/LJ/setlinejoin ld
/C/curveto ld
/f/fill ld
/LW/setlinewidth ld
/GC/setgray ld
/t/show ld
/N/newpath ld
/CT/concat ld
/cp/closepath ld
/S/stroke ld
/L/lineto ld
/CC/setcmykcolor ld
/A/ashow ld
/GS/gsave ld
/RC/setrgbcolor ld
/RM/rmoveto ld
/ML/setmiterlimit ld
/re {4 2 roll M
1 index 0 rlineto
0 exch rlineto
neg 0 rlineto
cp } bd
/_ctm matrix def
/_tm matrix def
/BT { _ctm currentmatrix pop matrix _tm copy pop 0 0 moveto } bd
/ET { _ctm setmatrix } bd
/iTm { _ctm setmatrix _tm concat } bd
/Tm { _tm astore pop iTm 0 0 moveto } bd
/ux 0.0 def
/uy 0.0 def
/F {
  /Tp exch def
  /Tf exch def
  Tf findfont Tp scalefont setfont
  /cf Tf def  /cs Tp def
} bd
/ULS {currentpoint /uy exch def /ux exch def} bd
/ULE {
  /Tcx currentpoint pop def
  gsave
  newpath
  cf findfont cs scalefont dup
  /FontMatrix get 0 get /Ts exch def /FontInfo get dup
  /UnderlinePosition get Ts mul /To exch def
  /UnderlineThickness get Ts mul /Tt exch def
  ux uy To add moveto  Tcx uy To add lineto
  Tt setlinewidth stroke
  grestore
} bd
/OLE {
  /Tcx currentpoint pop def
  gsave
  newpath
  cf findfont cs scalefont dup
  /FontMatrix get 0 get /Ts exch def /FontInfo get dup
  /UnderlinePosition get Ts mul /To exch def
  /UnderlineThickness get Ts mul /Tt exch def
  ux uy To add cs add moveto Tcx uy To add cs add lineto
  Tt setlinewidth stroke
  grestore
} bd
/SOE {
  /Tcx currentpoint pop def
  gsave
  newpath
  cf findfont cs scalefont dup
  /FontMatrix get 0 get /Ts exch def /FontInfo get dup
  /UnderlinePosition get Ts mul /To exch def
  /UnderlineThickness get Ts mul /Tt exch def
  ux uy To add cs 10 mul 26 idiv add moveto Tcx uy To add cs 10 mul 26 idiv add lineto
  Tt setlinewidth stroke
  grestore
} bd
/QT {
/Y22 exch store
/X22 exch store
/Y21 exch store
/X21 exch store
currentpoint
/Y21 load 2 mul add 3 div exch
/X21 load 2 mul add 3 div exch
/X21 load 2 mul /X22 load add 3 div
/Y21 load 2 mul /Y22 load add 3 div
/X22 load /Y22 load curveto
} bd
/SSPD {
dup length /d exch dict def
{
/v exch def
/k exch def
currentpagedevice k known {
/cpdv currentpagedevice k get def
v cpdv ne {
/upd false def
/nullv v type /nulltype eq def
/nullcpdv cpdv type /nulltype eq def
nullv nullcpdv or
{
/upd true def
} {
/sametype v type cpdv type eq def
sametype {
v type /arraytype eq {
/vlen v length def
/cpdvlen cpdv length def
vlen cpdvlen eq {
0 1 vlen 1 sub {
/i exch def
/obj v i get def
/cpdobj cpdv i get def
obj cpdobj ne {
/upd true def
exit
} if
} for
} {
/upd true def
} ifelse
} {
v type /dicttype eq {
v {
/dv exch def
/dk exch def
/cpddv cpdv dk get def
dv cpddv ne {
/upd true def
exit
} if
} forall
} {
/upd true def
} ifelse
} ifelse
} if
} ifelse
upd true eq {
d k v put
} if
} if
} if
} forall
d length 0 gt {
d setpagedevice
} if
} bd
%%EndResource
%%BeginResource: procset (Apache XML Graphics EPS ProcSet) 1.0 0
%%Version: 1.0 0
%%Copyright: (Copyright 2002-2003 The Apache Software Foundation. License terms: http://www.apache.org/licenses/LICENSE-2.0)
/BeginEPSF { %def
/b4_Inc_state save def         % Save state for cleanup
/dict_count countdictstack def % Count objects on dict stack
/op_count count 1 sub def      % Count objects on operand stack
userdict begin                 % Push userdict on dict stack
/showpage { } def              % Redefine showpage, { } = null proc
0 setgray 0 setlinecap         % Prepare graphics state
1 setlinewidth 0 setlinejoin
10 setmiterlimit [ ] 0 setdash newpath
/languagelevel where           % If level not equal to 1 then
{pop languagelevel             % set strokeadjust and
1 ne                           % overprint to their defaults.
{false setstrokeadjust false setoverprint
} if
} if
} bd
/EndEPSF { %def
count op_count sub {pop} repeat            % Clean up stacks
countdictstack dict_count sub {end} repeat
b4_Inc_state restore
} bd
%%EndResource
%FOPBeginFontDict
%%IncludeResource: font Courier-Bold
%%IncludeResource: font Helvetica
%%IncludeResource: font Courier-BoldOblique
%%IncludeResource: font Courier-Oblique
%%IncludeResource: font Times-Roman
%%IncludeResource: font Helvetica-BoldOblique
%%IncludeResource: font Helvetica-Bold
%%IncludeResource: font Helvetica-Oblique
%%IncludeResource: font Times-BoldItalic
%%IncludeResource: font Courier
%%IncludeResource: font Times-Italic
%%IncludeResource: font Times-Bold
%%IncludeResource: font Symbol
%%IncludeResource: font ZapfDingbats
%FOPEndFontDict
%%BeginResource: encoding WinAnsiEncoding
/WinAnsiEncoding [
/.notdef /.notdef /.notdef /.notdef /.notdef
/.notdef /.notdef /.notdef /.notdef /.notdef
/.notdef /.notdef /.notdef /.notdef /.notdef
/.notdef /.notdef /.notdef /.notdef /.notdef
/.notdef /.notdef /.notdef /.notdef /.notdef
/.notdef /.notdef /.notdef /.notdef /.notdef
/.notdef /.notdef /space /exclam /quotedbl
/numbersign /dollar /percent /ampersand /quotesingle
/parenleft /parenright /asterisk /plus /comma
/hyphen /period /slash /zero /one
/two /three /four /five /six
/seven /eight /nine /colon /semicolon
/less /equal /greater /question /at
/A /B /C /D /E
/F /G /H /I /J
/K /L /M /N /O
/P /Q /R /S /T
/U /V /W /X /Y
/Z /bracketleft /backslash /bracketright /asciicircum
/underscore /quoteleft /a /b /c
/d /e /f /g /h
/i /j /k /l /m
/n /o /p /q /r
/s /t /u /v /w
/x /y /z /braceleft /bar
/braceright /asciitilde /bullet /Euro /bullet
/quotesinglbase /florin /quotedblbase /ellipsis /dagger
/daggerdbl /circumflex /perthousand /Scaron /guilsinglleft
/OE /bullet /Zcaron /bullet /bullet
/quoteleft /quoteright /quotedblleft /quotedblright /bullet
/endash /emdash /asciitilde /trademark /scaron
/guilsinglright /oe /bullet /zcaron /Ydieresis
/space /exclamdown /cent /sterling /currency
/yen /brokenbar /section /dieresis /copyright
/ordfeminine /guillemotleft /logicalnot /sfthyphen /registered
/macron /degree /plusminus /twosuperior /threesuperior
/acute /mu /paragraph /middot /cedilla
/onesuperior /ordmasculine /guillemotright /onequarter /onehalf
/threequarters /questiondown /Agrave /Aacute /Acircumflex
/Atilde /Adieresis /Aring /AE /Ccedilla
/Egrave /Eacute /Ecircumflex /Edieresis /Igrave
/Iacute /Icircumflex /Idieresis /Eth /Ntilde
/Ograve /Oacute /Ocircumflex /Otilde /Odieresis
/multiply /Oslash /Ugrave /Uacute /Ucircumflex
/Udieresis /Yacute /Thorn /germandbls /agrave
/aacute /acircumflex /atilde /adieresis /aring
/ae /ccedilla /egrave /eacute /ecircumflex
/edieresis /igrave /iacute /icircumflex /idieresis
/eth /ntilde /ograve /oacute /ocircumflex
/otilde /odieresis /divide /oslash /ugrave
/uacute /ucircumflex /udieresis /yacute /thorn
/ydieresis
] def
%%EndResource
%FOPBeginFontReencode
/Courier-Bold findfont
dup length dict begin
  {1 index /FID ne {def} {pop pop} ifelse} forall
  /Encoding WinAnsiEncoding def
  currentdict
end
/Courier-Bold exch definefont pop
/Helvetica findfont
dup length dict begin
  {1 index /FID ne {def} {pop pop} ifelse} forall
  /Encoding WinAnsiEncoding def
  currentdict
end
/Helvetica exch definefont pop
/Courier-BoldOblique findfont
dup length dict begin
  {1 index /FID ne {def} {pop pop} ifelse} forall
  /Encoding WinAnsiEncoding def
  currentdict
end
/Courier-BoldOblique exch definefont pop
/Courier-Oblique findfont
dup length dict begin
  {1 index /FID ne {def} {pop pop} ifelse} forall
  /Encoding WinAnsiEncoding def
  currentdict
end
/Courier-Oblique exch definefont pop
/Times-Roman findfont
dup length dict begin
  {1 index /FID ne {def} {pop pop} ifelse} forall
  /Encoding WinAnsiEncoding def
  currentdict
end
/Times-Roman exch definefont pop
/Helvetica-BoldOblique findfont
dup length dict begin
  {1 index /FID ne {def} {pop pop} ifelse} forall
  /Encoding WinAnsiEncoding def
  currentdict
end
/Helvetica-BoldOblique exch definefont pop
/Helvetica-Bold findfont
dup length dict begin
  {1 index /FID ne {def} {pop pop} ifelse} forall
  /Encoding WinAnsiEncoding def
  currentdict
end
/Helvetica-Bold exch definefont pop
/Helvetica-Oblique findfont
dup length dict begin
  {1 index /FID ne {def} {pop pop} ifelse} forall
  /Encoding WinAnsiEncoding def
  currentdict
end
/Helvetica-Oblique exch definefont pop
/Times-BoldItalic findfont
dup length dict begin
  {1 index /FID ne {def} {pop pop} ifelse} forall
  /Encoding WinAnsiEncoding def
  currentdict
end
/Times-BoldItalic exch definefont pop
/Courier findfont
dup length dict begin
  {1 index /FID ne {def} {pop pop} ifelse} forall
  /Encoding WinAnsiEncoding def
  currentdict
end
/Courier exch definefont pop
/Times-Italic findfont
dup length dict begin
  {1 index /FID ne {def} {pop pop} ifelse} forall
  /Encoding WinAnsiEncoding def
  currentdict
end
/Times-Italic exch definefont pop
/Times-Bold findfont
dup length dict begin
  {1 index /FID ne {def} {pop pop} ifelse} forall
  /Encoding WinAnsiEncoding def
  currentdict
end
/Times-Bold exch definefont pop
%FOPEndFontReencode
%%EndProlog
%%Page: 1 1
%%PageBoundingBox: 0 0 619 336
%%BeginPageSetup
[1 0 0 -1 0 336] CT
%%EndPageSetup
GS
1 GC
N
0 0 619 336 re
f
GR
GS
1 GC
N
0 0 619 336 re
f
GR
GS
1 GC
N
80 299 M
560 299 L
560 25 L
80 25 L
cp
f
GR
GS
[1 0 0 1 320 317.79999] CT
0.149 GC
/Helvetica 18 F
GS
[1 0 0 1 0 0] CT
-81.514 13.86 moveto 
1 -1 scale
(Number of Tasks \(J\)) t 
GR
GR
GS
0.149 GC
2 setlinecap
10.0 ML
N
80 299 M
560 299 L
S
GR
GS
0.149 GC
2 setlinecap
10.0 ML
N
80 25 M
560 25 L
S
GR
GS
0.149 GC
2 setlinecap
10.0 ML
N
80 299 M
80 294.2 L
S
GR
GS
0.149 GC
2 setlinecap
10.0 ML
N
80 25 M
80 29.8 L
S
GR
GS
0.149 GC
2 setlinecap
10.0 ML
N
176 299 M
176 294.2 L
S
GR
GS
0.149 GC
2 setlinecap
10.0 ML
N
176 25 M
176 29.8 L
S
GR
GS
0.149 GC
2 setlinecap
10.0 ML
N
272 299 M
272 294.2 L
S
GR
GS
0.149 GC
2 setlinecap
10.0 ML
N
272 25 M
272 29.8 L
S
GR
GS
0.149 GC
2 setlinecap
10.0 ML
N
368 299 M
368 294.2 L
S
GR
GS
0.149 GC
2 setlinecap
10.0 ML
N
368 25 M
368 29.8 L
S
GR
GS
0.149 GC
2 setlinecap
10.0 ML
N
464 299 M
464 294.2 L
S
GR
GS
0.149 GC
2 setlinecap
10.0 ML
N
464 25 M
464 29.8 L
S
GR
GS
0.149 GC
2 setlinecap
10.0 ML
N
560 299 M
560 294.2 L
S
GR
GS
0.149 GC
2 setlinecap
10.0 ML
N
560 25 M
560 29.8 L
S
GR
GS
[1 0 0 1 80 303.79999] CT
0.149 GC
/Helvetica 14 F
GS
[1 0 0 1 0 0] CT
-3.893 10.78 moveto 
1 -1 scale
(0) t 
GR
GR
GS
[1 0 0 1 176 303.79999] CT
0.149 GC
/Helvetica 14 F
GS
[1 0 0 1 0 0] CT
-15.572 10.78 moveto 
1 -1 scale
(1000) t 
GR
GR
GS
[1 0 0 1 272 303.79999] CT
0.149 GC
/Helvetica 14 F
GS
[1 0 0 1 0 0] CT
-15.572 10.78 moveto 
1 -1 scale
(2000) t 
GR
GR
GS
[1 0 0 1 368 303.79999] CT
0.149 GC
/Helvetica 14 F
GS
[1 0 0 1 0 0] CT
-15.572 10.78 moveto 
1 -1 scale
(3000) t 
GR
GR
GS
[1 0 0 1 464 303.79999] CT
0.149 GC
/Helvetica 14 F
GS
[1 0 0 1 0 0] CT
-15.572 10.78 moveto 
1 -1 scale
(4000) t 
GR
GR
GS
[1 0 0 1 560 303.79999] CT
0.149 GC
/Helvetica 14 F
GS
[1 0 0 1 0 0] CT
-15.572 10.78 moveto 
1 -1 scale
(5000) t 
GR
GR
GS
[0 -1 1 0 48.8416 162] CT
0.149 GC
/Helvetica 18 F
GS
[1 0 0 1 0 0] CT
-78.042 -3.14 moveto 
1 -1 scale
(Per-episode Regret) t 
GR
GR
GS
0.149 GC
2 setlinecap
10.0 ML
N
80 299 M
80 25 L
S
GR
GS
0.149 GC
2 setlinecap
10.0 ML
N
560 299 M
560 25 L
S
GR
GS
0.149 GC
2 setlinecap
10.0 ML
N
80 299 M
84.8 299 L
S
GR
GS
0.149 GC
2 setlinecap
10.0 ML
N
560 299 M
555.2 299 L
S
GR
GS
0.149 GC
2 setlinecap
10.0 ML
N
80 268.556 M
84.8 268.556 L
S
GR
GS
0.149 GC
2 setlinecap
10.0 ML
N
560 268.556 M
555.2 268.556 L
S
GR
GS
0.149 GC
2 setlinecap
10.0 ML
N
80 238.111 M
84.8 238.111 L
S
GR
GS
0.149 GC
2 setlinecap
10.0 ML
N
560 238.111 M
555.2 238.111 L
S
GR
GS
0.149 GC
2 setlinecap
10.0 ML
N
80 207.667 M
84.8 207.667 L
S
GR
GS
0.149 GC
2 setlinecap
10.0 ML
N
560 207.667 M
555.2 207.667 L
S
GR
GS
0.149 GC
2 setlinecap
10.0 ML
N
80 177.222 M
84.8 177.222 L
S
GR
GS
0.149 GC
2 setlinecap
10.0 ML
N
560 177.222 M
555.2 177.222 L
S
GR
GS
0.149 GC
2 setlinecap
10.0 ML
N
80 146.778 M
84.8 146.778 L
S
GR
GS
0.149 GC
2 setlinecap
10.0 ML
N
560 146.778 M
555.2 146.778 L
S
GR
GS
0.149 GC
2 setlinecap
10.0 ML
N
80 116.333 M
84.8 116.333 L
S
GR
GS
0.149 GC
2 setlinecap
10.0 ML
N
560 116.333 M
555.2 116.333 L
S
GR
GS
0.149 GC
2 setlinecap
10.0 ML
N
80 85.889 M
84.8 85.889 L
S
GR
GS
0.149 GC
2 setlinecap
10.0 ML
N
560 85.889 M
555.2 85.889 L
S
GR
GS
0.149 GC
2 setlinecap
10.0 ML
N
80 55.444 M
84.8 55.444 L
S
GR
GS
0.149 GC
2 setlinecap
10.0 ML
N
560 55.444 M
555.2 55.444 L
S
GR
GS
0.149 GC
2 setlinecap
10.0 ML
N
80 25 M
84.8 25 L
S
GR
GS
0.149 GC
2 setlinecap
10.0 ML
N
560 25 M
555.2 25 L
S
GR
GS
[1 0 0 1 75.2 299] CT
0.149 GC
/Helvetica 14 F
GS
[1 0 0 1 0 0] CT
-15.572 4.28 moveto 
1 -1 scale
(30) t 
GR
GR
GS
[1 0 0 1 75.2 268.55554] CT
0.149 GC
/Helvetica 14 F
GS
[1 0 0 1 0 0] CT
-15.572 4.28 moveto 
1 -1 scale
(40) t 
GR
GR
GS
[1 0 0 1 75.2 238.11111] CT
0.149 GC
/Helvetica 14 F
GS
[1 0 0 1 0 0] CT
-15.572 4.28 moveto 
1 -1 scale
(50) t 
GR
GR
GS
[1 0 0 1 75.2 207.66667] CT
0.149 GC
/Helvetica 14 F
GS
[1 0 0 1 0 0] CT
-15.572 4.28 moveto 
1 -1 scale
(60) t 
GR
GR
GS
[1 0 0 1 75.2 177.22223] CT
0.149 GC
/Helvetica 14 F
GS
[1 0 0 1 0 0] CT
-15.572 4.28 moveto 
1 -1 scale
(70) t 
GR
GR
GS
[1 0 0 1 75.2 146.77777] CT
0.149 GC
/Helvetica 14 F
GS
[1 0 0 1 0 0] CT
-15.572 4.28 moveto 
1 -1 scale
(80) t 
GR
GR
GS
[1 0 0 1 75.2 116.33334] CT
0.149 GC
/Helvetica 14 F
GS
[1 0 0 1 0 0] CT
-15.572 4.28 moveto 
1 -1 scale
(90) t 
GR
GR
GS
[1 0 0 1 75.2 85.88889] CT
0.149 GC
/Helvetica 14 F
GS
[1 0 0 1 0 0] CT
-23.358 4.28 moveto 
1 -1 scale
(100) t 
GR
GR
GS
[1 0 0 1 75.2 55.44444] CT
0.149 GC
/Helvetica 14 F
GS
[1 0 0 1 0 0] CT
-23.358 4.28 moveto 
1 -1 scale
(110) t 
GR
GR
GS
[1 0 0 1 75.2 25] CT
0.149 GC
/Helvetica 14 F
GS
[1 0 0 1 0 0] CT
-23.358 4.28 moveto 
1 -1 scale
(120) t 
GR
GR
GS
0 0 1 RC
2 setlinecap
10.0 ML
2 LW
N
128 35.992 M
176 35.992 L
224 35.992 L
272 35.992 L
320 35.992 L
368 35.992 L
416 35.992 L
464 35.992 L
512 35.992 L
S
GR
GS
0 0 1 RC
2 setlinecap
10.0 ML
2 LW
N
132.5 35.5 M
131.545 32.561 L
129.045 30.745 L
125.955 30.745 L
123.455 32.561 L
122.5 35.5 L
123.455 38.439 L
125.955 40.255 L
129.045 40.255 L
131.545 38.439 L
132.5 35.5 L
S
GR
GS
0 0 1 RC
2 setlinecap
10.0 ML
2 LW
N
180.5 35.5 M
179.545 32.561 L
177.045 30.745 L
173.955 30.745 L
171.455 32.561 L
170.5 35.5 L
171.455 38.439 L
173.955 40.255 L
177.045 40.255 L
179.545 38.439 L
180.5 35.5 L
S
GR
GS
0 0 1 RC
2 setlinecap
10.0 ML
2 LW
N
228.5 35.5 M
227.545 32.561 L
225.045 30.745 L
221.955 30.745 L
219.455 32.561 L
218.5 35.5 L
219.455 38.439 L
221.955 40.255 L
225.045 40.255 L
227.545 38.439 L
228.5 35.5 L
S
GR
GS
0 0 1 RC
2 setlinecap
10.0 ML
2 LW
N
276.5 35.5 M
275.545 32.561 L
273.045 30.745 L
269.955 30.745 L
267.455 32.561 L
266.5 35.5 L
267.455 38.439 L
269.955 40.255 L
273.045 40.255 L
275.545 38.439 L
276.5 35.5 L
S
GR
GS
0 0 1 RC
2 setlinecap
10.0 ML
2 LW
N
325.5 35.5 M
324.545 32.561 L
322.045 30.745 L
318.955 30.745 L
316.455 32.561 L
315.5 35.5 L
316.455 38.439 L
318.955 40.255 L
322.045 40.255 L
324.545 38.439 L
325.5 35.5 L
S
GR
GS
0 0 1 RC
2 setlinecap
10.0 ML
2 LW
N
373.5 35.5 M
372.545 32.561 L
370.045 30.745 L
366.955 30.745 L
364.455 32.561 L
363.5 35.5 L
364.455 38.439 L
366.955 40.255 L
370.045 40.255 L
372.545 38.439 L
373.5 35.5 L
S
GR
GS
0 0 1 RC
2 setlinecap
10.0 ML
2 LW
N
421.5 35.5 M
420.545 32.561 L
418.045 30.745 L
414.955 30.745 L
412.455 32.561 L
411.5 35.5 L
412.455 38.439 L
414.955 40.255 L
418.045 40.255 L
420.545 38.439 L
421.5 35.5 L
S
GR
GS
0 0 1 RC
2 setlinecap
10.0 ML
2 LW
N
469.5 35.5 M
468.545 32.561 L
466.045 30.745 L
462.955 30.745 L
460.455 32.561 L
459.5 35.5 L
460.455 38.439 L
462.955 40.255 L
466.045 40.255 L
468.545 38.439 L
469.5 35.5 L
S
GR
GS
0 0 1 RC
2 setlinecap
10.0 ML
2 LW
N
517.5 35.5 M
516.545 32.561 L
514.045 30.745 L
510.955 30.745 L
508.455 32.561 L
507.5 35.5 L
508.455 38.439 L
510.955 40.255 L
514.045 40.255 L
516.545 38.439 L
517.5 35.5 L
S
GR
GS
0 0.6 0 RC
2 setlinecap
10.0 ML
2 LW
N
128 162.389 M
176 162.389 L
224 162.389 L
272 162.389 L
320 162.389 L
368 162.389 L
416 162.389 L
464 162.389 L
512 162.389 L
S
GR
GS
0 0.6 0 RC
2 setlinecap
10.0 ML
2 LW
N
123.6 166.4 M
123.6 158.6 L
131.4 158.6 L
131.4 166.4 L
123.6 166.4 L
S
GR
GS
0 0.6 0 RC
2 setlinecap
10.0 ML
2 LW
N
171.6 166.4 M
171.6 158.6 L
179.4 158.6 L
179.4 166.4 L
171.6 166.4 L
S
GR
GS
0 0.6 0 RC
2 setlinecap
10.0 ML
2 LW
N
219.6 166.4 M
219.6 158.6 L
227.4 158.6 L
227.4 166.4 L
219.6 166.4 L
S
GR
GS
0 0.6 0 RC
2 setlinecap
10.0 ML
2 LW
N
267.6 166.4 M
267.6 158.6 L
275.4 158.6 L
275.4 166.4 L
267.6 166.4 L
S
GR
GS
0 0.6 0 RC
2 setlinecap
10.0 ML
2 LW
N
316.6 166.4 M
316.6 158.6 L
324.4 158.6 L
324.4 166.4 L
316.6 166.4 L
S
GR
GS
0 0.6 0 RC
2 setlinecap
10.0 ML
2 LW
N
364.6 166.4 M
364.6 158.6 L
372.4 158.6 L
372.4 166.4 L
364.6 166.4 L
S
GR
GS
0 0.6 0 RC
2 setlinecap
10.0 ML
2 LW
N
412.6 166.4 M
412.6 158.6 L
420.4 158.6 L
420.4 166.4 L
412.6 166.4 L
S
GR
GS
0 0.6 0 RC
2 setlinecap
10.0 ML
2 LW
N
460.6 166.4 M
460.6 158.6 L
468.4 158.6 L
468.4 166.4 L
460.6 166.4 L
S
GR
GS
0 0.6 0 RC
2 setlinecap
10.0 ML
2 LW
N
508.6 166.4 M
508.6 158.6 L
516.4 158.6 L
516.4 166.4 L
508.6 166.4 L
S
GR
GS
1 0 0 RC
2 setlinecap
10.0 ML
2 LW
N
128 281.926 M
176 281.926 L
224 281.926 L
272 281.926 L
320 281.926 L
368 281.926 L
416 281.926 L
464 281.926 L
512 281.926 L
S
GR
GS
1 0 0 RC
2 setlinecap
10.0 ML
2 LW
N
122 287 M
133 276 L
S
GR
GS
1 0 0 RC
2 setlinecap
10.0 ML
2 LW
N
122 276 M
133 287 L
S
GR
GS
1 0 0 RC
2 setlinecap
10.0 ML
2 LW
N
170 287 M
181 276 L
S
GR
GS
1 0 0 RC
2 setlinecap
10.0 ML
2 LW
N
170 276 M
181 287 L
S
GR
GS
1 0 0 RC
2 setlinecap
10.0 ML
2 LW
N
218 287 M
229 276 L
S
GR
GS
1 0 0 RC
2 setlinecap
10.0 ML
2 LW
N
218 276 M
229 287 L
S
GR
GS
1 0 0 RC
2 setlinecap
10.0 ML
2 LW
N
266 287 M
277 276 L
S
GR
GS
1 0 0 RC
2 setlinecap
10.0 ML
2 LW
N
266 276 M
277 287 L
S
GR
GS
1 0 0 RC
2 setlinecap
10.0 ML
2 LW
N
315 287 M
326 276 L
S
GR
GS
1 0 0 RC
2 setlinecap
10.0 ML
2 LW
N
315 276 M
326 287 L
S
GR
GS
1 0 0 RC
2 setlinecap
10.0 ML
2 LW
N
363 287 M
374 276 L
S
GR
GS
1 0 0 RC
2 setlinecap
10.0 ML
2 LW
N
363 276 M
374 287 L
S
GR
GS
1 0 0 RC
2 setlinecap
10.0 ML
2 LW
N
411 287 M
422 276 L
S
GR
GS
1 0 0 RC
2 setlinecap
10.0 ML
2 LW
N
411 276 M
422 287 L
S
GR
GS
1 0 0 RC
2 setlinecap
10.0 ML
2 LW
N
459 287 M
470 276 L
S
GR
GS
1 0 0 RC
2 setlinecap
10.0 ML
2 LW
N
459 276 M
470 287 L
S
GR
GS
1 0 0 RC
2 setlinecap
10.0 ML
2 LW
N
507 287 M
518 276 L
S
GR
GS
1 0 0 RC
2 setlinecap
10.0 ML
2 LW
N
507 276 M
518 287 L
S
GR
GS
0 0.8 0.8 RC
2 setlinecap
10.0 ML
2 LW
N
128 38.126 M
176 79.654 L
224 145.513 L
272 181.421 L
320 190.003 L
368 208.566 L
416 216.533 L
464 227.509 L
512 233.822 L
S
GR
GS
0 0.8 0.8 RC
2 setlinecap
10.0 ML
2 LW
N
119 38.5 M
136 38.5 L
S
GR
GS
0 0.8 0.8 RC
2 setlinecap
10.0 ML
2 LW
N
127.5 47 M
127.5 30 L
S
GR
GS
0 0.8 0.8 RC
2 setlinecap
10.0 ML
2 LW
N
122 44 M
133 33 L
S
GR
GS
0 0.8 0.8 RC
2 setlinecap
10.0 ML
2 LW
N
122 33 M
133 44 L
S
GR
GS
0 0.8 0.8 RC
2 setlinecap
10.0 ML
2 LW
N
167 79.5 M
184 79.5 L
S
GR
GS
0 0.8 0.8 RC
2 setlinecap
10.0 ML
2 LW
N
175.5 88 M
175.5 71 L
S
GR
GS
0 0.8 0.8 RC
2 setlinecap
10.0 ML
2 LW
N
170 85 M
181 74 L
S
GR
GS
0 0.8 0.8 RC
2 setlinecap
10.0 ML
2 LW
N
170 74 M
181 85 L
S
GR
GS
0 0.8 0.8 RC
2 setlinecap
10.0 ML
2 LW
N
215 145.5 M
232 145.5 L
S
GR
GS
0 0.8 0.8 RC
2 setlinecap
10.0 ML
2 LW
N
223.5 154 M
223.5 137 L
S
GR
GS
0 0.8 0.8 RC
2 setlinecap
10.0 ML
2 LW
N
218 151 M
229 140 L
S
GR
GS
0 0.8 0.8 RC
2 setlinecap
10.0 ML
2 LW
N
218 140 M
229 151 L
S
GR
GS
0 0.8 0.8 RC
2 setlinecap
10.0 ML
2 LW
N
263 181.5 M
280 181.5 L
S
GR
GS
0 0.8 0.8 RC
2 setlinecap
10.0 ML
2 LW
N
271.5 190 M
271.5 173 L
S
GR
GS
0 0.8 0.8 RC
2 setlinecap
10.0 ML
2 LW
N
266 187 M
277 176 L
S
GR
GS
0 0.8 0.8 RC
2 setlinecap
10.0 ML
2 LW
N
266 176 M
277 187 L
S
GR
GS
0 0.8 0.8 RC
2 setlinecap
10.0 ML
2 LW
N
312 190.5 M
329 190.5 L
S
GR
GS
0 0.8 0.8 RC
2 setlinecap
10.0 ML
2 LW
N
320.5 199 M
320.5 182 L
S
GR
GS
0 0.8 0.8 RC
2 setlinecap
10.0 ML
2 LW
N
315 196 M
326 185 L
S
GR
GS
0 0.8 0.8 RC
2 setlinecap
10.0 ML
2 LW
N
315 185 M
326 196 L
S
GR
GS
0 0.8 0.8 RC
2 setlinecap
10.0 ML
2 LW
N
360 208.5 M
377 208.5 L
S
GR
GS
0 0.8 0.8 RC
2 setlinecap
10.0 ML
2 LW
N
368.5 217 M
368.5 200 L
S
GR
GS
0 0.8 0.8 RC
2 setlinecap
10.0 ML
2 LW
N
363 214 M
374 203 L
S
GR
GS
0 0.8 0.8 RC
2 setlinecap
10.0 ML
2 LW
N
363 203 M
374 214 L
S
GR
GS
0 0.8 0.8 RC
2 setlinecap
10.0 ML
2 LW
N
408 216.5 M
425 216.5 L
S
GR
GS
0 0.8 0.8 RC
2 setlinecap
10.0 ML
2 LW
N
416.5 225 M
416.5 208 L
S
GR
GS
0 0.8 0.8 RC
2 setlinecap
10.0 ML
2 LW
N
411 222 M
422 211 L
S
GR
GS
0 0.8 0.8 RC
2 setlinecap
10.0 ML
2 LW
N
411 211 M
422 222 L
S
GR
GS
0 0.8 0.8 RC
2 setlinecap
10.0 ML
2 LW
N
456 227.5 M
473 227.5 L
S
GR
GS
0 0.8 0.8 RC
2 setlinecap
10.0 ML
2 LW
N
464.5 236 M
464.5 219 L
S
GR
GS
0 0.8 0.8 RC
2 setlinecap
10.0 ML
2 LW
N
459 233 M
470 222 L
S
GR
GS
0 0.8 0.8 RC
2 setlinecap
10.0 ML
2 LW
N
459 222 M
470 233 L
S
GR
GS
0 0.8 0.8 RC
2 setlinecap
10.0 ML
2 LW
N
504 233.5 M
521 233.5 L
S
GR
GS
0 0.8 0.8 RC
2 setlinecap
10.0 ML
2 LW
N
512.5 242 M
512.5 225 L
S
GR
GS
0 0.8 0.8 RC
2 setlinecap
10.0 ML
2 LW
N
507 239 M
518 228 L
S
GR
GS
0 0.8 0.8 RC
2 setlinecap
10.0 ML
2 LW
N
507 228 M
518 239 L
S
GR
GS
1 GC
N
455 108 M
455 35 L
550 35 L
550 108 L
cp
f
GR
GS
[1 0 0 1 494.00079 45.42857] CT
/Helvetica 18 F
GS
[1 0 0 1 0 0] CT
0 5.36 moveto 
1 -1 scale
(UCB) t 
GR
GR
GS
0 0 1 RC
2 setlinecap
10.0 ML
2 LW
N
461 45.429 M
491.001 45.429 L
S
GR
GS
0 0 1 RC
2 setlinecap
10.0 ML
2 LW
N
481.5 45.5 M
480.545 42.561 L
478.045 40.745 L
474.955 40.745 L
472.455 42.561 L
471.5 45.5 L
472.455 48.439 L
474.955 50.255 L
478.045 50.255 L
480.545 48.439 L
481.5 45.5 L
S
GR
GS
[1 0 0 1 494.00079 62.80952] CT
/Helvetica 18 F
GS
[1 0 0 1 0 0] CT
0 5.36 moveto 
1 -1 scale
(UCB+) t 
GR
GR
GS
0 0.6 0 RC
2 setlinecap
10.0 ML
2 LW
N
461 62.81 M
491.001 62.81 L
S
GR
GS
0 0.6 0 RC
2 setlinecap
10.0 ML
2 LW
N
472.6 66.4 M
472.6 58.6 L
480.4 58.6 L
480.4 66.4 L
472.6 66.4 L
S
GR
GS
[1 0 0 1 494.00079 80.19048] CT
/Helvetica 18 F
GS
[1 0 0 1 0 0] CT
0 5.36 moveto 
1 -1 scale
(mUCB) t 
GR
GR
GS
1 0 0 RC
2 setlinecap
10.0 ML
2 LW
N
461 80.19 M
491.001 80.19 L
S
GR
GS
1 0 0 RC
2 setlinecap
10.0 ML
2 LW
N
471 86 M
482 75 L
S
GR
GS
1 0 0 RC
2 setlinecap
10.0 ML
2 LW
N
471 75 M
482 86 L
S
GR
GS
[1 0 0 1 494.00079 97.57143] CT
/Helvetica 18 F
GS
[1 0 0 1 0 0] CT
0 5.36 moveto 
1 -1 scale
(tUCB) t 
GR
GR
GS
0 0.8 0.8 RC
2 setlinecap
10.0 ML
2 LW
N
461 97.571 M
491.001 97.571 L
S
GR
GS
0 0.8 0.8 RC
2 setlinecap
10.0 ML
2 LW
N
468 97.5 M
485 97.5 L
S
GR
GS
0 0.8 0.8 RC
2 setlinecap
10.0 ML
2 LW
N
476.5 106 M
476.5 89 L
S
GR
GS
0 0.8 0.8 RC
2 setlinecap
10.0 ML
2 LW
N
471 103 M
482 92 L
S
GR
GS
0 0.8 0.8 RC
2 setlinecap
10.0 ML
2 LW
N
471 92 M
482 103 L
S
GR
GS
0.149 GC
2 setlinecap
10.0 ML
N
455 108 M
455 35 L
550 35 L
550 108 L
455 108 L
S
GR
%%Trailer
%%Pages: 1
%%EOF
