%!PS-Adobe-3.0 EPSF-3.0
%%Creator: (MATLAB, The Mathworks, Inc. Version 8.4.0.150421 \(R2014b\). Operating System: Mac OS X)
%%Title: /Users/Martin/Projects/matlab-mva/Reinforcement_Learning/Project/transfer_bandit/setofmodels.eps
%%CreationDate: 2015-01-04T19:30:16
%%Pages: (atend)
%%BoundingBox: 0 0 1092 483
%%LanguageLevel: 2
%%EndComments
%%BeginProlog
%%BeginResource: procset (Apache XML Graphics Std ProcSet) 1.2 0
%%Version: 1.2 0
%%Copyright: (Copyright 2001-2003,2010 The Apache Software Foundation. License terms: http://www.apache.org/licenses/LICENSE-2.0)
/bd{bind def}bind def
/ld{load def}bd
/GR/grestore ld
/M/moveto ld
/LJ/setlinejoin ld
/C/curveto ld
/f/fill ld
/LW/setlinewidth ld
/GC/setgray ld
/t/show ld
/N/newpath ld
/CT/concat ld
/cp/closepath ld
/S/stroke ld
/L/lineto ld
/CC/setcmykcolor ld
/A/ashow ld
/GS/gsave ld
/RC/setrgbcolor ld
/RM/rmoveto ld
/ML/setmiterlimit ld
/re {4 2 roll M
1 index 0 rlineto
0 exch rlineto
neg 0 rlineto
cp } bd
/_ctm matrix def
/_tm matrix def
/BT { _ctm currentmatrix pop matrix _tm copy pop 0 0 moveto } bd
/ET { _ctm setmatrix } bd
/iTm { _ctm setmatrix _tm concat } bd
/Tm { _tm astore pop iTm 0 0 moveto } bd
/ux 0.0 def
/uy 0.0 def
/F {
  /Tp exch def
  /Tf exch def
  Tf findfont Tp scalefont setfont
  /cf Tf def  /cs Tp def
} bd
/ULS {currentpoint /uy exch def /ux exch def} bd
/ULE {
  /Tcx currentpoint pop def
  gsave
  newpath
  cf findfont cs scalefont dup
  /FontMatrix get 0 get /Ts exch def /FontInfo get dup
  /UnderlinePosition get Ts mul /To exch def
  /UnderlineThickness get Ts mul /Tt exch def
  ux uy To add moveto  Tcx uy To add lineto
  Tt setlinewidth stroke
  grestore
} bd
/OLE {
  /Tcx currentpoint pop def
  gsave
  newpath
  cf findfont cs scalefont dup
  /FontMatrix get 0 get /Ts exch def /FontInfo get dup
  /UnderlinePosition get Ts mul /To exch def
  /UnderlineThickness get Ts mul /Tt exch def
  ux uy To add cs add moveto Tcx uy To add cs add lineto
  Tt setlinewidth stroke
  grestore
} bd
/SOE {
  /Tcx currentpoint pop def
  gsave
  newpath
  cf findfont cs scalefont dup
  /FontMatrix get 0 get /Ts exch def /FontInfo get dup
  /UnderlinePosition get Ts mul /To exch def
  /UnderlineThickness get Ts mul /Tt exch def
  ux uy To add cs 10 mul 26 idiv add moveto Tcx uy To add cs 10 mul 26 idiv add lineto
  Tt setlinewidth stroke
  grestore
} bd
/QT {
/Y22 exch store
/X22 exch store
/Y21 exch store
/X21 exch store
currentpoint
/Y21 load 2 mul add 3 div exch
/X21 load 2 mul add 3 div exch
/X21 load 2 mul /X22 load add 3 div
/Y21 load 2 mul /Y22 load add 3 div
/X22 load /Y22 load curveto
} bd
/SSPD {
dup length /d exch dict def
{
/v exch def
/k exch def
currentpagedevice k known {
/cpdv currentpagedevice k get def
v cpdv ne {
/upd false def
/nullv v type /nulltype eq def
/nullcpdv cpdv type /nulltype eq def
nullv nullcpdv or
{
/upd true def
} {
/sametype v type cpdv type eq def
sametype {
v type /arraytype eq {
/vlen v length def
/cpdvlen cpdv length def
vlen cpdvlen eq {
0 1 vlen 1 sub {
/i exch def
/obj v i get def
/cpdobj cpdv i get def
obj cpdobj ne {
/upd true def
exit
} if
} for
} {
/upd true def
} ifelse
} {
v type /dicttype eq {
v {
/dv exch def
/dk exch def
/cpddv cpdv dk get def
dv cpddv ne {
/upd true def
exit
} if
} forall
} {
/upd true def
} ifelse
} ifelse
} if
} ifelse
upd true eq {
d k v put
} if
} if
} if
} forall
d length 0 gt {
d setpagedevice
} if
} bd
%%EndResource
%%BeginResource: procset (Apache XML Graphics EPS ProcSet) 1.0 0
%%Version: 1.0 0
%%Copyright: (Copyright 2002-2003 The Apache Software Foundation. License terms: http://www.apache.org/licenses/LICENSE-2.0)
/BeginEPSF { %def
/b4_Inc_state save def         % Save state for cleanup
/dict_count countdictstack def % Count objects on dict stack
/op_count count 1 sub def      % Count objects on operand stack
userdict begin                 % Push userdict on dict stack
/showpage { } def              % Redefine showpage, { } = null proc
0 setgray 0 setlinecap         % Prepare graphics state
1 setlinewidth 0 setlinejoin
10 setmiterlimit [ ] 0 setdash newpath
/languagelevel where           % If level not equal to 1 then
{pop languagelevel             % set strokeadjust and
1 ne                           % overprint to their defaults.
{false setstrokeadjust false setoverprint
} if
} if
} bd
/EndEPSF { %def
count op_count sub {pop} repeat            % Clean up stacks
countdictstack dict_count sub {end} repeat
b4_Inc_state restore
} bd
%%EndResource
%FOPBeginFontDict
%%IncludeResource: font Courier-Bold
%%IncludeResource: font Helvetica
%%IncludeResource: font Courier-BoldOblique
%%IncludeResource: font Courier-Oblique
%%IncludeResource: font Times-Roman
%%IncludeResource: font Helvetica-BoldOblique
%%IncludeResource: font Helvetica-Bold
%%IncludeResource: font Helvetica-Oblique
%%IncludeResource: font Times-BoldItalic
%%IncludeResource: font Courier
%%IncludeResource: font Times-Italic
%%IncludeResource: font Times-Bold
%%IncludeResource: font Symbol
%%IncludeResource: font ZapfDingbats
%FOPEndFontDict
%%BeginResource: encoding WinAnsiEncoding
/WinAnsiEncoding [
/.notdef /.notdef /.notdef /.notdef /.notdef
/.notdef /.notdef /.notdef /.notdef /.notdef
/.notdef /.notdef /.notdef /.notdef /.notdef
/.notdef /.notdef /.notdef /.notdef /.notdef
/.notdef /.notdef /.notdef /.notdef /.notdef
/.notdef /.notdef /.notdef /.notdef /.notdef
/.notdef /.notdef /space /exclam /quotedbl
/numbersign /dollar /percent /ampersand /quotesingle
/parenleft /parenright /asterisk /plus /comma
/hyphen /period /slash /zero /one
/two /three /four /five /six
/seven /eight /nine /colon /semicolon
/less /equal /greater /question /at
/A /B /C /D /E
/F /G /H /I /J
/K /L /M /N /O
/P /Q /R /S /T
/U /V /W /X /Y
/Z /bracketleft /backslash /bracketright /asciicircum
/underscore /quoteleft /a /b /c
/d /e /f /g /h
/i /j /k /l /m
/n /o /p /q /r
/s /t /u /v /w
/x /y /z /braceleft /bar
/braceright /asciitilde /bullet /Euro /bullet
/quotesinglbase /florin /quotedblbase /ellipsis /dagger
/daggerdbl /circumflex /perthousand /Scaron /guilsinglleft
/OE /bullet /Zcaron /bullet /bullet
/quoteleft /quoteright /quotedblleft /quotedblright /bullet
/endash /emdash /asciitilde /trademark /scaron
/guilsinglright /oe /bullet /zcaron /Ydieresis
/space /exclamdown /cent /sterling /currency
/yen /brokenbar /section /dieresis /copyright
/ordfeminine /guillemotleft /logicalnot /sfthyphen /registered
/macron /degree /plusminus /twosuperior /threesuperior
/acute /mu /paragraph /middot /cedilla
/onesuperior /ordmasculine /guillemotright /onequarter /onehalf
/threequarters /questiondown /Agrave /Aacute /Acircumflex
/Atilde /Adieresis /Aring /AE /Ccedilla
/Egrave /Eacute /Ecircumflex /Edieresis /Igrave
/Iacute /Icircumflex /Idieresis /Eth /Ntilde
/Ograve /Oacute /Ocircumflex /Otilde /Odieresis
/multiply /Oslash /Ugrave /Uacute /Ucircumflex
/Udieresis /Yacute /Thorn /germandbls /agrave
/aacute /acircumflex /atilde /adieresis /aring
/ae /ccedilla /egrave /eacute /ecircumflex
/edieresis /igrave /iacute /icircumflex /idieresis
/eth /ntilde /ograve /oacute /ocircumflex
/otilde /odieresis /divide /oslash /ugrave
/uacute /ucircumflex /udieresis /yacute /thorn
/ydieresis
] def
%%EndResource
%FOPBeginFontReencode
/Courier-Bold findfont
dup length dict begin
  {1 index /FID ne {def} {pop pop} ifelse} forall
  /Encoding WinAnsiEncoding def
  currentdict
end
/Courier-Bold exch definefont pop
/Helvetica findfont
dup length dict begin
  {1 index /FID ne {def} {pop pop} ifelse} forall
  /Encoding WinAnsiEncoding def
  currentdict
end
/Helvetica exch definefont pop
/Courier-BoldOblique findfont
dup length dict begin
  {1 index /FID ne {def} {pop pop} ifelse} forall
  /Encoding WinAnsiEncoding def
  currentdict
end
/Courier-BoldOblique exch definefont pop
/Courier-Oblique findfont
dup length dict begin
  {1 index /FID ne {def} {pop pop} ifelse} forall
  /Encoding WinAnsiEncoding def
  currentdict
end
/Courier-Oblique exch definefont pop
/Times-Roman findfont
dup length dict begin
  {1 index /FID ne {def} {pop pop} ifelse} forall
  /Encoding WinAnsiEncoding def
  currentdict
end
/Times-Roman exch definefont pop
/Helvetica-BoldOblique findfont
dup length dict begin
  {1 index /FID ne {def} {pop pop} ifelse} forall
  /Encoding WinAnsiEncoding def
  currentdict
end
/Helvetica-BoldOblique exch definefont pop
/Helvetica-Bold findfont
dup length dict begin
  {1 index /FID ne {def} {pop pop} ifelse} forall
  /Encoding WinAnsiEncoding def
  currentdict
end
/Helvetica-Bold exch definefont pop
/Helvetica-Oblique findfont
dup length dict begin
  {1 index /FID ne {def} {pop pop} ifelse} forall
  /Encoding WinAnsiEncoding def
  currentdict
end
/Helvetica-Oblique exch definefont pop
/Times-BoldItalic findfont
dup length dict begin
  {1 index /FID ne {def} {pop pop} ifelse} forall
  /Encoding WinAnsiEncoding def
  currentdict
end
/Times-BoldItalic exch definefont pop
/Courier findfont
dup length dict begin
  {1 index /FID ne {def} {pop pop} ifelse} forall
  /Encoding WinAnsiEncoding def
  currentdict
end
/Courier exch definefont pop
/Times-Italic findfont
dup length dict begin
  {1 index /FID ne {def} {pop pop} ifelse} forall
  /Encoding WinAnsiEncoding def
  currentdict
end
/Times-Italic exch definefont pop
/Times-Bold findfont
dup length dict begin
  {1 index /FID ne {def} {pop pop} ifelse} forall
  /Encoding WinAnsiEncoding def
  currentdict
end
/Times-Bold exch definefont pop
%FOPEndFontReencode
%%EndProlog
%%Page: 1 1
%%PageBoundingBox: 0 0 1092 483
%%BeginPageSetup
[1 0 0 -1 0 483] CT
%%EndPageSetup
GS
1 GC
N
0 0 1092 483 re
f
GR
GS
1 GC
N
0 0 1092 483 re
f
GR
GS
1 GC
N
142 430 M
988 430 L
988 36 L
142 36 L
cp
f
GR
GS
[1 0 0 1 565 451.20001] CT
0.149 GC
/Helvetica 24 F
GS
[1 0 0 1 0 0] CT
-38.684 18.48 moveto 
1 -1 scale
(Models) t 
GR
GR
GS
0.149 GC
2 setlinecap
10.0 ML
N
142 430 M
988 430 L
S
GR
GS
0.149 GC
2 setlinecap
10.0 ML
N
142 36 M
988 36 L
S
GR
GS
0.149 GC
2 setlinecap
10.0 ML
N
236 430 M
236 421.54 L
S
GR
GS
0.149 GC
2 setlinecap
10.0 ML
N
236 36 M
236 44.46 L
S
GR
GS
0.149 GC
2 setlinecap
10.0 ML
N
267.333 430 M
267.333 421.54 L
S
GR
GS
0.149 GC
2 setlinecap
10.0 ML
N
267.333 36 M
267.333 44.46 L
S
GR
GS
0.149 GC
2 setlinecap
10.0 ML
N
298.667 430 M
298.667 421.54 L
S
GR
GS
0.149 GC
2 setlinecap
10.0 ML
N
298.667 36 M
298.667 44.46 L
S
GR
GS
0.149 GC
2 setlinecap
10.0 ML
N
330 430 M
330 421.54 L
S
GR
GS
0.149 GC
2 setlinecap
10.0 ML
N
330 36 M
330 44.46 L
S
GR
GS
0.149 GC
2 setlinecap
10.0 ML
N
424 430 M
424 421.54 L
S
GR
GS
0.149 GC
2 setlinecap
10.0 ML
N
424 36 M
424 44.46 L
S
GR
GS
0.149 GC
2 setlinecap
10.0 ML
N
455.333 430 M
455.333 421.54 L
S
GR
GS
0.149 GC
2 setlinecap
10.0 ML
N
455.333 36 M
455.333 44.46 L
S
GR
GS
0.149 GC
2 setlinecap
10.0 ML
N
486.667 430 M
486.667 421.54 L
S
GR
GS
0.149 GC
2 setlinecap
10.0 ML
N
486.667 36 M
486.667 44.46 L
S
GR
GS
0.149 GC
2 setlinecap
10.0 ML
N
518 430 M
518 421.54 L
S
GR
GS
0.149 GC
2 setlinecap
10.0 ML
N
518 36 M
518 44.46 L
S
GR
GS
0.149 GC
2 setlinecap
10.0 ML
N
612 430 M
612 421.54 L
S
GR
GS
0.149 GC
2 setlinecap
10.0 ML
N
612 36 M
612 44.46 L
S
GR
GS
0.149 GC
2 setlinecap
10.0 ML
N
643.333 430 M
643.333 421.54 L
S
GR
GS
0.149 GC
2 setlinecap
10.0 ML
N
643.333 36 M
643.333 44.46 L
S
GR
GS
0.149 GC
2 setlinecap
10.0 ML
N
674.667 430 M
674.667 421.54 L
S
GR
GS
0.149 GC
2 setlinecap
10.0 ML
N
674.667 36 M
674.667 44.46 L
S
GR
GS
0.149 GC
2 setlinecap
10.0 ML
N
706 430 M
706 421.54 L
S
GR
GS
0.149 GC
2 setlinecap
10.0 ML
N
706 36 M
706 44.46 L
S
GR
GS
0.149 GC
2 setlinecap
10.0 ML
N
800 430 M
800 421.54 L
S
GR
GS
0.149 GC
2 setlinecap
10.0 ML
N
800 36 M
800 44.46 L
S
GR
GS
0.149 GC
2 setlinecap
10.0 ML
N
831.333 430 M
831.333 421.54 L
S
GR
GS
0.149 GC
2 setlinecap
10.0 ML
N
831.333 36 M
831.333 44.46 L
S
GR
GS
0.149 GC
2 setlinecap
10.0 ML
N
862.667 430 M
862.667 421.54 L
S
GR
GS
0.149 GC
2 setlinecap
10.0 ML
N
862.667 36 M
862.667 44.46 L
S
GR
GS
0.149 GC
2 setlinecap
10.0 ML
N
894 430 M
894 421.54 L
S
GR
GS
0.149 GC
2 setlinecap
10.0 ML
N
894 36 M
894 44.46 L
S
GR
GS
[1 0 0 1 236 435.20001] CT
0.149 GC
/Helvetica 16 F
GS
[1 0 0 1 0 0] CT
-11.113 12.32 moveto 
1 -1 scale
(m1) t 
GR
GR
GS
[1 0 0 1 267.33331 435.20001] CT
0.149 GC
/Helvetica 16 F
GS
[1 0 0 1 0 0] CT
-11.113 12.32 moveto 
1 -1 scale
(m2) t 
GR
GR
GS
[1 0 0 1 298.66669 435.20001] CT
0.149 GC
/Helvetica 16 F
GS
[1 0 0 1 0 0] CT
-11.113 12.32 moveto 
1 -1 scale
(m3) t 
GR
GR
GS
[1 0 0 1 330 435.20001] CT
0.149 GC
/Helvetica 16 F
GS
[1 0 0 1 0 0] CT
-11.113 12.32 moveto 
1 -1 scale
(m4) t 
GR
GR
GS
[1 0 0 1 424 435.20001] CT
0.149 GC
/Helvetica 16 F
GS
[1 0 0 1 0 0] CT
-11.113 12.32 moveto 
1 -1 scale
(m1) t 
GR
GR
GS
[1 0 0 1 455.33334 435.20001] CT
0.149 GC
/Helvetica 16 F
GS
[1 0 0 1 0 0] CT
-11.113 12.32 moveto 
1 -1 scale
(m2) t 
GR
GR
GS
[1 0 0 1 486.66666 435.20001] CT
0.149 GC
/Helvetica 16 F
GS
[1 0 0 1 0 0] CT
-11.113 12.32 moveto 
1 -1 scale
(m3) t 
GR
GR
GS
[1 0 0 1 518 435.20001] CT
0.149 GC
/Helvetica 16 F
GS
[1 0 0 1 0 0] CT
-11.113 12.32 moveto 
1 -1 scale
(m4) t 
GR
GR
GS
[1 0 0 1 612 435.20001] CT
0.149 GC
/Helvetica 16 F
GS
[1 0 0 1 0 0] CT
-11.113 12.32 moveto 
1 -1 scale
(m1) t 
GR
GR
GS
[1 0 0 1 643.33337 435.20001] CT
0.149 GC
/Helvetica 16 F
GS
[1 0 0 1 0 0] CT
-11.113 12.32 moveto 
1 -1 scale
(m2) t 
GR
GR
GS
[1 0 0 1 674.66663 435.20001] CT
0.149 GC
/Helvetica 16 F
GS
[1 0 0 1 0 0] CT
-11.113 12.32 moveto 
1 -1 scale
(m3) t 
GR
GR
GS
[1 0 0 1 706 435.20001] CT
0.149 GC
/Helvetica 16 F
GS
[1 0 0 1 0 0] CT
-11.113 12.32 moveto 
1 -1 scale
(m4) t 
GR
GR
GS
[1 0 0 1 800 435.20001] CT
0.149 GC
/Helvetica 16 F
GS
[1 0 0 1 0 0] CT
-11.113 12.32 moveto 
1 -1 scale
(m1) t 
GR
GR
GS
[1 0 0 1 831.33331 435.20001] CT
0.149 GC
/Helvetica 16 F
GS
[1 0 0 1 0 0] CT
-11.113 12.32 moveto 
1 -1 scale
(m2) t 
GR
GR
GS
[1 0 0 1 862.66669 435.20001] CT
0.149 GC
/Helvetica 16 F
GS
[1 0 0 1 0 0] CT
-11.113 12.32 moveto 
1 -1 scale
(m3) t 
GR
GR
GS
[1 0 0 1 894 435.20001] CT
0.149 GC
/Helvetica 16 F
GS
[1 0 0 1 0 0] CT
-11.113 12.32 moveto 
1 -1 scale
(m4) t 
GR
GR
GS
[0 -1 1 0 111.55781 233] CT
0.149 GC
/Helvetica 24 F
GS
[1 0 0 1 0 0] CT
-41.35 -4.52 moveto 
1 -1 scale
(Reward) t 
GR
GR
GS
0.149 GC
2 setlinecap
10.0 ML
N
142 430 M
142 36 L
S
GR
GS
0.149 GC
2 setlinecap
10.0 ML
N
988 430 M
988 36 L
S
GR
GS
0.149 GC
2 setlinecap
10.0 ML
N
142 430 M
150.46 430 L
S
GR
GS
0.149 GC
2 setlinecap
10.0 ML
N
988 430 M
979.54 430 L
S
GR
GS
0.149 GC
2 setlinecap
10.0 ML
N
142 390.6 M
150.46 390.6 L
S
GR
GS
0.149 GC
2 setlinecap
10.0 ML
N
988 390.6 M
979.54 390.6 L
S
GR
GS
0.149 GC
2 setlinecap
10.0 ML
N
142 351.2 M
150.46 351.2 L
S
GR
GS
0.149 GC
2 setlinecap
10.0 ML
N
988 351.2 M
979.54 351.2 L
S
GR
GS
0.149 GC
2 setlinecap
10.0 ML
N
142 311.8 M
150.46 311.8 L
S
GR
GS
0.149 GC
2 setlinecap
10.0 ML
N
988 311.8 M
979.54 311.8 L
S
GR
GS
0.149 GC
2 setlinecap
10.0 ML
N
142 272.4 M
150.46 272.4 L
S
GR
GS
0.149 GC
2 setlinecap
10.0 ML
N
988 272.4 M
979.54 272.4 L
S
GR
GS
0.149 GC
2 setlinecap
10.0 ML
N
142 233 M
150.46 233 L
S
GR
GS
0.149 GC
2 setlinecap
10.0 ML
N
988 233 M
979.54 233 L
S
GR
GS
0.149 GC
2 setlinecap
10.0 ML
N
142 193.6 M
150.46 193.6 L
S
GR
GS
0.149 GC
2 setlinecap
10.0 ML
N
988 193.6 M
979.54 193.6 L
S
GR
GS
0.149 GC
2 setlinecap
10.0 ML
N
142 154.2 M
150.46 154.2 L
S
GR
GS
0.149 GC
2 setlinecap
10.0 ML
N
988 154.2 M
979.54 154.2 L
S
GR
GS
0.149 GC
2 setlinecap
10.0 ML
N
142 114.8 M
150.46 114.8 L
S
GR
GS
0.149 GC
2 setlinecap
10.0 ML
N
988 114.8 M
979.54 114.8 L
S
GR
GS
0.149 GC
2 setlinecap
10.0 ML
N
142 75.4 M
150.46 75.4 L
S
GR
GS
0.149 GC
2 setlinecap
10.0 ML
N
988 75.4 M
979.54 75.4 L
S
GR
GS
0.149 GC
2 setlinecap
10.0 ML
N
142 36 M
150.46 36 L
S
GR
GS
0.149 GC
2 setlinecap
10.0 ML
N
988 36 M
979.54 36 L
S
GR
GS
[1 0 0 1 136.8 430] CT
0.149 GC
/Helvetica 16 F
GS
[1 0 0 1 0 0] CT
-8.898 4.82 moveto 
1 -1 scale
(0) t 
GR
GR
GS
[1 0 0 1 136.8 390.60001] CT
0.149 GC
/Helvetica 16 F
GS
[1 0 0 1 0 0] CT
-22.242 4.82 moveto 
1 -1 scale
(0.1) t 
GR
GR
GS
[1 0 0 1 136.8 351.20001] CT
0.149 GC
/Helvetica 16 F
GS
[1 0 0 1 0 0] CT
-22.242 4.82 moveto 
1 -1 scale
(0.2) t 
GR
GR
GS
[1 0 0 1 136.8 311.79999] CT
0.149 GC
/Helvetica 16 F
GS
[1 0 0 1 0 0] CT
-22.242 4.82 moveto 
1 -1 scale
(0.3) t 
GR
GR
GS
[1 0 0 1 136.8 272.39999] CT
0.149 GC
/Helvetica 16 F
GS
[1 0 0 1 0 0] CT
-22.242 4.82 moveto 
1 -1 scale
(0.4) t 
GR
GR
GS
[1 0 0 1 136.8 233] CT
0.149 GC
/Helvetica 16 F
GS
[1 0 0 1 0 0] CT
-22.242 4.82 moveto 
1 -1 scale
(0.5) t 
GR
GR
GS
[1 0 0 1 136.8 193.59999] CT
0.149 GC
/Helvetica 16 F
GS
[1 0 0 1 0 0] CT
-22.242 4.82 moveto 
1 -1 scale
(0.6) t 
GR
GR
GS
[1 0 0 1 136.8 154.20001] CT
0.149 GC
/Helvetica 16 F
GS
[1 0 0 1 0 0] CT
-22.242 4.82 moveto 
1 -1 scale
(0.7) t 
GR
GR
GS
[1 0 0 1 136.8 114.8] CT
0.149 GC
/Helvetica 16 F
GS
[1 0 0 1 0 0] CT
-22.242 4.82 moveto 
1 -1 scale
(0.8) t 
GR
GR
GS
[1 0 0 1 136.8 75.40001] CT
0.149 GC
/Helvetica 16 F
GS
[1 0 0 1 0 0] CT
-22.242 4.82 moveto 
1 -1 scale
(0.9) t 
GR
GR
GS
[1 0 0 1 136.8 36] CT
0.149 GC
/Helvetica 16 F
GS
[1 0 0 1 0 0] CT
-8.898 4.82 moveto 
1 -1 scale
(1) t 
GR
GR
GS
2 setlinecap
10.0 ML
2 LW
N
198.4 430 M
198.4 36 L
S
GR
GS
1 0 0 RC
2 setlinecap
10.0 ML
3 LW
N
243.5 159.5 M
242.708 156.029 L
240.488 153.245 L
237.28 151.701 L
233.72 151.701 L
230.512 153.245 L
228.292 156.029 L
227.5 159.5 L
228.292 162.971 L
230.512 165.755 L
233.72 167.299 L
237.28 167.299 L
240.488 165.755 L
242.708 162.971 L
243.5 159.5 L
S
GR
GS
1 0.502 0 RC
2 setlinecap
10.0 ML
3 LW
N
275.5 107.5 M
274.708 104.029 L
272.488 101.245 L
269.28 99.701 L
265.72 99.701 L
262.512 101.245 L
260.292 104.029 L
259.5 107.5 L
260.292 110.971 L
262.512 113.755 L
265.72 115.299 L
269.28 115.299 L
272.488 113.755 L
274.708 110.971 L
275.5 107.5 L
S
GR
GS
0 1 1 RC
2 setlinecap
10.0 ML
3 LW
N
306.5 75.5 M
305.708 72.029 L
303.488 69.245 L
300.28 67.701 L
296.72 67.701 L
293.512 69.245 L
291.292 72.029 L
290.5 75.5 L
291.292 78.971 L
293.512 81.755 L
296.72 83.299 L
300.28 83.299 L
303.488 81.755 L
305.708 78.971 L
306.5 75.5 L
S
GR
GS
0 1 0 RC
2 setlinecap
10.0 ML
3 LW
N
337.5 262.5 M
336.708 259.029 L
334.488 256.245 L
331.28 254.701 L
327.72 254.701 L
324.512 256.245 L
322.292 259.029 L
321.5 262.5 L
322.292 265.971 L
324.512 268.755 L
327.72 270.299 L
331.28 270.299 L
334.488 268.755 L
336.708 265.971 L
337.5 262.5 L
S
GR
GS
2 setlinecap
10.0 ML
2 LW
N
367.6 430 M
367.6 36 L
S
GR
GS
1 0 0 RC
2 setlinecap
10.0 ML
5 LW
N
414.92 103.08 M
414.92 85.92 L
432.08 85.92 L
432.08 103.08 L
414.92 103.08 L
S
GR
GS
1 0.502 0 RC
2 setlinecap
10.0 ML
3 LW
N
463.5 287.5 M
462.708 284.029 L
460.488 281.245 L
457.28 279.701 L
453.72 279.701 L
450.512 281.245 L
448.292 284.029 L
447.5 287.5 L
448.292 290.971 L
450.512 293.755 L
453.72 295.299 L
457.28 295.299 L
460.488 293.755 L
462.708 290.971 L
463.5 287.5 L
S
GR
GS
0 1 1 RC
2 setlinecap
10.0 ML
3 LW
N
494.5 57.5 M
493.708 54.029 L
491.488 51.245 L
488.28 49.701 L
484.72 49.701 L
481.512 51.245 L
479.292 54.029 L
478.5 57.5 L
479.292 60.971 L
481.512 63.755 L
484.72 65.299 L
488.28 65.299 L
491.488 63.755 L
493.708 60.971 L
494.5 57.5 L
S
GR
GS
0 1 0 RC
2 setlinecap
10.0 ML
3 LW
N
525.5 135.5 M
524.708 132.029 L
522.488 129.245 L
519.28 127.701 L
515.72 127.701 L
512.512 129.245 L
510.292 132.029 L
509.5 135.5 L
510.292 138.971 L
512.512 141.755 L
515.72 143.299 L
519.28 143.299 L
522.488 141.755 L
524.708 138.971 L
525.5 135.5 L
S
GR
GS
2 setlinecap
10.0 ML
2 LW
N
555.6 430 M
555.6 36 L
S
GR
GS
1 0 0 RC
2 setlinecap
10.0 ML
3 LW
N
620.5 275.5 M
619.708 272.029 L
617.488 269.245 L
614.28 267.701 L
610.72 267.701 L
607.512 269.245 L
605.292 272.029 L
604.5 275.5 L
605.292 278.971 L
607.512 281.755 L
610.72 283.299 L
614.28 283.299 L
617.488 281.755 L
619.708 278.971 L
620.5 275.5 L
S
GR
GS
1 0.502 0 RC
2 setlinecap
10.0 ML
3 LW
N
651.5 149.5 M
650.708 146.029 L
648.488 143.245 L
645.28 141.701 L
641.72 141.701 L
638.512 143.245 L
636.292 146.029 L
635.5 149.5 L
636.292 152.971 L
638.512 155.755 L
641.72 157.299 L
645.28 157.299 L
648.488 155.755 L
650.708 152.971 L
651.5 149.5 L
S
GR
GS
0 1 1 RC
2 setlinecap
10.0 ML
3 LW
N
682.5 84.5 M
681.708 81.029 L
679.488 78.245 L
676.28 76.701 L
672.72 76.701 L
669.512 78.245 L
667.292 81.029 L
666.5 84.5 L
667.292 87.971 L
669.512 90.755 L
672.72 92.299 L
676.28 92.299 L
679.488 90.755 L
681.708 87.971 L
682.5 84.5 L
S
GR
GS
0 1 0 RC
2 setlinecap
10.0 ML
5 LW
N
697.92 123.08 M
697.92 105.92 L
715.08 105.92 L
715.08 123.08 L
697.92 123.08 L
S
GR
GS
2 setlinecap
10.0 ML
2 LW
N
743.6 430 M
743.6 36 L
S
GR
GS
1 0 0 RC
2 setlinecap
10.0 ML
3 LW
N
808.5 97.5 M
807.708 94.029 L
805.488 91.245 L
802.28 89.701 L
798.72 89.701 L
795.512 91.245 L
793.292 94.029 L
792.5 97.5 L
793.292 100.971 L
795.512 103.755 L
798.72 105.299 L
802.28 105.299 L
805.488 103.755 L
807.708 100.971 L
808.5 97.5 L
S
GR
GS
1 0.502 0 RC
2 setlinecap
10.0 ML
5 LW
N
822.92 65.08 M
822.92 47.92 L
840.08 47.92 L
840.08 65.08 L
822.92 65.08 L
S
GR
GS
0 1 1 RC
2 setlinecap
10.0 ML
5 LW
N
853.92 60.08 M
853.92 42.92 L
871.08 42.92 L
871.08 60.08 L
853.92 60.08 L
S
GR
GS
0 1 0 RC
2 setlinecap
10.0 ML
3 LW
N
902.5 229.5 M
901.708 226.029 L
899.488 223.245 L
896.28 221.701 L
892.72 221.701 L
889.512 223.245 L
887.292 226.029 L
886.5 229.5 L
887.292 232.971 L
889.512 235.755 L
892.72 237.299 L
896.28 237.299 L
899.488 235.755 L
901.708 232.971 L
902.5 229.5 L
S
GR
GS
2 setlinecap
10.0 ML
2 LW
N
931.6 430 M
931.6 36 L
S
GR
%%Trailer
%%Pages: 1
%%EOF
