%!PS-Adobe-3.0 EPSF-3.0
%%Creator: MATLAB, The MathWorks, Inc. Version 7.14.0.739 (R2012a). Operating System: Darwin 11.4.2 Darwin Kernel Version 11.4.2: Thu Aug 23 16:25:48 PDT 2012; root:xnu-1699.32.7~1/RELEASE_X86_64 x86_64.
%%Title: /Users/mazar/Dropbox/MOM-MAB/MOMMay23.eps
%%CreationDate: 05/23/2013  23:59:13
%%DocumentNeededFonts: Helvetica
%%DocumentProcessColors: Cyan Magenta Yellow Black
%%LanguageLevel: 2
%%Pages: 1
%%BoundingBox:  -143   142   757   650
%%EndComments

%%BeginProlog
% MathWorks dictionary
/MathWorks 160 dict begin
% definition operators
/bdef {bind def} bind def
/ldef {load def} bind def
/xdef {exch def} bdef
/xstore {exch store} bdef
% operator abbreviations
/c  /clip ldef
/cc /concat ldef
/cp /closepath ldef
/gr /grestore ldef
/gs /gsave ldef
/mt /moveto ldef
/np /newpath ldef
/cm /currentmatrix ldef
/sm /setmatrix ldef
/rm /rmoveto ldef
/rl /rlineto ldef
/s {show newpath} bdef
/sc {setcmykcolor} bdef
/sr /setrgbcolor ldef
/sg /setgray ldef
/w /setlinewidth ldef
/j /setlinejoin ldef
/cap /setlinecap ldef
/rc {rectclip} bdef
/rf {rectfill} bdef
% page state control
/pgsv () def
/bpage {/pgsv save def} bdef
/epage {pgsv restore} bdef
/bplot /gsave ldef
/eplot {stroke grestore} bdef
% orientation switch
/portraitMode 0 def /landscapeMode 1 def /rotateMode 2 def
% coordinate system mappings
/dpi2point 0 def
% font control
/FontSize 0 def
/FMS {/FontSize xstore findfont [FontSize 0 0 FontSize neg 0 0]
  makefont setfont} bdef
/reencode {exch dup where {pop load} {pop StandardEncoding} ifelse
  exch dup 3 1 roll findfont dup length dict begin
  { 1 index /FID ne {def}{pop pop} ifelse } forall
  /Encoding exch def currentdict end definefont pop} bdef
/isroman {findfont /CharStrings get /Agrave known} bdef
/FMSR {3 1 roll 1 index dup isroman {reencode} {pop pop} ifelse
  exch FMS} bdef
/csm {1 dpi2point div -1 dpi2point div scale neg translate
 dup landscapeMode eq {pop -90 rotate}
  {rotateMode eq {90 rotate} if} ifelse} bdef
% line types: solid, dotted, dashed, dotdash
/SO { [] 0 setdash } bdef
/DO { [.5 dpi2point mul 4 dpi2point mul] 0 setdash } bdef
/DA { [6 dpi2point mul] 0 setdash } bdef
/DD { [.5 dpi2point mul 4 dpi2point mul 6 dpi2point mul 4
  dpi2point mul] 0 setdash } bdef
% macros for lines and objects
/L {lineto stroke} bdef
/MP {3 1 roll moveto 1 sub {rlineto} repeat} bdef
/AP {{rlineto} repeat} bdef
/PDlw -1 def
/W {/PDlw currentlinewidth def setlinewidth} def
/PP {closepath eofill} bdef
/DP {closepath stroke} bdef
/MR {4 -2 roll moveto dup  0 exch rlineto exch 0 rlineto
  neg 0 exch rlineto closepath} bdef
/FR {MR stroke} bdef
/PR {MR fill} bdef
/L1i {{currentfile picstr readhexstring pop} image} bdef
/tMatrix matrix def
/MakeOval {newpath tMatrix currentmatrix pop translate scale
0 0 1 0 360 arc tMatrix setmatrix} bdef
/FO {MakeOval stroke} bdef
/PO {MakeOval fill} bdef
/PD {currentlinewidth 2 div 0 360 arc fill
   PDlw -1 eq not {PDlw w /PDlw -1 def} if} def
/FA {newpath tMatrix currentmatrix pop translate scale
  0 0 1 5 -2 roll arc tMatrix setmatrix stroke} bdef
/PA {newpath tMatrix currentmatrix pop	translate 0 0 moveto scale
  0 0 1 5 -2 roll arc closepath tMatrix setmatrix fill} bdef
/FAn {newpath tMatrix currentmatrix pop translate scale
  0 0 1 5 -2 roll arcn tMatrix setmatrix stroke} bdef
/PAn {newpath tMatrix currentmatrix pop translate 0 0 moveto scale
  0 0 1 5 -2 roll arcn closepath tMatrix setmatrix fill} bdef
/vradius 0 def /hradius 0 def /lry 0 def
/lrx 0 def /uly 0 def /ulx 0 def /rad 0 def
/MRR {/vradius xdef /hradius xdef /lry xdef /lrx xdef /uly xdef
  /ulx xdef newpath tMatrix currentmatrix pop ulx hradius add uly
  vradius add translate hradius vradius scale 0 0 1 180 270 arc 
  tMatrix setmatrix lrx hradius sub uly vradius add translate
  hradius vradius scale 0 0 1 270 360 arc tMatrix setmatrix
  lrx hradius sub lry vradius sub translate hradius vradius scale
  0 0 1 0 90 arc tMatrix setmatrix ulx hradius add lry vradius sub
  translate hradius vradius scale 0 0 1 90 180 arc tMatrix setmatrix
  closepath} bdef
/FRR {MRR stroke } bdef
/PRR {MRR fill } bdef
/MlrRR {/lry xdef /lrx xdef /uly xdef /ulx xdef /rad lry uly sub 2 div def
  newpath tMatrix currentmatrix pop ulx rad add uly rad add translate
  rad rad scale 0 0 1 90 270 arc tMatrix setmatrix lrx rad sub lry rad
  sub translate rad rad scale 0 0 1 270 90 arc tMatrix setmatrix
  closepath} bdef
/FlrRR {MlrRR stroke } bdef
/PlrRR {MlrRR fill } bdef
/MtbRR {/lry xdef /lrx xdef /uly xdef /ulx xdef /rad lrx ulx sub 2 div def
  newpath tMatrix currentmatrix pop ulx rad add uly rad add translate
  rad rad scale 0 0 1 180 360 arc tMatrix setmatrix lrx rad sub lry rad
  sub translate rad rad scale 0 0 1 0 180 arc tMatrix setmatrix
  closepath} bdef
/FtbRR {MtbRR stroke } bdef
/PtbRR {MtbRR fill } bdef
/stri 6 array def /dtri 6 array def
/smat 6 array def /dmat 6 array def
/tmat1 6 array def /tmat2 6 array def /dif 3 array def
/asub {/ind2 exch def /ind1 exch def dup dup
  ind1 get exch ind2 get sub exch } bdef
/tri_to_matrix {
  2 0 asub 3 1 asub 4 0 asub 5 1 asub
  dup 0 get exch 1 get 7 -1 roll astore } bdef
/compute_transform {
  dmat dtri tri_to_matrix tmat1 invertmatrix 
  smat stri tri_to_matrix tmat2 concatmatrix } bdef
/ds {stri astore pop} bdef
/dt {dtri astore pop} bdef
/db {2 copy /cols xdef /rows xdef mul dup 3 mul string
  currentfile 
  3 index 0 eq {/ASCIIHexDecode filter}
  {/ASCII85Decode filter 3 index 2 eq {/RunLengthDecode filter} if }
  ifelse exch readstring pop
  dup 0 3 index getinterval /rbmap xdef
  dup 2 index dup getinterval /gbmap xdef
  1 index dup 2 mul exch getinterval /bbmap xdef pop pop}bdef
/it {gs np dtri aload pop moveto lineto lineto cp c
  cols rows 8 compute_transform 
  rbmap gbmap bbmap true 3 colorimage gr}bdef
/il {newpath moveto lineto stroke}bdef
currentdict end def
%%EndProlog

%%BeginSetup
MathWorks begin

0 cap

end
%%EndSetup

%%Page: 1 1
%%BeginPageSetup
%%PageBoundingBox:  -143   142   757   650
MathWorks begin
bpage
%%EndPageSetup

%%BeginObject: obj1
bplot

/dpi2point 12 def
portraitMode -1716 7800 csm

    0     0 10800  6093 rc
86 dict begin %Colortable dictionary
/c0 { 0.000000 0.000000 0.000000 sr} bdef
/c1 { 1.000000 1.000000 1.000000 sr} bdef
/c2 { 0.900000 0.000000 0.000000 sr} bdef
/c3 { 0.000000 0.820000 0.000000 sr} bdef
/c4 { 0.000000 0.000000 0.800000 sr} bdef
/c5 { 0.910000 0.820000 0.320000 sr} bdef
/c6 { 1.000000 0.260000 0.820000 sr} bdef
/c7 { 0.000000 0.820000 0.820000 sr} bdef
c0
1 j
1 sg
   0    0 10801 6094 rf
6 w
0 4025 7915 0 0 -4025 1999 4693 4 MP
PP
-7915 0 0 4025 7915 0 0 -4025 1999 4693 5 MP stroke
4 w
DO
SO
6 w
0 sg
1999 4693 mt 9914 4693 L
1999  668 mt 9914  668 L
1999 4693 mt 1999  668 L
9914 4693 mt 9914  668 L
1999 4693 mt 9914 4693 L
1999 4693 mt 1999  668 L
1999 4693 mt 1999 4653 L
1999  668 mt 1999  708 L
1999 4693 mt 1999 4613 L
1999  668 mt 1999  748 L
%%IncludeResource: font Helvetica
/Helvetica /ISOLatin1Encoding 240 FMSR

1822 5023 mt 
(10) s
%%IncludeResource: font Helvetica
/Helvetica /ISOLatin1Encoding 160 FMSR

2088 4875 mt 
(0) s
2793 4693 mt 2793 4653 L
2793  668 mt 2793  708 L
3257 4693 mt 3257 4653 L
3257  668 mt 3257  708 L
3587 4693 mt 3587 4653 L
3587  668 mt 3587  708 L
3843 4693 mt 3843 4653 L
3843  668 mt 3843  708 L
4052 4693 mt 4052 4653 L
4052  668 mt 4052  708 L
4228 4693 mt 4228 4653 L
4228  668 mt 4228  708 L
4381 4693 mt 4381 4653 L
4381  668 mt 4381  708 L
4516 4693 mt 4516 4653 L
4516  668 mt 4516  708 L
4637 4693 mt 4637 4653 L
4637  668 mt 4637  708 L
4637 4693 mt 4637 4613 L
4637  668 mt 4637  748 L
%%IncludeResource: font Helvetica
/Helvetica /ISOLatin1Encoding 240 FMSR

4460 5023 mt 
(10) s
%%IncludeResource: font Helvetica
/Helvetica /ISOLatin1Encoding 160 FMSR

4726 4875 mt 
(1) s
5431 4693 mt 5431 4653 L
5431  668 mt 5431  708 L
5896 4693 mt 5896 4653 L
5896  668 mt 5896  708 L
6225 4693 mt 6225 4653 L
6225  668 mt 6225  708 L
6481 4693 mt 6481 4653 L
6481  668 mt 6481  708 L
6690 4693 mt 6690 4653 L
6690  668 mt 6690  708 L
6866 4693 mt 6866 4653 L
6866  668 mt 6866  708 L
7019 4693 mt 7019 4653 L
7019  668 mt 7019  708 L
7154 4693 mt 7154 4653 L
7154  668 mt 7154  708 L
7275 4693 mt 7275 4653 L
7275  668 mt 7275  708 L
7275 4693 mt 7275 4613 L
7275  668 mt 7275  748 L
%%IncludeResource: font Helvetica
/Helvetica /ISOLatin1Encoding 240 FMSR

7098 5023 mt 
(10) s
%%IncludeResource: font Helvetica
/Helvetica /ISOLatin1Encoding 160 FMSR

7364 4875 mt 
(2) s
8069 4693 mt 8069 4653 L
8069  668 mt 8069  708 L
8534 4693 mt 8534 4653 L
8534  668 mt 8534  708 L
8864 4693 mt 8864 4653 L
8864  668 mt 8864  708 L
9119 4693 mt 9119 4653 L
9119  668 mt 9119  708 L
9328 4693 mt 9328 4653 L
9328  668 mt 9328  708 L
9505 4693 mt 9505 4653 L
9505  668 mt 9505  708 L
9658 4693 mt 9658 4653 L
9658  668 mt 9658  708 L
9793 4693 mt 9793 4653 L
9793  668 mt 9793  708 L
9914 4693 mt 9914 4653 L
9914  668 mt 9914  708 L
9914 4693 mt 9914 4613 L
9914  668 mt 9914  748 L
%%IncludeResource: font Helvetica
/Helvetica /ISOLatin1Encoding 240 FMSR

9737 5023 mt 
(10) s
%%IncludeResource: font Helvetica
/Helvetica /ISOLatin1Encoding 160 FMSR

10003 4875 mt 
(3) s
1999 4693 mt 2038 4693 L
9914 4693 mt 9874 4693 L
1999 4693 mt 2078 4693 L
9914 4693 mt 9834 4693 L
%%IncludeResource: font Helvetica
/Helvetica /ISOLatin1Encoding 240 FMSR

1516 4782 mt 
(10) s
%%IncludeResource: font Helvetica
/Helvetica /ISOLatin1Encoding 160 FMSR

1782 4634 mt 
(-3) s
1999 4390 mt 2038 4390 L
9914 4390 mt 9874 4390 L
1999 4213 mt 2038 4213 L
9914 4213 mt 9874 4213 L
1999 4087 mt 2038 4087 L
9914 4087 mt 9874 4087 L
1999 3989 mt 2038 3989 L
9914 3989 mt 9874 3989 L
1999 3910 mt 2038 3910 L
9914 3910 mt 9874 3910 L
1999 3842 mt 2038 3842 L
9914 3842 mt 9874 3842 L
1999 3784 mt 2038 3784 L
9914 3784 mt 9874 3784 L
1999 3733 mt 2038 3733 L
9914 3733 mt 9874 3733 L
1999 3687 mt 2038 3687 L
9914 3687 mt 9874 3687 L
1999 3687 mt 2078 3687 L
9914 3687 mt 9834 3687 L
%%IncludeResource: font Helvetica
/Helvetica /ISOLatin1Encoding 240 FMSR

1516 3776 mt 
(10) s
%%IncludeResource: font Helvetica
/Helvetica /ISOLatin1Encoding 160 FMSR

1782 3628 mt 
(-2) s
1999 3384 mt 2038 3384 L
9914 3384 mt 9874 3384 L
1999 3207 mt 2038 3207 L
9914 3207 mt 9874 3207 L
1999 3081 mt 2038 3081 L
9914 3081 mt 9874 3081 L
1999 2983 mt 2038 2983 L
9914 2983 mt 9874 2983 L
1999 2904 mt 2038 2904 L
9914 2904 mt 9874 2904 L
1999 2836 mt 2038 2836 L
9914 2836 mt 9874 2836 L
1999 2778 mt 2038 2778 L
9914 2778 mt 9874 2778 L
1999 2727 mt 2038 2727 L
9914 2727 mt 9874 2727 L
1999 2681 mt 2038 2681 L
9914 2681 mt 9874 2681 L
1999 2681 mt 2078 2681 L
9914 2681 mt 9834 2681 L
%%IncludeResource: font Helvetica
/Helvetica /ISOLatin1Encoding 240 FMSR

1516 2770 mt 
(10) s
%%IncludeResource: font Helvetica
/Helvetica /ISOLatin1Encoding 160 FMSR

1782 2622 mt 
(-1) s
1999 2378 mt 2038 2378 L
9914 2378 mt 9874 2378 L
1999 2201 mt 2038 2201 L
9914 2201 mt 9874 2201 L
1999 2075 mt 2038 2075 L
9914 2075 mt 9874 2075 L
1999 1977 mt 2038 1977 L
9914 1977 mt 9874 1977 L
1999 1898 mt 2038 1898 L
9914 1898 mt 9874 1898 L
1999 1830 mt 2038 1830 L
9914 1830 mt 9874 1830 L
1999 1772 mt 2038 1772 L
9914 1772 mt 9874 1772 L
1999 1721 mt 2038 1721 L
9914 1721 mt 9874 1721 L
1999 1674 mt 2038 1674 L
9914 1674 mt 9874 1674 L
1999 1674 mt 2078 1674 L
9914 1674 mt 9834 1674 L
%%IncludeResource: font Helvetica
/Helvetica /ISOLatin1Encoding 240 FMSR

1516 1763 mt 
(10) s
%%IncludeResource: font Helvetica
/Helvetica /ISOLatin1Encoding 160 FMSR

1782 1615 mt 
(0) s
1999 1372 mt 2038 1372 L
9914 1372 mt 9874 1372 L
1999 1195 mt 2038 1195 L
9914 1195 mt 9874 1195 L
1999 1069 mt 2038 1069 L
9914 1069 mt 9874 1069 L
1999  971 mt 2038  971 L
9914  971 mt 9874  971 L
1999  892 mt 2038  892 L
9914  892 mt 9874  892 L
1999  824 mt 2038  824 L
9914  824 mt 9874  824 L
1999  766 mt 2038  766 L
9914  766 mt 9874  766 L
1999  715 mt 2038  715 L
9914  715 mt 9874  715 L
1999  668 mt 2038  668 L
9914  668 mt 9874  668 L
1999  668 mt 2078  668 L
9914  668 mt 9834  668 L
%%IncludeResource: font Helvetica
/Helvetica /ISOLatin1Encoding 240 FMSR

1516  757 mt 
(10) s
%%IncludeResource: font Helvetica
/Helvetica /ISOLatin1Encoding 160 FMSR

1782  609 mt 
(1) s
1999 4693 mt 9914 4693 L
1999  668 mt 9914  668 L
1999 4693 mt 1999  668 L
9914 4693 mt 9914  668 L
gs 1999 669 7916 4025 rc
/c8 { 0.847059 0.160784 0.000000 sr} bdef
c8
2 0 1 1 1 -3 1 0 1 0 1 1 2 12 1 -1 
1 -5 1 17 1 0 1 11 1 -1 2 0 1 -29 1 -3 
1 0 1 1 1 -14 2 1 1 -4 1 15 1 -2 1 24 
2 0 1 0 1 3 1 -2 1 -1 1 0 2 -1 1 0 
1 4 1 1 1 1 2 0 1 0 1 -1 1 -7 1 -1 
1 0 2 -24 1 0 1 0 1 1 1 0 2 1 1 0 
1 0 1 -31 1 0 2 1 1 10 1 26 1 1 2 0 
1 -11 1 -2 1 -1 1 -1 2 12 1 -1 1 1 1 0 
2 0 1 -15 1 1 1 -2 1 0 2 -5 1 0 1 -1 
1 2 2 -12 1 0 1 1 1 0 2 -21 1 -1 1 -17 
1 23 2 0 1 1 1 -3 1 14 2 1 1 1 1 -1 
1 -19 2 -12 1 -30 1 0 1 -6 2 -2 1 -1 1 1 
1 8 2 27 1 -1 1 2 1 2 2 0 1 0 1 1 
2 11 1 0 1 0 1 1 2 2 1 0 1 1 2 0 
1 0 1 -26 1 2 2 1 1 0 1 0 2 12 1 8 
1 1 2 -30 1 -1 1 -1 2 1 1 -2 1 1 1 -2 
2 -17 1 0 1 15 2 0 1 1 1 -16 2 1 1 -7 
1 1 2 49 1 7 1 0 2 0 1 -13 1 1 2 33 
1 0 1 0 2 19 1 -1 1 -1 2 1 1 0 1 -21 
2 16 1 32 1 65 2 0 1 -9 2 0 1 -12 1 1 
2 0 1 0 1 1 2 1 1 -14 1 0 2 -1 1 -1 
2 -1 1 1 1 3 2 0 1 -23 2 -1 1 1 1 0 
2 -6 1 1 1 0 2 -37 1 0 2 -1 1 -1 1 1 
2 0 1 -3 2 20 1 11 2 8 1 -10 1 1 2 2 
1 -1 2 22 1 0 1 0 2 2 1 0 2 -18 1 0 
2 1 1 4 1 0 2 0 1 4 2 10 1 0 2 0 
1 1 2 1 1 -2 1 -1 2 2 1 -64 2 0 1 -15 
2 11 1 28 2 -14 1 16 2 0 1 0 2 0 1 0 
2 27 1 0 2 0 1 0 1 -1 2 0 1 -1 2 -7 
1 1 2 -15 1 49 2 0 1 0 2 2 1 7 2 4 
1 0 2 0 1 -1 2 0 2 -1 1 0 2 -1 1 0 
2 0 1 4 2 -27 1 0 2 0 1 1 2 1 1 5 
2 0 1 0 2 6 2 6 1 1 2 -2 1 1 2 1 
1 -24 2 1 1 36 2 1 2 -12 1 30 2 17 1 0 
2 0 1 -16 2 2 2 1 1 -4 2 0 1 0 2 -13 
1 -1 2 1 2 1 1 1 2 0 1 -2 2 1 2 -4 
1 1 2 0 2 21 1 0 2 41 1 1 2 -24 2 -11 
1 -15 2 -3 2 3 9506 4156 300 MP stroke
1 0 2 7 1 -1 2 4 2 -2 1 44 2 43 2 1 
1 0 2 6 2 -3 1 0 2 2 2 0 1 0 2 0 
2 0 1 1 2 -2 2 -1 1 0 2 -1 2 0 1 -19 
2 -1 2 2 2 0 1 -1 2 0 2 3 1 0 2 0 
2 7 2 0 1 1 2 -1 2 0 1 2 2 1 2 1 
2 2 1 -1 2 0 2 -1 2 0 1 1 2 0 2 0 
2 -13 1 3 2 -3 2 -1 2 0 1 -1 2 0 2 2 
2 -1 2 0 1 0 2 5 2 -1 2 -8 1 1 2 2 
2 -3 2 -2 2 0 1 0 2 -1 2 -52 2 3 2 -12 
2 1 1 1 2 -2 2 0 2 1 2 -1 2 2 1 1 
2 2 2 1 2 -7 2 0 2 -5 2 -8 1 -7 2 0 
2 37 2 0 2 1 2 0 2 7 2 -4 1 0 2 0 
2 1 2 4 2 -11 2 17 2 0 2 -1 2 0 2 -7 
1 -1 2 1 2 -4 2 0 2 1 2 -1 2 -2 2 -1 
2 41 2 1 2 1 2 0 2 1 2 -9 2 -20 2 4 
2 -2 2 2 2 0 2 6 2 0 2 -1 2 5 2 -4 
2 0 2 -3 2 17 2 0 2 1 2 0 2 -2 2 2 
2 -12 2 0 2 0 2 11 2 2 2 5 2 -1 2 0 
2 0 2 -1 2 -2 2 0 2 -1 2 -1 3 0 2 20 
2 1 2 1 2 9 2 2 2 -24 2 0 2 1 2 0 
3 13 2 -27 2 3 2 23 2 -1 2 26 2 0 2 2 
3 -3 2 0 2 0 2 12 2 -1 2 0 3 -1 2 -1 
2 1 2 0 2 0 3 -6 2 -1 2 1 2 -1 2 1 
3 0 2 -2 2 0 2 18 3 1 2 0 2 0 2 -9 
3 -1 2 3 2 0 2 -1 3 0 2 0 2 0 2 5 
3 -1 2 0 2 2 3 0 2 2 2 0 3 -31 2 0 
2 0 3 8 2 2 2 0 3 -1 2 -1 2 0 3 0 
2 16 2 -1 3 -1 2 33 2 -24 3 -2 2 -15 3 -6 
2 -3 2 0 3 -3 2 -2 3 0 2 34 3 -1 2 14 
3 -14 2 0 2 0 3 0 2 0 3 0 2 3 3 -2 
2 -1 3 0 2 1 3 0 2 -3 3 3 2 25 3 0 
2 -7 3 1 2 23 3 0 3 -9 2 -16 3 10 2 0 
3 0 2 0 3 -1 3 0 2 1 3 0 2 2 3 26 
3 2 2 -1 3 18 3 0 2 1 3 -40 3 0 2 1 
3 -41 3 -1 2 0 3 -2 3 0 2 27 3 0 3 0 
2 -16 3 7 3 0 3 0 2 0 3 1 3 1 3 2 
3 1 2 -1 3 -3 3 -2 3 8 3 1 2 0 3 0 
3 3 3 0 3 22 8869 3975 300 MP stroke
3 0 2 1 3 2 3 0 3 4 3 0 3 0 3 -35 
3 0 3 -1 2 3 3 1 3 0 3 0 3 1 3 0 
3 -19 3 0 3 -17 3 1 3 -13 3 5 3 3 3 -1 
3 -4 3 -1 3 28 3 -1 3 6 4 -1 3 1 3 1 
3 -24 3 -1 3 22 3 -1 3 1 3 -26 4 0 3 1 
3 -1 3 0 3 35 4 0 3 1 3 -1 3 14 3 5 
4 -13 3 -1 3 2 3 -34 4 -1 3 5 3 2 4 1 
3 53 3 -1 4 -3 3 -1 3 0 4 -1 3 0 3 2 
4 2 3 0 4 -1 3 0 3 -9 4 -7 3 -1 4 0 
3 0 4 0 3 22 4 -10 3 0 4 0 3 -3 4 6 
4 5 3 0 4 2 3 3 4 0 3 1 4 20 4 9 
3 6 4 0 4 -3 3 -1 4 0 4 0 4 32 3 -4 
4 -28 4 3 4 -1 3 21 4 1 4 -2 4 -2 4 0 
4 -2 3 37 4 -9 4 -1 4 2 4 -1 4 1 4 0 
4 0 4 7 4 9 4 -21 4 -1 4 8 4 0 4 0 
4 0 4 30 4 0 4 0 4 2 5 0 4 2 4 10 
4 0 4 0 5 3 4 0 4 15 4 -11 5 -23 4 1 
4 0 5 1 4 -6 4 -2 5 -12 4 2 4 -9 5 1 
4 -2 5 -2 4 0 5 17 4 -6 5 -1 4 -1 5 28 
5 -2 4 -4 5 1 4 1 5 1 5 1 4 -34 5 0 
5 2 5 46 4 -3 5 10 5 -14 5 0 5 0 5 1 
5 -1 5 15 5 6 4 36 5 -1 5 39 6 -6 5 -1 
5 1 5 7 5 30 5 12 5 -18 5 8 6 0 5 -3 
5 1 5 -1 6 1 5 16 5 -19 6 -1 5 1 6 -3 
5 -5 6 7 5 -1 6 0 5 1 6 -1 6 1 5 0 
6 0 6 1 5 0 6 1 6 0 6 1 6 1 6 -4 
5 3 6 -1 6 24 6 0 6 -1 7 0 6 0 6 -1 
6 -18 6 -1 6 0 7 0 6 0 6 5 7 0 6 -41 
7 7 6 1 7 49 6 0 7 0 6 1 7 2 7 0 
7 -1 6 -56 7 0 7 69 7 -3 7 -1 7 -3 7 3 
7 4 7 0 7 -1 8 -1 7 0 7 2 8 5 7 1 
8 -1 7 5 8 38 7 1 8 -6 8 -1 7 -1 8 1 
8 1 8 1 8 -1 8 0 8 0 8 -2 9 1 8 1 
8 -1 9 -3 8 72 8 0 9 -9 9 -1 8 -17 9 -3 
9 -22 9 4 9 -14 9 1 9 2 9 -2 10 29 9 4 
9 1 10 0 10 2 9 13 10 -1 10 15 10 16 10 -35 
10 -2 10 2 10 -12 11 4 10 8 11 1 10 -1 11 -1 
11 -7 11 5 11 0 7309 3590 300 MP stroke
11 3 11 -1 12 -2 11 0 12 -1 12 -15 12 -1 12 -29 
12 -1 12 26 12 0 13 5 13 13 12 -2 13 -18 13 1 
14 0 13 22 14 -33 13 0 14 49 14 0 15 9 14 0 
15 28 14 5 15 0 15 0 16 10 15 0 16 -1 16 -3 
17 8 16 0 17 -1 17 1 17 -1 17 1 18 -1 18 -5 
19 -9 18 -3 19 88 19 -59 20 0 20 15 20 158 21 -1 
21 -8 21 -25 22 6 22 -93 23 -2 23 0 24 -1 24 2 
25 4 25 -1 26 1 26 81 27 63 27 0 29 -1 29 2 
30 0 30 -6 31 0 33 13 33 10 34 3 35 0 37 0 
37 57 39 -3 40 1 42 -13 43 -8 45 22 47 -40 49 77 
51 3 53 29 56 1 59 171 62 1 65 -1 70 2 74 -8 
79 -3 85 -12 91 -7 100 -4 109 0 121 9 135 3 153 -7 
176 212 209 28 256 5 330 1044 464 -11 794 -172 1999 1911 103 MP stroke
/c9 { 0.000000 0.000000 1.000000 sr} bdef
c9
2 17 1 30 1 -30 1 1 1 -3 1 9 2 -13 1 9 
1 -1 1 -3 1 8 1 4 1 -1 2 -5 1 -2 1 1 
1 6 1 1 1 0 2 4 1 -3 1 -10 1 -1 1 -2 
2 6 1 -1 1 -1 1 4 1 5 1 10 2 -1 1 4 
1 1 1 -1 1 0 2 -9 1 7 1 -2 1 10 1 11 
1 7 2 16 1 -1 1 5 1 0 1 2 2 5 1 0 
1 -3 1 -3 1 10 2 1 1 -1 1 8 1 6 2 -2 
1 9 1 -15 1 1 1 1 2 75 1 -1 1 3 1 -4 
2 -17 1 -26 1 4 1 -3 1 8 2 -1 1 3 1 1 
1 0 2 -1 1 17 1 0 1 -9 2 4 1 -1 1 16 
1 -10 2 0 1 -27 1 2 1 -1 2 -2 1 -10 1 2 
1 21 2 -3 1 5 1 6 1 -2 2 7 1 -4 1 1 
1 -1 2 -1 1 -2 1 -10 1 4 2 -5 1 -7 1 -25 
2 -3 1 -12 1 -4 1 3 2 2 1 -5 1 3 2 0 
1 1 1 25 1 -14 2 -4 1 -1 1 3 2 1 1 -9 
1 1 2 -27 1 -1 1 -6 2 13 1 -14 1 -14 1 -1 
2 -11 1 -5 1 43 2 3 1 13 1 6 2 -44 1 -2 
1 31 2 -37 1 18 1 3 2 14 1 1 1 5 2 -2 
1 -6 1 -7 2 -10 1 -4 1 5 2 -1 1 -3 1 0 
2 0 1 10 1 -8 2 -7 1 44 2 -27 1 3 1 -21 
2 -4 1 74 1 -22 2 -2 1 -10 1 -14 2 -8 1 16 
2 2 1 -6 1 -11 2 1 1 -1 2 2 1 1 1 10 
2 -3 1 -6 1 -4 2 7 1 12 2 21 1 6 1 -1 
2 -3 1 8 2 0 1 -9 2 4 1 4 1 -1 2 26 
1 -1 2 -4 1 -16 1 0 2 0 1 -1 2 -1 1 34 
2 -40 1 -6 1 -17 2 -7 1 -14 2 -8 1 1 2 -2 
1 0 2 -2 1 6 1 1 2 -7 1 0 2 -8 1 12 
2 3 1 -3 2 -9 1 1 2 2 1 -2 2 0 1 -4 
2 5 1 10 2 21 1 -5 1 -3 2 7 1 -41 2 -9 
1 -5 2 -9 1 0 2 9 1 -7 2 8 1 6 2 -9 
1 -7 2 0 1 -9 2 3 2 6 1 -12 2 3 1 12 
2 -10 1 12 2 3 1 2 2 11 1 -7 2 -1 1 0 
2 1 1 -20 2 -2 2 -1 1 -3 2 -7 1 6 2 8 
1 10 2 -2 1 -3 2 -5 2 -1 1 9 2 35 1 -35 
2 -1 1 27 2 -28 2 -2 1 -13 2 -1 1 -9 2 -3 
1 13 2 -3 2 9 1 -2 2 5 1 -15 2 -8 2 -2 
1 5 2 -8 2 -5 1 -20 2 -4 1 43 2 12 2 -11 
1 8 2 1 2 -4 9506 2465 300 MP stroke
1 28 2 9 1 19 2 -11 2 0 1 -2 2 3 2 -2 
1 1 2 -9 2 2 1 -1 2 -2 2 4 1 0 2 -5 
2 -7 1 -3 2 -8 2 -3 1 -2 2 5 2 -2 1 -8 
2 -3 2 1 2 -21 1 -4 2 1 2 -7 1 14 2 9 
2 7 2 1 1 1 2 -13 2 0 1 25 2 1 2 29 
2 1 1 1 2 2 2 10 2 -2 1 10 2 -7 2 5 
2 5 1 8 2 0 2 -6 2 3 1 3 2 0 2 15 
2 0 2 10 1 5 2 16 2 3 2 -8 1 -17 2 3 
2 2 2 8 2 -12 1 -7 2 -2 2 1 2 5 2 -6 
2 0 1 -16 2 3 2 -22 2 -1 2 1 2 -1 1 -54 
2 -8 2 -11 2 6 2 -1 2 2 2 -5 1 -24 2 -2 
2 7 2 -17 2 -5 2 4 2 -15 2 16 1 -5 2 -32 
2 -5 2 0 2 -1 2 -2 2 3 2 -3 2 19 2 -16 
1 -18 2 -6 2 26 2 26 2 -43 2 0 2 0 2 5 
2 35 2 -38 2 -4 2 3 2 6 2 6 2 2 2 0 
2 -2 2 13 2 27 2 9 2 -3 2 1 2 22 2 5 
2 18 2 -10 2 -9 2 4 2 5 2 -41 2 -3 2 35 
2 14 2 1 2 4 2 2 2 -11 2 -6 2 8 2 -7 
2 -4 2 2 2 20 2 -7 2 -3 2 -3 3 -7 2 1 
2 -12 2 6 2 1 2 -30 2 5 2 -33 2 1 2 0 
3 6 2 -23 2 7 2 -8 2 13 2 -6 2 -3 2 -7 
3 1 2 -2 2 -10 2 -35 2 2 2 1 3 2 2 11 
2 -4 2 -6 2 -26 3 3 2 -2 2 13 2 33 2 -24 
3 -1 2 -19 2 3 2 0 3 -4 2 30 2 20 2 2 
3 1 2 14 2 12 2 -3 3 0 2 23 2 -10 2 -3 
3 10 2 -2 2 4 3 11 2 7 2 -4 3 -9 2 1 
2 11 3 13 2 -5 2 -1 3 -3 2 -9 2 6 3 -2 
2 16 2 -2 3 -2 2 -3 2 11 3 12 2 -1 3 -15 
2 40 2 1 3 15 2 4 3 -4 2 1 3 14 2 -6 
3 4 2 3 2 10 3 -4 2 -4 3 -1 2 2 3 40 
2 0 3 8 2 -4 3 7 2 2 3 -19 2 -1 3 -27 
2 2 3 13 2 -9 3 -2 3 2 2 -2 3 11 2 7 
3 14 2 -13 3 -2 3 2 2 11 3 4 2 -1 3 0 
3 6 2 13 3 -6 3 -16 2 0 3 18 3 3 2 -5 
3 -5 3 7 2 6 3 0 3 19 2 -2 3 5 3 5 
2 -3 3 7 3 2 3 -10 2 -12 3 -36 3 3 3 10 
3 8 2 26 3 2 3 4 3 7 3 0 2 -6 3 -4 
3 -5 3 2 3 -1 8869 2336 300 MP stroke
3 -4 2 -7 3 -2 3 -4 3 -2 3 4 3 0 3 -1 
3 -4 3 12 2 8 3 -15 3 -21 3 14 3 -6 3 15 
3 -2 3 -2 3 -12 3 20 3 -2 3 -20 3 -2 3 1 
3 7 3 -7 3 -14 3 -12 3 4 4 -17 3 -5 3 17 
3 15 3 1 3 2 3 1 3 0 3 8 4 5 3 -2 
3 -14 3 6 3 1 4 -17 3 1 3 -3 3 17 3 9 
4 5 3 -19 3 0 3 7 4 1 3 18 3 -12 4 2 
3 -2 3 6 4 7 3 -5 3 -9 4 3 3 -12 3 -14 
4 17 3 1 4 -6 3 13 3 2 4 5 3 18 4 2 
3 4 4 -1 3 -9 4 -1 3 -1 4 10 3 -8 4 9 
4 -1 3 11 4 -7 3 -3 4 15 3 -1 4 -9 4 5 
3 -10 4 3 4 4 3 37 4 -2 4 0 4 -13 3 -7 
4 -9 4 37 4 -2 3 26 4 3 4 -4 4 -3 4 -5 
4 7 3 -3 4 1 4 0 4 11 4 4 4 11 4 -12 
4 0 4 -2 4 -6 4 -5 4 11 4 8 4 20 4 -17 
4 13 4 -15 4 9 4 -1 4 1 5 -14 4 -18 4 -2 
4 8 4 -6 5 16 4 2 4 -2 4 34 5 -3 4 -8 
4 -22 5 -1 4 1 4 -9 5 -5 4 9 4 7 5 -2 
4 3 5 41 4 4 5 3 4 0 5 14 4 1 5 6 
5 23 4 -4 5 -16 4 -2 5 -7 5 -5 4 23 5 -6 
5 9 5 -2 4 13 5 -7 5 7 5 -7 5 -11 5 -17 
5 -4 5 -5 5 42 4 -41 5 -11 5 5 6 -11 5 21 
5 -7 5 -6 5 -12 5 3 5 11 5 2 6 -4 5 37 
5 -3 5 8 6 12 5 52 5 -8 6 8 5 -8 6 8 
5 2 6 -3 5 18 6 0 5 -21 6 -35 6 -13 5 -12 
6 14 6 9 5 8 6 -10 6 15 6 -1 6 -1 6 32 
5 1 6 -19 6 0 6 -43 6 57 7 -8 6 -1 6 -27 
6 -9 6 -13 6 26 7 15 6 46 6 -16 7 -13 6 16 
7 -1 6 0 7 -5 6 -18 7 -6 6 56 7 29 7 -47 
7 -4 6 -14 7 17 7 -66 7 18 7 -1 7 41 7 -26 
7 -20 7 19 7 -73 8 -7 7 7 7 25 8 -17 7 25 
8 4 7 34 8 15 7 61 8 60 8 -3 7 12 8 7 
8 1 8 1 8 -2 8 -116 8 57 8 -23 9 -7 8 -32 
8 -2 9 1 8 -53 8 89 9 -11 9 8 8 -48 9 -3 
9 35 9 -7 9 -4 9 9 9 -39 9 25 10 24 9 -32 
9 34 10 124 10 2 9 9 10 -48 10 -40 10 10 10 -11 
10 8 10 -64 10 39 11 -63 10 -17 11 -51 10 71 11 35 
11 -33 11 20 11 58 7309 2007 300 MP stroke
11 114 11 -171 12 7 11 -33 12 59 12 -141 12 157 12 118 
12 -11 12 76 12 -16 13 -21 13 108 12 85 13 79 13 -7 
14 -12 13 -17 14 26 13 -30 14 10 14 -33 15 -127 14 -19 
15 20 14 49 15 11 15 -10 16 -7 15 4 16 -14 16 2 
17 15 16 48 17 4 17 -3 17 0 17 -35 18 -42 18 -20 
19 -91 18 84 19 -7 19 25 20 15 20 -12 20 -134 21 -34 
21 39 21 -7 22 46 22 -35 23 -16 23 80 24 -105 24 103 
25 -117 25 67 26 39 26 12 27 -34 27 8 29 -19 29 -101 
30 132 30 118 31 -214 33 -27 33 72 34 78 35 -43 37 -12 
37 -54 39 -14 40 103 42 148 43 -46 45 24 47 35 49 139 
51 -21 53 -253 56 20 59 143 62 -33 65 26 70 -10 74 458 
79 -335 85 -80 91 -65 100 112 109 -149 121 -85 135 227 153 -38 
176 -23 209 107 256 250 330 -346 464 -34 794 -243 1999 1911 103 MP stroke
gr

c9
0 sg
%%IncludeResource: font Helvetica
/Helvetica /ISOLatin1Encoding 240 FMSR

3362  403 mt 
(Error in the average reward \(lenght of task =3600\)) s
4782 5631 mt 
(Number of Tasks) s
1407 2949 mt  -90 rotate
(Error) s
90 rotate
%%IncludeResource: font Helvetica
/Helvetica /ISOLatin1Encoding 120 FMSR

1982 4736 mt 
( ) s
9898  711 mt 
( ) s
1 sg
0 612 2454 0 0 -612 7401 1341 4 MP
PP
-2454 0 0 612 2454 0 0 -612 7401 1341 5 MP stroke
4 w
DO
SO
6 w
0 sg
7401 1341 mt 9855 1341 L
7401  729 mt 9855  729 L
7401 1341 mt 7401  729 L
9855 1341 mt 9855  729 L
7401 1341 mt 9855 1341 L
7401 1341 mt 7401  729 L
7401 1341 mt 9855 1341 L
7401  729 mt 9855  729 L
7401 1341 mt 7401  729 L
9855 1341 mt 9855  729 L
%%IncludeResource: font Helvetica
/Helvetica /ISOLatin1Encoding 240 FMSR

7863  977 mt 
(All samples) s
gs 7401 729 2455 613 rc
c8
355 0 7471 891 2 MP stroke
gr

c8
0 sg
7863 1264 mt 
(First 3*K samples ) s
gs 7401 729 2455 613 rc
c9
355 0 7471 1178 2 MP stroke
gr

c9

end %%Color Dict

eplot
%%EndObject

epage
end

showpage

%%Trailer
%%EOF
