%!PS-Adobe-3.0 EPSF-3.0
%%Creator: MATLAB, The MathWorks, Inc. Version 7.14.0.739 (R2012a). Operating System: Darwin 11.4.2 Darwin Kernel Version 11.4.2: Thu Aug 23 16:25:48 PDT 2012; root:xnu-1699.32.7~1/RELEASE_X86_64 x86_64.
%%Title: /Users/mazar/Dropbox/MOM-MAB/muErrMay21.eps
%%CreationDate: 05/21/2013  16:55:49
%%DocumentNeededFonts: Helvetica
%%DocumentProcessColors: Cyan Magenta Yellow Black
%%LanguageLevel: 2
%%Pages: 1
%%BoundingBox:  -101   152   715   640
%%EndComments

%%BeginProlog
% MathWorks dictionary
/MathWorks 160 dict begin
% definition operators
/bdef {bind def} bind def
/ldef {load def} bind def
/xdef {exch def} bdef
/xstore {exch store} bdef
% operator abbreviations
/c  /clip ldef
/cc /concat ldef
/cp /closepath ldef
/gr /grestore ldef
/gs /gsave ldef
/mt /moveto ldef
/np /newpath ldef
/cm /currentmatrix ldef
/sm /setmatrix ldef
/rm /rmoveto ldef
/rl /rlineto ldef
/s {show newpath} bdef
/sc {setcmykcolor} bdef
/sr /setrgbcolor ldef
/sg /setgray ldef
/w /setlinewidth ldef
/j /setlinejoin ldef
/cap /setlinecap ldef
/rc {rectclip} bdef
/rf {rectfill} bdef
% page state control
/pgsv () def
/bpage {/pgsv save def} bdef
/epage {pgsv restore} bdef
/bplot /gsave ldef
/eplot {stroke grestore} bdef
% orientation switch
/portraitMode 0 def /landscapeMode 1 def /rotateMode 2 def
% coordinate system mappings
/dpi2point 0 def
% font control
/FontSize 0 def
/FMS {/FontSize xstore findfont [FontSize 0 0 FontSize neg 0 0]
  makefont setfont} bdef
/reencode {exch dup where {pop load} {pop StandardEncoding} ifelse
  exch dup 3 1 roll findfont dup length dict begin
  { 1 index /FID ne {def}{pop pop} ifelse } forall
  /Encoding exch def currentdict end definefont pop} bdef
/isroman {findfont /CharStrings get /Agrave known} bdef
/FMSR {3 1 roll 1 index dup isroman {reencode} {pop pop} ifelse
  exch FMS} bdef
/csm {1 dpi2point div -1 dpi2point div scale neg translate
 dup landscapeMode eq {pop -90 rotate}
  {rotateMode eq {90 rotate} if} ifelse} bdef
% line types: solid, dotted, dashed, dotdash
/SO { [] 0 setdash } bdef
/DO { [.5 dpi2point mul 4 dpi2point mul] 0 setdash } bdef
/DA { [6 dpi2point mul] 0 setdash } bdef
/DD { [.5 dpi2point mul 4 dpi2point mul 6 dpi2point mul 4
  dpi2point mul] 0 setdash } bdef
% macros for lines and objects
/L {lineto stroke} bdef
/MP {3 1 roll moveto 1 sub {rlineto} repeat} bdef
/AP {{rlineto} repeat} bdef
/PDlw -1 def
/W {/PDlw currentlinewidth def setlinewidth} def
/PP {closepath eofill} bdef
/DP {closepath stroke} bdef
/MR {4 -2 roll moveto dup  0 exch rlineto exch 0 rlineto
  neg 0 exch rlineto closepath} bdef
/FR {MR stroke} bdef
/PR {MR fill} bdef
/L1i {{currentfile picstr readhexstring pop} image} bdef
/tMatrix matrix def
/MakeOval {newpath tMatrix currentmatrix pop translate scale
0 0 1 0 360 arc tMatrix setmatrix} bdef
/FO {MakeOval stroke} bdef
/PO {MakeOval fill} bdef
/PD {currentlinewidth 2 div 0 360 arc fill
   PDlw -1 eq not {PDlw w /PDlw -1 def} if} def
/FA {newpath tMatrix currentmatrix pop translate scale
  0 0 1 5 -2 roll arc tMatrix setmatrix stroke} bdef
/PA {newpath tMatrix currentmatrix pop	translate 0 0 moveto scale
  0 0 1 5 -2 roll arc closepath tMatrix setmatrix fill} bdef
/FAn {newpath tMatrix currentmatrix pop translate scale
  0 0 1 5 -2 roll arcn tMatrix setmatrix stroke} bdef
/PAn {newpath tMatrix currentmatrix pop translate 0 0 moveto scale
  0 0 1 5 -2 roll arcn closepath tMatrix setmatrix fill} bdef
/vradius 0 def /hradius 0 def /lry 0 def
/lrx 0 def /uly 0 def /ulx 0 def /rad 0 def
/MRR {/vradius xdef /hradius xdef /lry xdef /lrx xdef /uly xdef
  /ulx xdef newpath tMatrix currentmatrix pop ulx hradius add uly
  vradius add translate hradius vradius scale 0 0 1 180 270 arc 
  tMatrix setmatrix lrx hradius sub uly vradius add translate
  hradius vradius scale 0 0 1 270 360 arc tMatrix setmatrix
  lrx hradius sub lry vradius sub translate hradius vradius scale
  0 0 1 0 90 arc tMatrix setmatrix ulx hradius add lry vradius sub
  translate hradius vradius scale 0 0 1 90 180 arc tMatrix setmatrix
  closepath} bdef
/FRR {MRR stroke } bdef
/PRR {MRR fill } bdef
/MlrRR {/lry xdef /lrx xdef /uly xdef /ulx xdef /rad lry uly sub 2 div def
  newpath tMatrix currentmatrix pop ulx rad add uly rad add translate
  rad rad scale 0 0 1 90 270 arc tMatrix setmatrix lrx rad sub lry rad
  sub translate rad rad scale 0 0 1 270 90 arc tMatrix setmatrix
  closepath} bdef
/FlrRR {MlrRR stroke } bdef
/PlrRR {MlrRR fill } bdef
/MtbRR {/lry xdef /lrx xdef /uly xdef /ulx xdef /rad lrx ulx sub 2 div def
  newpath tMatrix currentmatrix pop ulx rad add uly rad add translate
  rad rad scale 0 0 1 180 360 arc tMatrix setmatrix lrx rad sub lry rad
  sub translate rad rad scale 0 0 1 0 180 arc tMatrix setmatrix
  closepath} bdef
/FtbRR {MtbRR stroke } bdef
/PtbRR {MtbRR fill } bdef
/stri 6 array def /dtri 6 array def
/smat 6 array def /dmat 6 array def
/tmat1 6 array def /tmat2 6 array def /dif 3 array def
/asub {/ind2 exch def /ind1 exch def dup dup
  ind1 get exch ind2 get sub exch } bdef
/tri_to_matrix {
  2 0 asub 3 1 asub 4 0 asub 5 1 asub
  dup 0 get exch 1 get 7 -1 roll astore } bdef
/compute_transform {
  dmat dtri tri_to_matrix tmat1 invertmatrix 
  smat stri tri_to_matrix tmat2 concatmatrix } bdef
/ds {stri astore pop} bdef
/dt {dtri astore pop} bdef
/db {2 copy /cols xdef /rows xdef mul dup 3 mul string
  currentfile 
  3 index 0 eq {/ASCIIHexDecode filter}
  {/ASCII85Decode filter 3 index 2 eq {/RunLengthDecode filter} if }
  ifelse exch readstring pop
  dup 0 3 index getinterval /rbmap xdef
  dup 2 index dup getinterval /gbmap xdef
  1 index dup 2 mul exch getinterval /bbmap xdef pop pop}bdef
/it {gs np dtri aload pop moveto lineto lineto cp c
  cols rows 8 compute_transform 
  rbmap gbmap bbmap true 3 colorimage gr}bdef
/il {newpath moveto lineto stroke}bdef
currentdict end def
%%EndProlog

%%BeginSetup
MathWorks begin

0 cap

end
%%EndSetup

%%Page: 1 1
%%BeginPageSetup
%%PageBoundingBox:  -101   152   715   640
MathWorks begin
bpage
%%EndPageSetup

%%BeginObject: obj1
bplot

/dpi2point 12 def
portraitMode -1212 7680 csm

    0     0  9795  5853 rc
85 dict begin %Colortable dictionary
/c0 { 0.000000 0.000000 0.000000 sr} bdef
/c1 { 1.000000 1.000000 1.000000 sr} bdef
/c2 { 0.900000 0.000000 0.000000 sr} bdef
/c3 { 0.000000 0.820000 0.000000 sr} bdef
/c4 { 0.000000 0.000000 0.800000 sr} bdef
/c5 { 0.910000 0.820000 0.320000 sr} bdef
/c6 { 1.000000 0.260000 0.820000 sr} bdef
/c7 { 0.000000 0.820000 0.820000 sr} bdef
c0
1 j
1 sg
   0    0 9796 5854 rf
6 w
0 4770 7591 0 0 -4770 1273 5209 4 MP
PP
-7591 0 0 4770 7591 0 0 -4770 1273 5209 5 MP stroke
4 w
DO
SO
6 w
0 sg
1273 5209 mt 8864 5209 L
1273  439 mt 8864  439 L
1273 5209 mt 1273  439 L
8864 5209 mt 8864  439 L
1273 5209 mt 8864 5209 L
1273 5209 mt 1273  439 L
1273 5209 mt 1273 5171 L
1273  439 mt 1273  476 L
1273 5209 mt 1273 5133 L
1273  439 mt 1273  514 L
%%IncludeResource: font Helvetica
/Helvetica /ISOLatin1Encoding 240 FMSR

1096 5539 mt 
(10) s
%%IncludeResource: font Helvetica
/Helvetica /ISOLatin1Encoding 160 FMSR

1362 5391 mt 
(1) s
2034 5209 mt 2034 5171 L
2034  439 mt 2034  476 L
2480 5209 mt 2480 5171 L
2480  439 mt 2480  476 L
2796 5209 mt 2796 5171 L
2796  439 mt 2796  476 L
3041 5209 mt 3041 5171 L
3041  439 mt 3041  476 L
3241 5209 mt 3241 5171 L
3241  439 mt 3241  476 L
3411 5209 mt 3411 5171 L
3411  439 mt 3411  476 L
3558 5209 mt 3558 5171 L
3558  439 mt 3558  476 L
3687 5209 mt 3687 5171 L
3687  439 mt 3687  476 L
3803 5209 mt 3803 5171 L
3803  439 mt 3803  476 L
3803 5209 mt 3803 5133 L
3803  439 mt 3803  514 L
%%IncludeResource: font Helvetica
/Helvetica /ISOLatin1Encoding 240 FMSR

3626 5539 mt 
(10) s
%%IncludeResource: font Helvetica
/Helvetica /ISOLatin1Encoding 160 FMSR

3892 5391 mt 
(2) s
4565 5209 mt 4565 5171 L
4565  439 mt 4565  476 L
5010 5209 mt 5010 5171 L
5010  439 mt 5010  476 L
5326 5209 mt 5326 5171 L
5326  439 mt 5326  476 L
5571 5209 mt 5571 5171 L
5571  439 mt 5571  476 L
5772 5209 mt 5772 5171 L
5772  439 mt 5772  476 L
5941 5209 mt 5941 5171 L
5941  439 mt 5941  476 L
6088 5209 mt 6088 5171 L
6088  439 mt 6088  476 L
6217 5209 mt 6217 5171 L
6217  439 mt 6217  476 L
6333 5209 mt 6333 5171 L
6333  439 mt 6333  476 L
6333 5209 mt 6333 5133 L
6333  439 mt 6333  514 L
%%IncludeResource: font Helvetica
/Helvetica /ISOLatin1Encoding 240 FMSR

6156 5539 mt 
(10) s
%%IncludeResource: font Helvetica
/Helvetica /ISOLatin1Encoding 160 FMSR

6422 5391 mt 
(3) s
7095 5209 mt 7095 5171 L
7095  439 mt 7095  476 L
7540 5209 mt 7540 5171 L
7540  439 mt 7540  476 L
7857 5209 mt 7857 5171 L
7857  439 mt 7857  476 L
8102 5209 mt 8102 5171 L
8102  439 mt 8102  476 L
8302 5209 mt 8302 5171 L
8302  439 mt 8302  476 L
8472 5209 mt 8472 5171 L
8472  439 mt 8472  476 L
8618 5209 mt 8618 5171 L
8618  439 mt 8618  476 L
8748 5209 mt 8748 5171 L
8748  439 mt 8748  476 L
8864 5209 mt 8864 5171 L
8864  439 mt 8864  476 L
8864 5209 mt 8864 5133 L
8864  439 mt 8864  514 L
%%IncludeResource: font Helvetica
/Helvetica /ISOLatin1Encoding 240 FMSR

8687 5539 mt 
(10) s
%%IncludeResource: font Helvetica
/Helvetica /ISOLatin1Encoding 160 FMSR

8953 5391 mt 
(4) s
1273 5209 mt 1348 5209 L
8864 5209 mt 8788 5209 L
%%IncludeResource: font Helvetica
/Helvetica /ISOLatin1Encoding 240 FMSR

1105 5298 mt 
(0) s
1273 4679 mt 1348 4679 L
8864 4679 mt 8788 4679 L
 905 4768 mt 
(0.2) s
1273 4149 mt 1348 4149 L
8864 4149 mt 8788 4149 L
 905 4238 mt 
(0.4) s
1273 3619 mt 1348 3619 L
8864 3619 mt 8788 3619 L
 905 3708 mt 
(0.6) s
1273 3089 mt 1348 3089 L
8864 3089 mt 8788 3089 L
 905 3178 mt 
(0.8) s
1273 2559 mt 1348 2559 L
8864 2559 mt 8788 2559 L
1105 2648 mt 
(1) s
1273 2028 mt 1348 2028 L
8864 2028 mt 8788 2028 L
 905 2117 mt 
(1.2) s
1273 1499 mt 1348 1499 L
8864 1499 mt 8788 1499 L
 905 1588 mt 
(1.4) s
1273  969 mt 1348  969 L
8864  969 mt 8788  969 L
 905 1058 mt 
(1.6) s
1273  439 mt 1348  439 L
8864  439 mt 8788  439 L
 905  528 mt 
(1.8) s
1273 5209 mt 8864 5209 L
1273  439 mt 8864  439 L
1273 5209 mt 1273  439 L
8864 5209 mt 8864  439 L
gs 1273 439 7592 4771 rc
/c8 { 0.000000 0.000000 1.000000 sr} bdef
c8
1085 31 1084 157 1085 182 1084 1452 1085 -172 1084 1672 1084 1231 1273 510 8 MP stroke
gr

c8
0 sg
3398  248 mt 
(Mean Error \(4 Models , 6 arms\)) s
4234 5770 mt 
(Number of Taks) s
 796 3092 mt  -90 rotate
(Error) s
90 rotate

end %%Color Dict

eplot
%%EndObject

epage
end

showpage

%%Trailer
%%EOF
