%!PS-Adobe-3.0 EPSF-3.0
%%Creator: MATLAB, The MathWorks, Inc. Version 7.14.0.739 (R2012a). Operating System: Darwin 11.4.2 Darwin Kernel Version 11.4.2: Thu Aug 23 16:25:48 PDT 2012; root:xnu-1699.32.7~1/RELEASE_X86_64 x86_64.
%%Title: /Users/mazar/Dropbox/tUCBCodes/transfer_bandit/tUCBReg.eps
%%CreationDate: 08/22/2013  22:48:39
%%DocumentNeededFonts: Helvetica
%%DocumentProcessColors: Cyan Magenta Yellow Black
%%LanguageLevel: 2
%%Pages: 1
%%BoundingBox:    50   203   560   587
%%EndComments

%%BeginProlog
% MathWorks dictionary
/MathWorks 160 dict begin
% definition operators
/bdef {bind def} bind def
/ldef {load def} bind def
/xdef {exch def} bdef
/xstore {exch store} bdef
% operator abbreviations
/c  /clip ldef
/cc /concat ldef
/cp /closepath ldef
/gr /grestore ldef
/gs /gsave ldef
/mt /moveto ldef
/np /newpath ldef
/cm /currentmatrix ldef
/sm /setmatrix ldef
/rm /rmoveto ldef
/rl /rlineto ldef
/s {show newpath} bdef
/sc {setcmykcolor} bdef
/sr /setrgbcolor ldef
/sg /setgray ldef
/w /setlinewidth ldef
/j /setlinejoin ldef
/cap /setlinecap ldef
/rc {rectclip} bdef
/rf {rectfill} bdef
% page state control
/pgsv () def
/bpage {/pgsv save def} bdef
/epage {pgsv restore} bdef
/bplot /gsave ldef
/eplot {stroke grestore} bdef
% orientation switch
/portraitMode 0 def /landscapeMode 1 def /rotateMode 2 def
% coordinate system mappings
/dpi2point 0 def
% font control
/FontSize 0 def
/FMS {/FontSize xstore findfont [FontSize 0 0 FontSize neg 0 0]
  makefont setfont} bdef
/reencode {exch dup where {pop load} {pop StandardEncoding} ifelse
  exch dup 3 1 roll findfont dup length dict begin
  { 1 index /FID ne {def}{pop pop} ifelse } forall
  /Encoding exch def currentdict end definefont pop} bdef
/isroman {findfont /CharStrings get /Agrave known} bdef
/FMSR {3 1 roll 1 index dup isroman {reencode} {pop pop} ifelse
  exch FMS} bdef
/csm {1 dpi2point div -1 dpi2point div scale neg translate
 dup landscapeMode eq {pop -90 rotate}
  {rotateMode eq {90 rotate} if} ifelse} bdef
% line types: solid, dotted, dashed, dotdash
/SO { [] 0 setdash } bdef
/DO { [.5 dpi2point mul 4 dpi2point mul] 0 setdash } bdef
/DA { [6 dpi2point mul] 0 setdash } bdef
/DD { [.5 dpi2point mul 4 dpi2point mul 6 dpi2point mul 4
  dpi2point mul] 0 setdash } bdef
% macros for lines and objects
/L {lineto stroke} bdef
/MP {3 1 roll moveto 1 sub {rlineto} repeat} bdef
/AP {{rlineto} repeat} bdef
/PDlw -1 def
/W {/PDlw currentlinewidth def setlinewidth} def
/PP {closepath eofill} bdef
/DP {closepath stroke} bdef
/MR {4 -2 roll moveto dup  0 exch rlineto exch 0 rlineto
  neg 0 exch rlineto closepath} bdef
/FR {MR stroke} bdef
/PR {MR fill} bdef
/L1i {{currentfile picstr readhexstring pop} image} bdef
/tMatrix matrix def
/MakeOval {newpath tMatrix currentmatrix pop translate scale
0 0 1 0 360 arc tMatrix setmatrix} bdef
/FO {MakeOval stroke} bdef
/PO {MakeOval fill} bdef
/PD {currentlinewidth 2 div 0 360 arc fill
   PDlw -1 eq not {PDlw w /PDlw -1 def} if} def
/FA {newpath tMatrix currentmatrix pop translate scale
  0 0 1 5 -2 roll arc tMatrix setmatrix stroke} bdef
/PA {newpath tMatrix currentmatrix pop	translate 0 0 moveto scale
  0 0 1 5 -2 roll arc closepath tMatrix setmatrix fill} bdef
/FAn {newpath tMatrix currentmatrix pop translate scale
  0 0 1 5 -2 roll arcn tMatrix setmatrix stroke} bdef
/PAn {newpath tMatrix currentmatrix pop translate 0 0 moveto scale
  0 0 1 5 -2 roll arcn closepath tMatrix setmatrix fill} bdef
/vradius 0 def /hradius 0 def /lry 0 def
/lrx 0 def /uly 0 def /ulx 0 def /rad 0 def
/MRR {/vradius xdef /hradius xdef /lry xdef /lrx xdef /uly xdef
  /ulx xdef newpath tMatrix currentmatrix pop ulx hradius add uly
  vradius add translate hradius vradius scale 0 0 1 180 270 arc 
  tMatrix setmatrix lrx hradius sub uly vradius add translate
  hradius vradius scale 0 0 1 270 360 arc tMatrix setmatrix
  lrx hradius sub lry vradius sub translate hradius vradius scale
  0 0 1 0 90 arc tMatrix setmatrix ulx hradius add lry vradius sub
  translate hradius vradius scale 0 0 1 90 180 arc tMatrix setmatrix
  closepath} bdef
/FRR {MRR stroke } bdef
/PRR {MRR fill } bdef
/MlrRR {/lry xdef /lrx xdef /uly xdef /ulx xdef /rad lry uly sub 2 div def
  newpath tMatrix currentmatrix pop ulx rad add uly rad add translate
  rad rad scale 0 0 1 90 270 arc tMatrix setmatrix lrx rad sub lry rad
  sub translate rad rad scale 0 0 1 270 90 arc tMatrix setmatrix
  closepath} bdef
/FlrRR {MlrRR stroke } bdef
/PlrRR {MlrRR fill } bdef
/MtbRR {/lry xdef /lrx xdef /uly xdef /ulx xdef /rad lrx ulx sub 2 div def
  newpath tMatrix currentmatrix pop ulx rad add uly rad add translate
  rad rad scale 0 0 1 180 360 arc tMatrix setmatrix lrx rad sub lry rad
  sub translate rad rad scale 0 0 1 0 180 arc tMatrix setmatrix
  closepath} bdef
/FtbRR {MtbRR stroke } bdef
/PtbRR {MtbRR fill } bdef
/stri 6 array def /dtri 6 array def
/smat 6 array def /dmat 6 array def
/tmat1 6 array def /tmat2 6 array def /dif 3 array def
/asub {/ind2 exch def /ind1 exch def dup dup
  ind1 get exch ind2 get sub exch } bdef
/tri_to_matrix {
  2 0 asub 3 1 asub 4 0 asub 5 1 asub
  dup 0 get exch 1 get 7 -1 roll astore } bdef
/compute_transform {
  dmat dtri tri_to_matrix tmat1 invertmatrix 
  smat stri tri_to_matrix tmat2 concatmatrix } bdef
/ds {stri astore pop} bdef
/dt {dtri astore pop} bdef
/db {2 copy /cols xdef /rows xdef mul dup 3 mul string
  currentfile 
  3 index 0 eq {/ASCIIHexDecode filter}
  {/ASCII85Decode filter 3 index 2 eq {/RunLengthDecode filter} if }
  ifelse exch readstring pop
  dup 0 3 index getinterval /rbmap xdef
  dup 2 index dup getinterval /gbmap xdef
  1 index dup 2 mul exch getinterval /bbmap xdef pop pop}bdef
/it {gs np dtri aload pop moveto lineto lineto cp c
  cols rows 8 compute_transform 
  rbmap gbmap bbmap true 3 colorimage gr}bdef
/il {newpath moveto lineto stroke}bdef
currentdict end def
%%EndProlog

%%BeginSetup
MathWorks begin

0 cap

end
%%EndSetup

%%Page: 1 1
%%BeginPageSetup
%%PageBoundingBox:    50   203   560   587
MathWorks begin
bpage
%%EndPageSetup

%%BeginObject: obj1
bplot

/dpi2point 12 def
portraitMode 0600 7044 csm

    0     0  6123  4597 rc
85 dict begin %Colortable dictionary
/c0 { 0.000000 0.000000 0.000000 sr} bdef
/c1 { 1.000000 1.000000 1.000000 sr} bdef
/c2 { 0.900000 0.000000 0.000000 sr} bdef
/c3 { 0.000000 0.820000 0.000000 sr} bdef
/c4 { 0.000000 0.000000 0.800000 sr} bdef
/c5 { 0.910000 0.820000 0.320000 sr} bdef
/c6 { 1.000000 0.260000 0.820000 sr} bdef
/c7 { 0.000000 0.820000 0.820000 sr} bdef
c0
1 j
1 sg
   0    0 6124 4598 rf
6 w
0 3746 4745 0 0 -3746 796 4091 4 MP
PP
-4745 0 0 3746 4745 0 0 -3746 796 4091 5 MP stroke
4 w
DO
SO
6 w
0 sg
 796 4091 mt 5541 4091 L
 796  345 mt 5541  345 L
 796 4091 mt  796  345 L
5541 4091 mt 5541  345 L
 796 4091 mt 5541 4091 L
 796 4091 mt  796  345 L
 796 4091 mt  796 4043 L
 796  345 mt  796  392 L
%%IncludeResource: font Helvetica
/Helvetica /ISOLatin1Encoding 120 FMSR

 763 4236 mt 
(0) s
1270 4091 mt 1270 4043 L
1270  345 mt 1270  392 L
1170 4236 mt 
(200) s
1745 4091 mt 1745 4043 L
1745  345 mt 1745  392 L
1645 4236 mt 
(400) s
2219 4091 mt 2219 4043 L
2219  345 mt 2219  392 L
2119 4236 mt 
(600) s
2694 4091 mt 2694 4043 L
2694  345 mt 2694  392 L
2594 4236 mt 
(800) s
3168 4091 mt 3168 4043 L
3168  345 mt 3168  392 L
3035 4236 mt 
(1000) s
3643 4091 mt 3643 4043 L
3643  345 mt 3643  392 L
3510 4236 mt 
(1200) s
4117 4091 mt 4117 4043 L
4117  345 mt 4117  392 L
3984 4236 mt 
(1400) s
4592 4091 mt 4592 4043 L
4592  345 mt 4592  392 L
4459 4236 mt 
(1600) s
5066 4091 mt 5066 4043 L
5066  345 mt 5066  392 L
4933 4236 mt 
(1800) s
5541 4091 mt 5541 4043 L
5541  345 mt 5541  392 L
5408 4236 mt 
(2000) s
 796 4091 mt  843 4091 L
5541 4091 mt 5493 4091 L
 695 4135 mt 
(0) s
 796 3622 mt  843 3622 L
5541 3622 mt 5493 3622 L
 628 3666 mt 
(50) s
 796 3154 mt  843 3154 L
5541 3154 mt 5493 3154 L
 561 3198 mt 
(100) s
 796 2686 mt  843 2686 L
5541 2686 mt 5493 2686 L
 561 2730 mt 
(150) s
 796 2218 mt  843 2218 L
5541 2218 mt 5493 2218 L
 561 2262 mt 
(200) s
 796 1749 mt  843 1749 L
5541 1749 mt 5493 1749 L
 561 1793 mt 
(250) s
 796 1281 mt  843 1281 L
5541 1281 mt 5493 1281 L
 561 1325 mt 
(300) s
 796  813 mt  843  813 L
5541  813 mt 5493  813 L
 561  857 mt 
(350) s
 796  345 mt  843  345 L
5541  345 mt 5493  345 L
 561  389 mt 
(400) s
 796 4091 mt 5541 4091 L
 796  345 mt 5541  345 L
 796 4091 mt  796  345 L
5541 4091 mt 5541  345 L
gs 796 345 4746 3747 rc
/c8 { 0.000000 0.000000 1.000000 sr} bdef
c8
3 -120 2 -110 3 -25 2 2 2 136 3 48 2 -23 2 12 
3 97 2 -11 3 21 2 63 2 14 3 -86 2 -18 2 13 
3 18 2 -108 3 -104 2 -142 2 -25 3 -128 2 17 2 108 
3 -27 2 -38 3 156 2 98 2 39 3 204 2 -31 2 31 
3 -20 2 -44 3 -74 2 3 2 -108 3 -98 2 82 2 -128 
3 -17 2 55 3 121 2 -157 2 77 3 113 2 -34 2 -41 
3 150 2 130 2 39 3 94 2 -83 3 -148 2 -225 2 -155 
3 -78 2 65 2 99 3 18 2 98 3 19 2 30 2 -121 
3 -21 2 44 2 -89 3 129 2 41 3 7 2 -153 2 64 
3 -226 2 45 2 118 3 1 2 60 3 111 2 14 2 -13 
3 104 2 -94 2 -9 3 -68 2 -81 3 -51 2 37 2 -101 
3 95 2 126 2 -14 3 -25 2 170 3 -144 2 -141 2 -8 
3 15 2 -77 2 38 3 61 2 103 2 40 3 -67 2 89 
3 -11 2 55 2 -111 3 35 2 -74 2 -74 3 -86 2 79 
3 -21 2 -38 2 62 3 -123 2 54 2 37 3 15 2 5 
3 30 2 -148 2 32 3 59 2 -45 2 68 3 25 2 -109 
3 28 2 -22 2 25 3 59 2 59 2 19 3 224 2 37 
3 -15 2 21 2 -132 3 -21 2 -97 2 39 3 -81 2 182 
3 -94 2 -27 2 -1 3 13 2 -78 2 -36 3 235 2 -91 
2 114 3 -19 2 181 3 -66 2 -16 2 -61 3 -73 2 -238 
2 -173 3 115 2 -65 3 15 2 298 2 116 3 -62 2 102 
2 7 3 -211 2 89 3 1 2 -43 2 74 3 72 2 -221 
2 54 3 -80 2 20 3 -189 2 50 2 -66 3 -24 2 70 
2 149 3 54 2 -12 3 233 2 -49 2 -107 3 83 2 -34 
2 -144 3 -152 2 -16 3 -149 2 65 2 -25 3 87 2 198 
2 198 3 67 2 284 2 -48 3 -210 2 -193 3 68 2 -63 
2 159 3 39 2 30 2 -83 3 -107 2 -119 3 54 2 -85 
2 120 3 -134 2 8 2 -81 3 117 2 -216 3 122 2 -67 
2 165 3 86 2 184 2 0 3 91 2 -118 3 76 2 -157 
2 -11 3 -15 2 111 2 -1 3 142 2 -90 3 140 2 -72 
2 -241 3 -187 2 5 2 -40 3 -108 2 54 3 126 2 48 
2 -79 3 103 2 -53 2 142 3 -70 2 -86 2 -110 3 42 
2 -238 3 -6 2 -19 2 11 3 121 2 38 2 188 3 62 
2 167 3 -155 2 -2 2 -32 3 133 2 -203 2 120 3 52 
2 -84 3 -96 2 192 2 -178 3 -14 2 34 2 -49 3 -57 
2 341 3 4 2 -125 2 90 3 85 2 -177 2 25 3 12 
2 -157 3 -28 2 -106 2 -54 3 164 2 234 2 -94 3 70 
2 -73 3 -95 2 -101 4831 3472 300 MP stroke
2 30 3 -98 2 4 2 9 3 8 2 -36 2 -24 3 25 
2 119 3 -79 2 99 2 125 3 -16 2 -194 2 39 3 7 
2 111 3 15 2 2 2 -92 3 -113 2 56 2 165 3 166 
2 39 3 10 2 -257 2 -131 3 10 2 -18 2 2 3 283 
2 -65 3 -98 2 119 2 307 3 -97 2 0 2 -60 3 -124 
2 -292 3 -102 2 253 2 -28 3 7 2 63 2 -81 3 -237 
2 22 3 -17 2 -53 2 59 3 42 2 -20 2 58 3 129 
2 -34 2 45 3 14 2 -36 3 -162 2 35 2 0 3 81 
2 26 2 19 3 3 2 -95 3 23 2 26 2 -31 3 5 
2 104 2 52 3 18 2 -40 3 -5 2 -81 2 -153 3 -63 
2 73 2 -67 3 18 2 71 3 127 2 91 2 20 3 -1 
2 -60 2 -67 3 -126 2 -23 3 2 2 31 2 -44 3 -55 
2 89 2 -40 3 -39 2 19 2 61 3 104 2 35 3 99 
2 -78 2 247 3 -118 2 -4 2 6 3 127 2 -203 3 -21 
2 98 2 -117 3 61 2 87 2 127 3 -161 2 89 3 -156 
2 -21 2 -136 3 76 2 78 2 193 3 -70 2 -53 3 25 
2 -196 2 -127 3 3 2 138 2 -64 3 29 2 22 3 -78 
2 -114 2 0 3 18 2 8 2 327 3 104 2 87 3 160 
2 -95 2 -323 3 -44 2 -13 2 -173 3 171 2 49 2 -84 
3 -50 2 111 3 -35 2 -46 2 26 3 -45 2 -23 2 12 
3 54 2 194 3 26 2 75 2 12 3 -82 2 -80 2 56 
3 50 2 26 3 41 2 -84 2 40 3 -207 2 -73 2 153 
3 -26 2 14 3 134 2 44 2 -185 3 -19 2 130 2 203 
3 -170 2 241 3 30 2 -114 2 -130 3 87 2 -117 2 81 
3 -30 2 -199 3 1 2 2 2 96 3 9 2 137 2 103 
3 10 2 -187 2 -85 3 69 2 -29 3 -87 2 9 2 237 
3 -143 2 13 2 14 3 65 2 -135 3 -91 2 -58 2 -24 
3 -106 2 -119 2 183 3 7 2 137 3 18 2 257 2 -86 
3 -106 2 -53 2 140 3 -258 2 -57 3 314 2 -105 2 25 
3 22 2 57 2 -236 3 -31 2 2 3 48 2 67 2 275 
3 84 2 -71 2 -20 3 -4 2 -323 3 23 2 237 2 99 
3 -69 2 64 2 -21 3 -242 2 -87 2 -36 3 -8 2 112 
3 27 2 26 2 -1 3 -29 2 11 2 -87 3 -43 2 40 
3 16 2 -86 2 15 3 6 2 -53 2 120 3 152 2 91 
3 40 2 10 2 -71 3 -60 2 -71 2 -92 3 128 2 2 
3 -59 2 64 2 39 3 -121 2 39 2 -3 3 14 2 -40 
3 20 2 -3 2 -43 3 20 2 154 2 -96 3 -132 2 84 
3 -141 2 20 2 66 4122 3314 300 MP stroke
3 49 2 58 2 -45 3 -136 2 79 2 -7 3 -128 2 111 
3 253 2 -126 2 -21 3 -34 2 78 2 -156 3 141 2 238 
3 -19 2 -35 2 14 3 -93 2 -135 2 178 3 -109 2 -150 
3 -9 2 81 2 44 3 27 2 128 2 116 3 -173 2 -249 
3 227 2 104 2 -46 3 16 2 36 2 47 3 -139 2 -37 
3 -76 2 -84 2 -191 3 -24 2 24 2 117 3 122 2 -82 
3 -53 2 198 2 -5 3 29 2 -58 2 60 3 -279 2 -104 
2 -119 3 157 2 109 3 -15 2 33 2 -1 3 -119 2 -202 
2 174 3 37 2 76 3 48 2 30 2 -157 3 82 2 -16 
2 -6 3 138 2 74 3 -81 2 180 2 -3 3 -181 2 55 
2 33 3 -225 2 45 3 35 2 -58 2 -103 3 252 2 -74 
2 57 3 88 2 85 3 -170 2 194 2 -54 3 -34 2 139 
2 -4 3 -226 2 59 3 -8 2 15 2 -82 3 168 2 -68 
2 8 3 -195 2 43 2 -72 3 58 2 -22 3 -28 2 40 
2 -111 3 98 2 -38 2 82 3 -88 2 123 3 -180 2 -67 
2 -11 3 113 2 -61 2 25 3 2 2 -105 3 225 2 -49 
2 55 3 26 2 247 2 -220 3 -2 2 134 3 94 2 -171 
2 -35 3 -11 2 -213 2 -121 3 196 2 -6 3 -3 2 121 
2 26 3 -194 2 -29 2 150 3 -129 2 41 3 4 2 65 
2 -46 3 113 2 55 2 -46 3 5 2 25 2 -30 3 -40 
2 -5 3 -43 2 -18 2 59 3 34 2 244 2 86 3 123 
2 -101 3 124 2 -161 2 9 3 -229 2 -31 2 -150 3 -20 
2 -82 3 75 2 30 2 -60 3 -99 2 -79 2 121 3 131 
2 11 3 169 2 88 2 -48 3 -156 2 -45 2 -131 3 53 
2 -36 3 22 2 146 2 50 3 -25 2 -75 2 67 3 -82 
2 122 2 58 3 17 2 -19 3 4 2 -208 2 -158 3 117 
2 116 2 23 3 154 2 -8 3 -189 2 -184 2 19 3 -140 
2 85 2 107 3 102 2 -130 3 100 2 76 2 -70 3 23 
2 62 2 141 3 -176 2 64 3 57 2 -11 2 -240 3 141 
2 10 2 -199 3 42 2 136 3 -42 2 20 2 25 3 8 
2 184 2 0 3 -37 2 81 3 -73 2 -282 2 -79 3 9 
2 31 2 112 3 41 2 -1 2 38 3 28 2 1 3 80 
2 69 2 -83 3 -102 2 -102 2 -58 3 -99 2 62 3 203 
2 -19 2 29 3 10 2 39 2 -182 3 86 2 66 3 156 
2 -121 2 16 3 -32 2 -208 2 104 3 -9 2 15 3 4 
2 261 2 -272 3 54 2 8 2 68 3 -231 2 96 3 -8 
2 -93 2 3 3 68 2 -60 2 59 3 120 2 -82 3 -44 
2 118 2 -19 3 -106 3412 3396 300 MP stroke
2 -2 2 71 3 -90 2 -76 2 65 3 -17 2 -88 3 -15 
2 69 2 -46 3 61 2 4 2 50 3 -54 2 -36 3 -6 
2 -40 2 37 3 39 2 9 2 88 3 28 2 -90 3 -81 
2 74 2 -48 3 69 2 154 2 187 3 60 2 -41 3 -82 
2 -189 2 -68 3 -131 2 98 2 57 3 66 2 -130 3 -28 
2 -85 2 85 3 -57 2 94 2 8 3 -53 2 -131 3 1 
2 32 2 130 3 131 2 8 2 178 3 -4 2 -106 2 -52 
3 3 2 46 3 -47 2 39 2 -84 3 179 2 -192 2 14 
3 131 2 104 3 -135 2 -8 2 -15 3 -73 2 47 2 147 
3 172 2 119 3 -24 2 -40 2 -52 3 -118 2 -104 2 71 
3 -46 2 -60 3 46 2 148 2 -6 3 -3 2 40 2 -45 
3 -136 2 -101 3 69 2 -67 2 37 3 53 2 133 2 119 
3 125 2 -68 3 -34 2 -18 2 -218 3 -20 2 33 2 -72 
3 -105 2 120 2 -147 3 -24 2 -1 3 14 2 -130 2 51 
3 12 2 76 2 138 3 105 2 49 3 -40 2 47 2 -152 
3 77 2 -142 2 37 3 153 2 -66 3 -217 2 126 2 33 
3 -285 2 122 2 150 3 120 2 10 3 56 2 -94 2 -61 
3 -176 2 -137 2 -67 3 88 2 -100 3 120 2 205 2 98 
3 -54 2 1 2 -66 3 -53 2 -50 3 -70 2 -15 2 -151 
3 -48 2 216 2 145 3 2 2 142 2 -51 3 -298 2 -139 
3 171 2 -21 2 115 3 105 2 69 2 -47 3 199 2 -68 
3 -73 2 -35 2 -100 3 -160 2 -30 2 72 3 -51 2 11 
3 -165 2 -24 2 233 3 69 2 77 2 120 3 127 2 -226 
3 159 2 61 2 -99 3 -28 2 -23 2 -255 3 -171 2 12 
3 -105 2 39 2 83 3 116 2 4 2 -4 3 -49 2 84 
3 -141 2 174 2 7 3 -17 2 137 2 139 3 -43 2 42 
2 197 3 -140 2 12 3 -45 2 48 2 -167 3 -29 2 50 
2 100 3 13 2 8 3 -9 2 -145 2 -142 3 -53 2 17 
2 57 3 83 2 130 3 -12 2 36 2 -73 3 54 2 -163 
2 80 3 -31 2 53 3 -62 2 136 2 -53 3 142 2 -7 
2 9 3 60 2 12 3 -186 2 37 2 242 3 -138 2 62 
2 101 3 4 2 -213 3 52 2 96 2 215 3 19 2 47 
2 29 3 -47 2 -26 2 -21 3 -3 2 -2 3 -136 2 -254 
2 139 3 -117 2 -14 2 90 3 69 2 -137 3 17 2 32 
2 -40 3 190 2 -112 2 69 3 -26 2 -106 3 -176 2 153 
2 43 3 -41 2 64 2 -100 3 -148 2 39 3 0 2 -36 
2 33 3 57 2 -100 2 -3 3 -25 2 -100 3 -77 2 80 
2 90 3 70 2 -17 2703 3232 300 MP stroke
2 117 3 -181 2 -202 2 -60 3 161 2 -136 3 131 2 151 
2 109 3 -103 2 5 2 -118 3 -90 2 -62 3 104 2 149 
2 102 3 -7 2 -42 2 -49 3 -68 2 -35 3 34 2 -14 
2 -98 3 15 2 -91 2 -76 3 32 2 175 3 -5 2 50 
2 101 3 15 2 -159 2 -70 3 45 2 43 3 50 2 18 
2 -2 3 -91 2 10 2 -93 3 -53 2 67 3 211 2 -29 
2 -2 3 158 2 -67 2 -140 3 82 2 95 2 -75 3 115 
2 128 3 -146 2 -36 2 7 3 24 2 1 2 169 3 42 
2 198 3 -69 2 69 2 -55 3 19 2 -55 2 -64 3 45 
2 26 3 39 2 -86 2 144 3 -135 2 -36 2 5 3 56 
2 -110 3 12 2 -10 2 -6 3 122 2 19 2 -89 3 -17 
2 -89 3 -186 2 -26 2 126 3 -32 2 77 2 -49 3 108 
2 -159 3 -110 2 -70 2 24 3 66 2 -29 2 68 3 87 
2 42 2 -136 3 64 2 83 3 -46 2 -36 2 72 3 -64 
2 57 2 8 3 64 2 -11 3 48 2 -85 2 -54 3 -26 
2 201 2 -1 3 58 2 139 3 81 2 -147 2 32 3 40 
2 -24 2 -29 3 -5 2 107 3 -17 2 -45 2 41 3 19 
2 -9 2 -2 3 55 2 49 3 6 2 81 2 -34 3 53 
2 -160 2 -95 3 -137 2 -92 3 -159 2 60 2 -37 3 15 
2 32 2 21 3 -45 2 61 2 44 3 62 2 59 3 50 
2 42 2 -19 3 109 2 83 2 4 3 42 2 24 3 -50 
2 -60 2 57 3 -72 2 -87 2 -62 3 -30 2 -75 3 68 
2 138 2 53 3 34 2 53 2 63 3 -128 2 26 3 -67 
2 -114 2 -203 3 -51 2 -96 2 -6 3 150 2 94 3 73 
2 12 2 3 3 -121 2 -25 2 32 3 5 2 33 3 133 
2 56 2 -140 3 -99 2 -21 2 -170 3 -134 2 74 2 52 
3 28 2 111 3 100 2 25 2 123 3 62 2 3 2 78 
3 61 2 -82 3 -50 2 7 2 -25 3 -39 2 165 2 -13 
3 -48 2 17 3 -54 2 -178 2 33 3 43 2 -97 2 124 
3 90 2 -67 3 -102 2 -27 2 -52 3 -40 2 28 2 96 
3 48 2 16 3 65 2 26 2 -26 3 85 2 79 2 -109 
3 -82 2 25 3 62 2 -144 2 53 3 112 2 6 2 -84 
3 55 2 -28 2 -81 3 -1 2 -156 3 -78 2 26 2 98 
3 -19 2 122 2 73 3 -6 2 -6 3 0 2 91 2 70 
3 47 2 -31 2 -29 3 -137 2 -72 3 -71 2 15 2 39 
3 3 2 14 2 162 3 -64 2 -66 3 -18 2 -35 2 -155 
3 49 2 88 2 124 3 27 2 57 3 -76 2 -31 2 -58 
3 38 2 -83 2 25 1994 2723 300 MP stroke
3 -4 2 -32 3 -78 2 152 2 -3 3 -9 2 36 2 4 
3 -20 2 -16 2 28 3 37 2 -43 3 -100 2 92 2 -46 
3 -87 2 34 2 -22 3 -126 2 94 3 -66 2 -30 2 -21 
3 83 2 -110 2 33 3 30 2 106 3 73 2 -1 2 -11 
3 49 2 -43 2 1 3 35 2 53 3 -64 2 -54 2 -141 
3 -12 2 76 2 42 3 60 2 194 3 -12 2 101 2 -186 
3 -49 2 -148 2 -28 3 -176 2 65 3 -63 2 -74 2 -31 
3 -83 2 77 2 82 3 89 2 173 2 76 3 53 2 -12 
3 -12 2 -31 2 47 3 -53 2 -90 2 36 3 -51 2 20 
3 85 2 233 2 -15 3 21 2 -12 2 69 3 -137 2 70 
3 21 2 -54 2 -70 3 37 2 -49 2 39 3 59 2 63 
3 10 2 -30 2 -139 3 -26 2 -1 2 -28 3 -10 2 58 
3 102 2 -113 2 18 3 -22 2 47 2 -135 3 38 2 -6 
2 51 3 42 2 -13 3 18 2 -60 2 11 3 -170 2 32 
2 4 3 100 2 12 3 116 2 100 2 39 3 -70 2 -37 
2 8 3 -139 2 -105 3 21 2 2 2 -27 3 57 2 104 
2 79 3 13 2 -86 3 -36 2 -122 2 -118 3 -32 2 243 
2 16 3 15 2 4 3 25 2 -173 2 34 3 11 2 68 
2 35 3 30 2 79 3 19 2 -69 2 -135 3 -24 2 -6 
2 -83 3 -8 2 6 2 -56 3 -142 2 89 3 -17 2 -22 
2 -49 3 9 2 -45 2 40 3 127 2 87 3 -34 2 -4 
2 -44 3 -31 2 -87 2 -20 3 0 2 12 3 12 2 77 
2 113 3 103 2 -13 2 -54 3 -62 2 -124 3 -75 2 13 
2 45 3 71 2 127 2 -93 3 53 2 -72 3 -7 2 -54 
2 105 3 -145 2 -7 2 -69 3 -71 2 -89 3 229 2 49 
2 49 3 62 2 37 2 -90 3 122 2 -9 2 33 3 -16 
2 28 3 -74 2 79 2 110 3 107 2 -63 2 -73 3 58 
2 -174 3 -96 2 12 2 84 3 -59 2 54 2 199 3 -4 
2 -38 3 -87 2 -19 2 -169 3 -5 2 -2 2 207 3 5 
2 -117 3 11 2 -106 2 -276 3 -88 2 75 2 -67 3 69 
2 169 3 82 2 118 2 132 3 72 2 -49 2 43 3 20 
2 -80 3 -70 2 0 2 85 3 -149 2 182 2 -55 3 -44 
2 -140 2 -12 3 -208 2 64 3 -18 2 33 2 23 3 65 
2 47 2 57 3 142 2 0 3 72 2 -21 2 -35 3 -187 
2 93 2 -70 3 -15 2 29 3 13 2 -60 2 28 3 47 
2 121 2 65 3 -25 2 -116 3 -37 2 48 2 -82 3 -26 
2 -6 2 67 3 -202 2 6 3 57 2 49 2 -51 3 40 
2 -17 2 -9 3 105 1284 2792 300 MP stroke
2 -63 3 -10 2 153 2 32 3 -41 2 58 2 25 3 -132 
2 53 2 41 3 -36 2 21 3 72 2 -67 2 -86 3 148 
2 -65 2 27 3 37 2 19 3 26 2 1 2 -25 3 13 
2 -1 2 -9 3 27 2 59 3 -94 2 -129 2 -108 3 -33 
2 -89 2 29 3 245 2 -82 3 83 2 -74 2 7 3 -130 
2 120 2 -1 3 157 2 31 3 -80 2 -134 2 -72 3 -130 
2 -117 2 -13 3 12 2 -15 3 70 2 67 2 123 3 101 
2 180 2 -33 3 74 2 8 2 76 3 -144 2 30 3 -68 
2 71 2 -166 3 -11 2 4 2 10 3 -60 2 86 3 31 
2 6 2 136 3 -42 2 3 2 71 3 7 2 -18 3 -20 
2 23 2 -27 3 7 2 -68 2 4 3 -30 2 -94 3 18 
2 95 2 -8 3 -21 2 140 2 -44 3 -133 2 46 3 14 
2 -6 2 46 3 35 2 -82 2 -90 3 -1 2 -111 3 -13 
2 104 2 68 3 -59 2 145 2 91 3 -3 2 78 2 6 
3 -60 2 -73 3 19 2 -30 2 -13 3 131 2 22 2 138 
3 -20 2 75 3 -118 2 -29 2 -124 3 189 2 -43 2 232 
3 82 2 41 3 -235 2 -58 2 -264 3 234 2 -128 2 128 
3 -59 2 5 3 -330 2 81 2 -78 3 106 2 -36 2 28 
3 217 2 -141 3 -18 2 62 2 9 3 -218 2 157 2 73 
3 264 2 76 3 -11 2 19 2 -40 3 -268 2 -25 2 318 
3 24 2 6 2 39 3 -43 2 -32 3 388 2 20 2 -36 
3 16 2 -241 2 -162 3 179 2 44 3 37 2 7 2 384 
3 -55 2 -24 2 -34 3 -7 2 -27 3 -124 2 57 2 26 
3 566 2 -6 2 -148 3 25 2 455 3 -450 2 -347 2 284 
3 812 2 -105 2 -33 3 -68 2 282 3 -861 2 404 2 194 
3 19 2 -19 2 -21 3 -664 2 -978 798 2340 206 MP stroke
gr

c8

end %%Color Dict

eplot
%%EndObject

epage
end

showpage

%%Trailer
%%EOF
