%!PS-Adobe-3.0 EPSF-3.0
%%Creator: MATLAB, The MathWorks, Inc. Version 7.14.0.739 (R2012a). Operating System: Darwin 11.4.2 Darwin Kernel Version 11.4.2: Thu Aug 23 16:25:48 PDT 2012; root:xnu-1699.32.7~1/RELEASE_X86_64 x86_64.
%%Title: /Users/mazar/Dropbox/tUCBCodes/transfer_bandit/tUCB++.eps
%%CreationDate: 08/22/2013  23:29:17
%%DocumentNeededFonts: Helvetica
%%DocumentProcessColors: Cyan Magenta Yellow Black
%%LanguageLevel: 2
%%Pages: 1
%%BoundingBox:  -143   142   757   650
%%EndComments

%%BeginProlog
% MathWorks dictionary
/MathWorks 160 dict begin
% definition operators
/bdef {bind def} bind def
/ldef {load def} bind def
/xdef {exch def} bdef
/xstore {exch store} bdef
% operator abbreviations
/c  /clip ldef
/cc /concat ldef
/cp /closepath ldef
/gr /grestore ldef
/gs /gsave ldef
/mt /moveto ldef
/np /newpath ldef
/cm /currentmatrix ldef
/sm /setmatrix ldef
/rm /rmoveto ldef
/rl /rlineto ldef
/s {show newpath} bdef
/sc {setcmykcolor} bdef
/sr /setrgbcolor ldef
/sg /setgray ldef
/w /setlinewidth ldef
/j /setlinejoin ldef
/cap /setlinecap ldef
/rc {rectclip} bdef
/rf {rectfill} bdef
% page state control
/pgsv () def
/bpage {/pgsv save def} bdef
/epage {pgsv restore} bdef
/bplot /gsave ldef
/eplot {stroke grestore} bdef
% orientation switch
/portraitMode 0 def /landscapeMode 1 def /rotateMode 2 def
% coordinate system mappings
/dpi2point 0 def
% font control
/FontSize 0 def
/FMS {/FontSize xstore findfont [FontSize 0 0 FontSize neg 0 0]
  makefont setfont} bdef
/reencode {exch dup where {pop load} {pop StandardEncoding} ifelse
  exch dup 3 1 roll findfont dup length dict begin
  { 1 index /FID ne {def}{pop pop} ifelse } forall
  /Encoding exch def currentdict end definefont pop} bdef
/isroman {findfont /CharStrings get /Agrave known} bdef
/FMSR {3 1 roll 1 index dup isroman {reencode} {pop pop} ifelse
  exch FMS} bdef
/csm {1 dpi2point div -1 dpi2point div scale neg translate
 dup landscapeMode eq {pop -90 rotate}
  {rotateMode eq {90 rotate} if} ifelse} bdef
% line types: solid, dotted, dashed, dotdash
/SO { [] 0 setdash } bdef
/DO { [.5 dpi2point mul 4 dpi2point mul] 0 setdash } bdef
/DA { [6 dpi2point mul] 0 setdash } bdef
/DD { [.5 dpi2point mul 4 dpi2point mul 6 dpi2point mul 4
  dpi2point mul] 0 setdash } bdef
% macros for lines and objects
/L {lineto stroke} bdef
/MP {3 1 roll moveto 1 sub {rlineto} repeat} bdef
/AP {{rlineto} repeat} bdef
/PDlw -1 def
/W {/PDlw currentlinewidth def setlinewidth} def
/PP {closepath eofill} bdef
/DP {closepath stroke} bdef
/MR {4 -2 roll moveto dup  0 exch rlineto exch 0 rlineto
  neg 0 exch rlineto closepath} bdef
/FR {MR stroke} bdef
/PR {MR fill} bdef
/L1i {{currentfile picstr readhexstring pop} image} bdef
/tMatrix matrix def
/MakeOval {newpath tMatrix currentmatrix pop translate scale
0 0 1 0 360 arc tMatrix setmatrix} bdef
/FO {MakeOval stroke} bdef
/PO {MakeOval fill} bdef
/PD {currentlinewidth 2 div 0 360 arc fill
   PDlw -1 eq not {PDlw w /PDlw -1 def} if} def
/FA {newpath tMatrix currentmatrix pop translate scale
  0 0 1 5 -2 roll arc tMatrix setmatrix stroke} bdef
/PA {newpath tMatrix currentmatrix pop	translate 0 0 moveto scale
  0 0 1 5 -2 roll arc closepath tMatrix setmatrix fill} bdef
/FAn {newpath tMatrix currentmatrix pop translate scale
  0 0 1 5 -2 roll arcn tMatrix setmatrix stroke} bdef
/PAn {newpath tMatrix currentmatrix pop translate 0 0 moveto scale
  0 0 1 5 -2 roll arcn closepath tMatrix setmatrix fill} bdef
/vradius 0 def /hradius 0 def /lry 0 def
/lrx 0 def /uly 0 def /ulx 0 def /rad 0 def
/MRR {/vradius xdef /hradius xdef /lry xdef /lrx xdef /uly xdef
  /ulx xdef newpath tMatrix currentmatrix pop ulx hradius add uly
  vradius add translate hradius vradius scale 0 0 1 180 270 arc 
  tMatrix setmatrix lrx hradius sub uly vradius add translate
  hradius vradius scale 0 0 1 270 360 arc tMatrix setmatrix
  lrx hradius sub lry vradius sub translate hradius vradius scale
  0 0 1 0 90 arc tMatrix setmatrix ulx hradius add lry vradius sub
  translate hradius vradius scale 0 0 1 90 180 arc tMatrix setmatrix
  closepath} bdef
/FRR {MRR stroke } bdef
/PRR {MRR fill } bdef
/MlrRR {/lry xdef /lrx xdef /uly xdef /ulx xdef /rad lry uly sub 2 div def
  newpath tMatrix currentmatrix pop ulx rad add uly rad add translate
  rad rad scale 0 0 1 90 270 arc tMatrix setmatrix lrx rad sub lry rad
  sub translate rad rad scale 0 0 1 270 90 arc tMatrix setmatrix
  closepath} bdef
/FlrRR {MlrRR stroke } bdef
/PlrRR {MlrRR fill } bdef
/MtbRR {/lry xdef /lrx xdef /uly xdef /ulx xdef /rad lrx ulx sub 2 div def
  newpath tMatrix currentmatrix pop ulx rad add uly rad add translate
  rad rad scale 0 0 1 180 360 arc tMatrix setmatrix lrx rad sub lry rad
  sub translate rad rad scale 0 0 1 0 180 arc tMatrix setmatrix
  closepath} bdef
/FtbRR {MtbRR stroke } bdef
/PtbRR {MtbRR fill } bdef
/stri 6 array def /dtri 6 array def
/smat 6 array def /dmat 6 array def
/tmat1 6 array def /tmat2 6 array def /dif 3 array def
/asub {/ind2 exch def /ind1 exch def dup dup
  ind1 get exch ind2 get sub exch } bdef
/tri_to_matrix {
  2 0 asub 3 1 asub 4 0 asub 5 1 asub
  dup 0 get exch 1 get 7 -1 roll astore } bdef
/compute_transform {
  dmat dtri tri_to_matrix tmat1 invertmatrix 
  smat stri tri_to_matrix tmat2 concatmatrix } bdef
/ds {stri astore pop} bdef
/dt {dtri astore pop} bdef
/db {2 copy /cols xdef /rows xdef mul dup 3 mul string
  currentfile 
  3 index 0 eq {/ASCIIHexDecode filter}
  {/ASCII85Decode filter 3 index 2 eq {/RunLengthDecode filter} if }
  ifelse exch readstring pop
  dup 0 3 index getinterval /rbmap xdef
  dup 2 index dup getinterval /gbmap xdef
  1 index dup 2 mul exch getinterval /bbmap xdef pop pop}bdef
/it {gs np dtri aload pop moveto lineto lineto cp c
  cols rows 8 compute_transform 
  rbmap gbmap bbmap true 3 colorimage gr}bdef
/il {newpath moveto lineto stroke}bdef
currentdict end def
%%EndProlog

%%BeginSetup
MathWorks begin

0 cap

end
%%EndSetup

%%Page: 1 1
%%BeginPageSetup
%%PageBoundingBox:  -143   142   757   650
MathWorks begin
bpage
%%EndPageSetup

%%BeginObject: obj1
bplot

/dpi2point 12 def
portraitMode -1716 7800 csm

    0     0 10800  6093 rc
85 dict begin %Colortable dictionary
/c0 { 0.000000 0.000000 0.000000 sr} bdef
/c1 { 1.000000 1.000000 1.000000 sr} bdef
/c2 { 0.900000 0.000000 0.000000 sr} bdef
/c3 { 0.000000 0.820000 0.000000 sr} bdef
/c4 { 0.000000 0.000000 0.800000 sr} bdef
/c5 { 0.910000 0.820000 0.320000 sr} bdef
/c6 { 1.000000 0.260000 0.820000 sr} bdef
/c7 { 0.000000 0.820000 0.820000 sr} bdef
c0
1 j
1 sg
   0    0 10801 6094 rf
6 w
0 4966 8370 0 0 -4966 1404 5423 4 MP
PP
-8370 0 0 4966 8370 0 0 -4966 1404 5423 5 MP stroke
4 w
DO
SO
6 w
0 sg
1404 5423 mt 9774 5423 L
1404  457 mt 9774  457 L
1404 5423 mt 1404  457 L
9774 5423 mt 9774  457 L
1404 5423 mt 9774 5423 L
1404 5423 mt 1404  457 L
1404 5423 mt 1404 5339 L
1404  457 mt 1404  540 L
%%IncludeResource: font Helvetica
/Helvetica /ISOLatin1Encoding 240 FMSR

1338 5680 mt 
(0) s
2241 5423 mt 2241 5339 L
2241  457 mt 2241  540 L
2041 5680 mt 
(200) s
3078 5423 mt 3078 5339 L
3078  457 mt 3078  540 L
2878 5680 mt 
(400) s
3915 5423 mt 3915 5339 L
3915  457 mt 3915  540 L
3715 5680 mt 
(600) s
4752 5423 mt 4752 5339 L
4752  457 mt 4752  540 L
4552 5680 mt 
(800) s
5589 5423 mt 5589 5339 L
5589  457 mt 5589  540 L
5323 5680 mt 
(1000) s
6426 5423 mt 6426 5339 L
6426  457 mt 6426  540 L
6160 5680 mt 
(1200) s
7263 5423 mt 7263 5339 L
7263  457 mt 7263  540 L
6997 5680 mt 
(1400) s
8100 5423 mt 8100 5339 L
8100  457 mt 8100  540 L
7834 5680 mt 
(1600) s
8937 5423 mt 8937 5339 L
8937  457 mt 8937  540 L
8671 5680 mt 
(1800) s
9774 5423 mt 9774 5339 L
9774  457 mt 9774  540 L
9508 5680 mt 
(2000) s
1404 5423 mt 1487 5423 L
9774 5423 mt 9690 5423 L
1236 5512 mt 
(0) s
1404 4802 mt 1487 4802 L
9774 4802 mt 9690 4802 L
1103 4891 mt 
(50) s
1404 4181 mt 1487 4181 L
9774 4181 mt 9690 4181 L
 969 4270 mt 
(100) s
1404 3560 mt 1487 3560 L
9774 3560 mt 9690 3560 L
 969 3649 mt 
(150) s
1404 2940 mt 1487 2940 L
9774 2940 mt 9690 2940 L
 969 3029 mt 
(200) s
1404 2319 mt 1487 2319 L
9774 2319 mt 9690 2319 L
 969 2408 mt 
(250) s
1404 1698 mt 1487 1698 L
9774 1698 mt 9690 1698 L
 969 1787 mt 
(300) s
1404 1077 mt 1487 1077 L
9774 1077 mt 9690 1077 L
 969 1166 mt 
(350) s
1404  457 mt 1487  457 L
9774  457 mt 9690  457 L
 969  546 mt 
(400) s
1404 5423 mt 9774 5423 L
1404  457 mt 9774  457 L
1404 5423 mt 1404  457 L
9774 5423 mt 9774  457 L
gs 1404 457 8371 4967 rc
24 w
/c8 { 0.000000 0.000000 1.000000 sr} bdef
c8
5 -159 4 -146 4 -33 4 2 4 181 5 64 4 -30 4 15 
4 129 4 -15 5 29 4 82 4 19 4 -114 4 -24 4 18 
5 23 4 -143 4 -137 4 -189 4 -33 5 -170 4 23 4 143 
4 -35 4 -51 4 207 5 130 4 51 4 271 4 -41 4 41 
5 -27 4 -58 4 -98 4 3 4 -142 5 -130 4 109 4 -171 
4 -22 4 73 4 161 5 -208 4 101 4 150 4 -45 4 -54 
5 199 4 172 4 51 4 125 4 -109 4 -197 5 -299 4 -204 
4 -105 4 87 4 131 5 24 4 129 4 26 4 41 4 -161 
5 -28 4 58 4 -117 4 170 4 54 4 9 5 -202 4 85 
4 -300 4 60 4 156 5 2 4 80 4 146 4 19 4 -18 
4 139 5 -125 4 -12 4 -91 4 -106 4 -68 5 48 4 -133 
4 126 4 168 4 -20 5 -33 4 226 4 -192 4 -186 4 -11 
4 20 5 -102 4 50 4 82 4 136 4 52 5 -87 4 116 
4 -14 4 73 4 -147 4 47 5 -98 4 -99 4 -114 4 105 
4 -27 5 -51 4 83 4 -165 4 72 4 50 5 19 4 7 
4 39 4 -195 4 42 4 78 5 -60 4 91 4 33 4 -145 
4 37 5 -29 4 33 4 78 4 79 4 25 4 297 5 49 
4 -19 4 27 4 -175 4 -27 5 -129 4 51 4 -106 4 240 
4 -124 5 -36 4 -1 4 17 4 -103 4 -49 4 312 5 -121 
4 152 4 -26 4 241 4 -88 5 -21 4 -81 4 -96 4 -316 
4 -230 4 153 5 -87 4 20 4 396 4 153 4 -82 5 136 
4 9 4 -281 4 118 4 2 5 -57 4 98 4 96 4 -294 
4 73 4 -107 5 26 4 -250 4 67 4 -87 4 -33 5 92 
4 198 4 72 4 -16 4 309 4 -65 5 -142 4 110 4 -44 
4 -192 4 -201 5 -21 4 -197 4 85 4 -33 4 115 4 263 
5 262 4 89 4 377 4 -64 4 -279 5 -256 4 90 4 -83 
4 211 4 52 5 40 4 -110 4 -143 4 -157 4 72 4 -113 
5 159 4 -178 4 12 4 -108 4 155 5 -287 4 163 4 -90 
4 218 4 116 4 243 5 0 4 121 4 -157 4 101 4 -208 
5 -14 4 -20 4 146 4 0 4 188 5 -120 4 186 4 -95 
4 -321 4 -247 4 6 5 -53 4 -142 4 71 4 168 4 63 
5 -106 4 138 4 -71 4 189 4 -94 4 -114 5 -145 4 55 
4 -314 4 -10 4 -24 5 14 4 161 4 50 4 249 4 83 
5 221 4 -205 4 -4 4 -41 4 176 4 -269 5 158 4 69 
4 -111 4 -127 4 255 5 -236 4 -18 4 44 4 -65 4 -75 
4 451 5 6 4 -166 4 120 4 112 4 -235 5 34 4 16 
4 -208 4 -37 4 -141 5 -72 4 217 4 311 4 -125 4 94 
4 -98 5 -125 4 -135 8522 4603 300 MP stroke
4 40 4 -130 4 5 5 13 4 10 4 -48 4 -31 4 32 
4 159 5 -105 4 130 4 167 4 -22 4 -256 5 51 4 9 
4 147 4 20 4 2 5 -121 4 -150 4 75 4 219 4 219 
4 51 5 14 4 -340 4 -174 4 13 4 -24 5 4 4 375 
4 -87 4 -130 4 158 4 406 5 -128 4 0 4 -79 4 -165 
4 -387 5 -135 4 336 4 -37 4 8 4 84 5 -108 4 -313 
4 29 4 -24 4 -69 4 78 5 56 4 -26 4 75 4 173 
4 -46 5 60 4 18 4 -47 4 -216 4 47 4 0 5 107 
4 35 4 25 4 4 4 -126 5 30 4 36 4 -42 4 6 
4 139 5 68 4 24 4 -53 4 -6 4 -108 4 -203 5 -83 
4 96 4 -88 4 24 4 94 5 168 4 121 4 27 4 -2 
4 -79 4 -90 5 -166 4 -31 4 3 4 41 4 -59 5 -73 
4 118 4 -52 4 -53 4 26 4 81 5 138 4 47 4 130 
4 -102 4 327 5 -157 4 -5 4 8 4 168 4 -270 5 -26 
4 129 4 -155 4 81 4 115 4 169 5 -214 4 118 4 -207 
4 -28 4 -180 5 101 4 103 4 256 4 -93 4 -70 4 33 
5 -260 4 -168 4 4 4 183 4 -85 5 39 4 28 4 -102 
4 -151 4 -1 5 24 4 10 4 434 4 138 4 116 4 212 
5 -127 4 -428 4 -59 4 -17 4 -228 5 226 4 66 4 -112 
4 -66 4 146 4 -45 5 -62 4 35 4 -60 4 -31 4 16 
5 72 4 257 4 35 4 99 4 16 5 -109 4 -106 4 74 
4 67 4 34 4 55 5 -112 4 53 4 -274 4 -97 4 203 
5 -35 4 19 4 178 4 57 4 -244 4 -26 5 173 4 270 
4 -226 4 319 4 39 5 -150 4 -172 4 114 4 -155 4 108 
5 -40 4 -263 4 1 4 3 4 126 4 13 5 182 4 136 
4 13 4 -248 4 -112 5 91 4 -39 4 -115 4 12 4 315 
4 -190 5 17 4 19 4 86 4 -179 4 -121 5 -77 4 -32 
4 -140 4 -159 4 244 5 10 4 180 4 24 4 341 4 -113 
4 -141 5 -71 4 186 4 -342 4 -76 4 417 5 -140 4 34 
4 28 4 76 4 -312 4 -41 5 2 4 64 4 88 4 365 
4 111 5 -94 4 -26 4 -5 4 -429 4 31 5 314 4 131 
4 -91 4 84 4 -28 4 -320 5 -116 4 -47 4 -11 4 148 
4 36 5 35 4 -2 4 -38 4 15 4 -116 4 -57 5 53 
4 22 4 -114 4 19 4 9 5 -70 4 158 4 202 4 120 
4 54 5 13 4 -95 4 -79 4 -94 4 -122 4 169 5 4 
4 -80 4 86 4 52 4 -161 5 52 4 -3 4 17 4 -52 
4 26 4 -3 5 -58 4 27 4 204 4 -128 4 -174 5 111 
4 -187 4 26 4 88 7271 4393 300 MP stroke
4 65 4 76 5 -59 4 -180 4 104 4 -8 4 -170 5 147 
4 336 4 -168 4 -28 4 -45 5 104 4 -207 4 186 4 316 
4 -25 4 -47 5 19 4 -124 4 -178 4 236 4 -145 5 -199 
4 -11 4 107 4 58 4 36 4 170 5 153 4 -228 4 -331 
4 300 4 139 5 -61 4 22 4 47 4 62 4 -185 5 -49 
4 -100 4 -111 4 -253 4 -32 4 32 5 155 4 161 4 -108 
4 -70 4 261 5 -6 4 39 4 -77 4 80 4 -370 4 -138 
5 -158 4 208 4 144 4 -20 4 44 5 -1 4 -158 4 -267 
4 231 4 48 5 101 4 63 4 40 4 -208 4 109 4 -21 
5 -8 4 182 4 98 4 -107 4 239 5 -4 4 -240 4 73 
4 44 4 -298 4 59 5 47 4 -78 4 -136 4 334 4 -98 
5 76 4 116 4 113 4 -226 4 257 5 -70 4 -46 4 184 
4 -4 4 -301 4 79 5 -11 4 20 4 -108 4 222 4 -90 
5 10 4 -258 4 57 4 -95 4 77 4 -29 5 -37 4 53 
4 -148 4 130 4 -50 5 108 4 -116 4 162 4 -238 4 -89 
5 -15 4 150 4 -80 4 33 4 3 4 -140 5 298 4 -65 
4 74 4 34 4 327 5 -291 4 -3 4 177 4 125 4 -226 
4 -47 5 -15 4 -281 4 -162 4 261 4 -8 5 -5 4 161 
4 35 4 -258 4 -38 5 199 4 -171 4 54 4 5 4 86 
4 -61 5 151 4 72 4 -61 4 7 4 33 5 -39 4 -54 
4 -7 4 -56 4 -25 4 80 5 44 4 323 4 114 4 163 
4 -134 5 166 4 -214 4 12 4 -303 4 -42 5 -199 4 -27 
4 -109 4 101 4 39 4 -79 5 -132 4 -104 4 160 4 174 
4 15 5 223 4 116 4 -63 4 -206 4 -60 4 -174 5 71 
4 -48 4 29 4 194 4 66 5 -34 4 -99 4 89 4 -108 
4 161 4 77 5 23 4 -26 4 6 4 -276 4 -210 5 156 
4 154 4 29 4 205 4 -11 5 -250 4 -245 4 25 4 -184 
4 112 4 142 5 135 4 -172 4 132 4 102 4 -93 5 30 
4 82 4 186 4 -232 4 85 4 76 5 -15 4 -318 4 186 
4 13 4 -263 5 55 4 180 4 -55 4 27 4 33 5 10 
4 245 4 0 4 -49 4 107 4 -97 5 -374 4 -105 4 12 
4 41 4 149 5 54 4 -2 4 51 4 38 4 0 4 106 
5 92 4 -111 4 -134 4 -136 4 -76 5 -131 4 81 4 269 
4 -24 4 37 5 15 4 51 4 -242 4 115 4 88 4 205 
5 -159 4 21 4 -43 4 -276 4 139 5 -13 4 20 4 6 
4 345 4 -360 4 72 5 11 4 90 4 -307 4 128 4 -12 
5 -123 4 4 4 90 4 -78 4 77 5 159 4 -108 4 -59 
4 157 4 -25 4 -141 6020 4502 300 MP stroke
5 -3 4 95 4 -119 4 -101 4 85 5 -22 4 -117 4 -19 
4 91 4 -61 4 81 5 5 4 67 4 -72 4 -47 4 -9 
5 -53 4 50 4 52 4 11 4 117 5 36 4 -119 4 -107 
4 99 4 -65 4 92 5 204 4 249 4 78 4 -54 4 -108 
5 -252 4 -89 4 -174 4 130 4 76 4 88 5 -173 4 -37 
4 -113 4 113 4 -76 5 125 4 10 4 -70 4 -173 4 1 
5 43 4 172 4 174 4 10 4 236 4 -5 5 -142 4 -68 
4 4 4 61 4 -62 5 52 4 -113 4 238 4 -255 4 19 
4 175 5 136 4 -179 4 -10 4 -20 4 -96 5 62 4 195 
4 227 4 159 4 -32 5 -54 4 -69 4 -156 4 -138 4 94 
4 -60 5 -79 4 60 4 196 4 -8 4 -3 5 52 4 -59 
4 -180 4 -135 4 92 4 -89 5 49 4 70 4 177 4 157 
4 167 5 -91 4 -45 4 -24 4 -289 4 -26 4 43 5 -95 
4 -140 4 160 4 -195 4 -32 5 -1 4 19 4 -172 4 66 
4 16 5 102 4 183 4 138 4 66 4 -54 4 63 5 -202 
4 102 4 -187 4 48 4 203 5 -87 4 -288 4 167 4 43 
4 -377 4 161 5 200 4 159 4 12 4 75 4 -125 5 -81 
4 -234 4 -180 4 -89 4 117 5 -133 4 159 4 272 4 130 
4 -72 4 2 5 -89 4 -70 4 -66 4 -92 4 -21 5 -200 
4 -63 4 286 4 192 4 2 4 189 5 -67 4 -395 4 -185 
4 227 4 -28 5 153 4 139 4 91 4 -62 4 263 5 -89 
4 -97 4 -47 4 -133 4 -212 4 -39 5 95 4 -68 4 15 
4 -219 4 -31 5 308 4 92 4 103 4 158 4 168 4 -298 
5 211 4 80 4 -131 4 -38 4 -31 5 -338 4 -226 4 17 
4 -141 4 53 5 109 4 155 4 4 4 -4 4 -65 4 111 
5 -188 4 231 4 10 4 -22 4 181 5 184 4 -57 4 56 
4 261 4 -186 4 17 5 -61 4 64 4 -221 4 -38 4 65 
5 134 4 17 4 10 4 -12 4 -192 5 -189 4 -70 4 23 
4 75 4 111 4 171 5 -15 4 48 4 -97 4 71 4 -215 
5 106 4 -42 4 70 4 -82 4 180 4 -69 5 188 4 -9 
4 12 4 78 4 17 5 -247 4 49 4 321 4 -183 4 82 
5 135 4 5 4 -283 4 69 4 128 4 284 5 26 4 61 
4 39 4 -62 4 -34 5 -28 4 -4 4 -2 4 -180 4 -337 
4 183 5 -155 4 -18 4 120 4 90 4 -181 5 22 4 43 
4 -54 4 253 4 -149 5 92 4 -34 4 -141 4 -234 4 203 
4 57 5 -54 4 85 4 -132 4 -196 4 51 5 0 4 -48 
4 44 4 75 4 -132 4 -5 5 -32 4 -133 4 -101 4 105 
4 119 5 94 4 -23 4768 4284 300 MP stroke
4 155 4 -240 4 -268 4 -80 5 214 4 -181 4 175 4 199 
4 146 5 -138 4 7 4 -156 4 -119 4 -83 5 138 4 198 
4 135 4 -9 4 -56 4 -65 5 -91 4 -46 4 45 4 -18 
4 -130 5 20 4 -121 4 -101 4 42 4 233 4 -7 5 67 
4 133 4 20 4 -210 4 -94 5 60 4 58 4 65 4 25 
4 -3 5 -121 4 13 4 -123 4 -70 4 89 4 279 5 -38 
4 -2 4 209 4 -89 4 -186 5 109 4 125 4 -99 4 153 
4 169 4 -193 5 -48 4 10 4 32 4 0 4 225 5 55 
4 263 4 -91 4 91 4 -73 5 26 4 -74 4 -84 4 59 
4 34 4 52 5 -113 4 190 4 -179 4 -48 4 7 5 75 
4 -146 4 16 4 -14 4 -7 4 161 5 25 4 -117 4 -23 
4 -118 4 -247 5 -35 4 167 4 -42 4 103 4 -66 5 144 
4 -211 4 -145 4 -94 4 32 4 87 5 -38 4 90 4 116 
4 55 4 -181 5 86 4 109 4 -60 4 -48 4 95 4 -84 
5 75 4 11 4 84 4 -14 4 64 5 -113 4 -71 4 -35 
4 266 4 -2 5 78 4 184 4 108 4 -196 4 43 4 53 
5 -32 4 -38 4 -6 4 142 4 -24 5 -58 4 54 4 25 
4 -13 4 -2 4 73 5 65 4 8 4 107 4 -44 4 69 
5 -212 4 -126 4 -181 4 -123 4 -210 5 80 4 -49 4 20 
4 42 4 27 4 -60 5 82 4 57 4 83 4 79 4 65 
5 57 4 -26 4 144 4 111 4 5 4 56 5 31 4 -65 
4 -81 4 76 4 -95 5 -115 4 -83 4 -39 4 -100 4 90 
5 183 4 70 4 46 4 70 4 84 4 -171 5 35 4 -89 
4 -150 4 -270 4 -68 5 -126 4 -9 4 200 4 123 4 98 
4 16 5 4 4 -161 4 -33 4 42 4 7 5 43 4 177 
4 74 4 -185 4 -131 4 -28 5 -226 4 -177 4 97 4 69 
4 38 5 147 4 132 4 33 4 164 4 82 5 4 4 103 
4 80 4 -107 4 -67 4 9 5 -32 4 -53 4 220 4 -19 
4 -63 5 23 4 -72 4 -236 4 44 4 57 4 -128 5 164 
4 119 4 -88 4 -136 4 -36 5 -68 4 -53 4 36 4 128 
4 63 5 21 4 86 4 35 4 -35 4 113 4 106 5 -146 
4 -109 4 34 4 83 4 -192 5 71 4 148 4 9 4 -112 
4 72 4 -36 5 -108 4 0 4 -208 4 -104 4 36 5 129 
4 -25 4 161 4 97 4 -8 5 -8 4 0 4 121 4 93 
4 62 4 -41 5 -39 4 -180 4 -96 4 -95 4 21 5 52 
4 3 4 19 4 215 4 -86 4 -87 5 -23 4 -47 4 -205 
4 65 4 116 5 164 4 36 4 75 4 -101 4 -40 5 -77 
4 50 4 -110 4 33 3517 3610 300 MP stroke
4 -6 4 -42 5 -102 4 200 4 -3 4 -12 4 47 5 6 
4 -27 4 -21 4 37 4 49 4 -56 5 -133 4 122 4 -61 
4 -116 4 46 5 -30 4 -166 4 124 4 -88 4 -39 5 -28 
4 109 4 -145 4 43 4 40 4 141 5 96 4 0 4 -15 
4 64 4 -56 5 1 4 47 4 70 4 -85 4 -72 4 -186 
5 -16 4 100 4 56 4 79 4 258 5 -16 4 134 4 -247 
4 -64 4 -197 5 -37 4 -234 4 87 4 -83 4 -98 4 -41 
5 -112 4 104 4 108 4 117 4 230 5 101 4 69 4 -14 
4 -17 4 -40 4 61 5 -70 4 -119 4 48 4 -68 4 27 
5 112 4 309 4 -20 4 28 4 -15 5 90 4 -181 4 92 
4 29 4 -72 4 -93 5 49 4 -65 4 52 4 78 4 83 
5 14 4 -40 4 -184 4 -35 4 -1 4 -37 5 -13 4 76 
4 136 4 -150 4 24 5 -29 4 62 4 -179 4 51 4 -9 
4 69 5 54 4 -16 4 24 4 -81 4 15 5 -225 4 43 
4 5 4 132 4 16 5 154 4 133 4 52 4 -94 4 -48 
4 10 5 -184 4 -140 4 28 4 3 4 -35 5 74 4 139 
4 104 4 17 4 -113 4 -47 5 -163 4 -156 4 -43 4 322 
4 21 5 21 4 5 4 33 4 -229 4 45 5 14 4 90 
4 47 4 40 4 105 4 25 5 -92 4 -179 4 -31 4 -8 
4 -111 5 -10 4 8 4 -74 4 -188 4 117 4 -23 5 -28 
4 -66 4 13 4 -61 4 54 5 168 4 115 4 -44 4 -6 
4 -59 5 -41 4 -115 4 -26 4 0 4 16 4 16 5 101 
4 151 4 136 4 -17 4 -72 5 -81 4 -165 4 -100 4 18 
4 59 4 95 5 168 4 -124 4 70 4 -94 4 -10 5 -72 
4 140 4 -193 4 -8 4 -92 5 -94 4 -119 4 304 4 66 
4 64 4 82 5 49 4 -119 4 162 4 -12 4 44 5 -21 
4 36 4 -98 4 105 4 146 4 142 5 -84 4 -96 4 76 
4 -230 4 -127 5 16 4 111 4 -78 4 71 4 264 5 -5 
4 -51 4 -115 4 -26 4 -224 4 -6 5 -3 4 275 4 6 
4 -155 4 15 5 -141 4 -366 4 -116 4 99 4 -89 4 92 
5 225 4 108 4 157 4 174 4 96 5 -66 4 57 4 27 
4 -107 4 -92 5 0 4 113 4 -197 4 241 4 -73 4 -58 
5 -186 4 -16 4 -276 4 85 4 -23 5 42 4 32 4 86 
4 62 4 76 4 188 5 0 4 95 4 -27 4 -48 4 -248 
5 124 4 -92 4 -21 4 39 4 18 5 -80 4 37 4 62 
4 161 4 86 4 -34 5 -153 4 -50 4 65 4 -110 4 -34 
5 -7 4 88 4 -267 4 7 4 76 4 65 5 -68 4 54 
4 -23 4 -12 4 139 2266 3701 300 MP stroke
5 -84 4 -13 4 203 4 42 4 -53 4 76 5 33 4 -175 
4 71 4 54 4 -48 5 27 4 96 4 -89 4 -113 4 196 
5 -86 4 36 4 48 4 25 4 35 4 1 5 -33 4 17 
4 -2 4 -11 4 36 5 78 4 -125 4 -170 4 -144 4 -44 
4 -117 5 38 4 325 4 -109 4 110 4 -98 5 9 4 -173 
4 160 4 -2 4 209 5 41 4 -106 4 -178 4 -95 4 -173 
4 -155 5 -17 4 16 4 -20 4 93 4 89 5 163 4 134 
4 239 4 -45 4 99 4 10 5 101 4 -191 4 39 4 -90 
4 94 5 -219 4 -15 4 5 4 14 4 -80 5 114 4 42 
4 7 4 181 4 -56 4 4 5 93 4 10 4 -23 4 -27 
4 30 5 -35 4 9 4 -90 4 5 4 -39 4 -125 5 24 
4 126 4 -11 4 -28 4 186 5 -59 4 -176 4 61 4 18 
4 -8 5 62 4 46 4 -109 4 -119 4 -2 4 -147 5 -17 
4 138 4 90 4 -78 4 192 5 121 4 -3 4 103 4 8 
4 -81 4 -96 5 25 4 -39 4 -18 4 174 4 29 5 183 
4 -26 4 99 4 -157 4 -38 5 -165 4 251 4 -56 4 306 
4 110 4 54 5 -312 4 -76 4 -351 4 311 4 -170 5 170 
4 -79 4 7 4 -437 4 107 4 -103 5 139 4 -46 4 37 
4 287 4 -187 5 -24 4 83 4 11 4 -288 4 208 5 96 
4 350 4 102 4 -15 4 25 4 -54 5 -355 4 -33 4 422 
4 32 4 8 5 51 4 -57 4 -42 4 515 4 26 4 -48 
5 21 4 -320 4 -214 4 237 4 59 5 49 4 9 4 509 
4 -73 4 -32 5 -45 4 -9 4 -36 4 -164 4 75 4 35 
5 750 4 -8 4 -197 4 35 4 603 5 -598 4 -459 4 377 
4 1076 4 -140 4 -43 5 -91 4 374 4 -1141 4 535 4 257 
5 26 4 -25 4 -28 4 -880 4 -1297 1408 3102 206 MP stroke
gr

24 w
c8
0 sg
5094 5911 mt 
(Episodes) s
 860 5291 mt  -90 rotate
(Accumulative Regret \(Averaged over 5 runs\)) s
90 rotate
3345  266 mt 
(5000 steps per episode - Alex banchmark) s
%%IncludeResource: font Helvetica
/Helvetica /ISOLatin1Encoding 120 FMSR

1387 5466 mt 
( ) s
9758  499 mt 
( ) s
gs 1404 457 8371 4967 rc
/c9 { 1.000000 0.000000 0.000000 sr} bdef
c9
837 0 837 0 837 0 837 0 837 0 837 0 837 0 837 0 
837 0 837 0 1404 4743 11 MP stroke
gr

c9
0 j
69 119 -138 0 69 -119 1404 4822 4 MP
DP
69 119 -138 0 69 -119 2241 4822 4 MP
DP
69 119 -138 0 69 -119 3078 4822 4 MP
DP
69 119 -138 0 69 -119 3915 4822 4 MP
DP
69 119 -138 0 69 -119 4752 4822 4 MP
DP
69 119 -138 0 69 -119 5589 4822 4 MP
DP
69 119 -138 0 69 -119 6426 4822 4 MP
DP
69 119 -138 0 69 -119 7263 4822 4 MP
DP
69 119 -138 0 69 -119 8100 4822 4 MP
DP
69 119 -138 0 69 -119 8937 4822 4 MP
DP
69 119 -138 0 69 -119 9774 4822 4 MP
DP
gs 1404 457 8371 4967 rc
0 sg
837 0 837 0 837 0 837 0 837 0 837 0 837 0 837 0 
837 0 837 0 1404 3183 11 MP stroke
gr

0 sg
-69 119 -69 -119 138 0 1335 3223 4 MP
DP
-69 119 -69 -119 138 0 2172 3223 4 MP
DP
-69 119 -69 -119 138 0 3009 3223 4 MP
DP
-69 119 -69 -119 138 0 3846 3223 4 MP
DP
-69 119 -69 -119 138 0 4683 3223 4 MP
DP
-69 119 -69 -119 138 0 5520 3223 4 MP
DP
-69 119 -69 -119 138 0 6357 3223 4 MP
DP
-69 119 -69 -119 138 0 7194 3223 4 MP
DP
-69 119 -69 -119 138 0 8031 3223 4 MP
DP
-69 119 -69 -119 138 0 8868 3223 4 MP
DP
-69 119 -69 -119 138 0 9705 3223 4 MP
DP
gs 1404 457 8371 4967 rc
6 w
gr

6 w
1 sg
0 897 1359 0 0 -897 8356 1414 4 MP
PP
-1359 0 0 897 1359 0 0 -897 8356 1414 5 MP stroke
4 w
DO
SO
6 w
0 sg
8356 1414 mt 9715 1414 L
8356  517 mt 9715  517 L
8356 1414 mt 8356  517 L
9715 1414 mt 9715  517 L
8356 1414 mt 9715 1414 L
8356 1414 mt 8356  517 L
8356 1414 mt 9715 1414 L
8356  517 mt 9715  517 L
8356 1414 mt 8356  517 L
9715 1414 mt 9715  517 L
%%IncludeResource: font Helvetica
/Helvetica /ISOLatin1Encoding 240 FMSR

8814  764 mt 
(tUCB++) s
gs 8356 517 1360 898 rc
24 w
c8
352 0 8426 679 2 MP stroke
gr

24 w
c8
0 sg
8814 1051 mt 
(mUCB) s
gs 8356 517 1360 898 rc
c9
352 0 8426 965 2 MP stroke
gs 8456 819 293 293 rc
69 119 -138 0 69 -119 8602 1044 4 MP
DP
gr

gr

c9
0 sg
8814 1338 mt 
(UCB) s
gs 8356 517 1360 898 rc
352 0 8426 1251 2 MP stroke
gs 8456 1105 293 293 rc
-69 119 -69 -119 138 0 8533 1291 4 MP
DP
gr

6 w
gr

6 w

end %%Color Dict

eplot
%%EndObject

epage
end

showpage

%%Trailer
%%EOF
