%!PS-Adobe-3.0 EPSF-3.0
%%Creator: MATLAB, The MathWorks, Inc. Version 7.14.0.739 (R2012a). Operating System: Darwin 11.4.2 Darwin Kernel Version 11.4.2: Thu Aug 23 16:25:48 PDT 2012; root:xnu-1699.32.7~1/RELEASE_X86_64 x86_64.
%%Title: /Users/mazar/Dropbox/MOM-MAB/MuErr.eps
%%CreationDate: 05/15/2013  15:59:37
%%DocumentNeededFonts: Helvetica
%%DocumentProcessColors: Cyan Magenta Yellow Black
%%LanguageLevel: 2
%%Pages: 1
%%BoundingBox:    50   203   560   587
%%EndComments

%%BeginProlog
% MathWorks dictionary
/MathWorks 160 dict begin
% definition operators
/bdef {bind def} bind def
/ldef {load def} bind def
/xdef {exch def} bdef
/xstore {exch store} bdef
% operator abbreviations
/c  /clip ldef
/cc /concat ldef
/cp /closepath ldef
/gr /grestore ldef
/gs /gsave ldef
/mt /moveto ldef
/np /newpath ldef
/cm /currentmatrix ldef
/sm /setmatrix ldef
/rm /rmoveto ldef
/rl /rlineto ldef
/s {show newpath} bdef
/sc {setcmykcolor} bdef
/sr /setrgbcolor ldef
/sg /setgray ldef
/w /setlinewidth ldef
/j /setlinejoin ldef
/cap /setlinecap ldef
/rc {rectclip} bdef
/rf {rectfill} bdef
% page state control
/pgsv () def
/bpage {/pgsv save def} bdef
/epage {pgsv restore} bdef
/bplot /gsave ldef
/eplot {stroke grestore} bdef
% orientation switch
/portraitMode 0 def /landscapeMode 1 def /rotateMode 2 def
% coordinate system mappings
/dpi2point 0 def
% font control
/FontSize 0 def
/FMS {/FontSize xstore findfont [FontSize 0 0 FontSize neg 0 0]
  makefont setfont} bdef
/reencode {exch dup where {pop load} {pop StandardEncoding} ifelse
  exch dup 3 1 roll findfont dup length dict begin
  { 1 index /FID ne {def}{pop pop} ifelse } forall
  /Encoding exch def currentdict end definefont pop} bdef
/isroman {findfont /CharStrings get /Agrave known} bdef
/FMSR {3 1 roll 1 index dup isroman {reencode} {pop pop} ifelse
  exch FMS} bdef
/csm {1 dpi2point div -1 dpi2point div scale neg translate
 dup landscapeMode eq {pop -90 rotate}
  {rotateMode eq {90 rotate} if} ifelse} bdef
% line types: solid, dotted, dashed, dotdash
/SO { [] 0 setdash } bdef
/DO { [.5 dpi2point mul 4 dpi2point mul] 0 setdash } bdef
/DA { [6 dpi2point mul] 0 setdash } bdef
/DD { [.5 dpi2point mul 4 dpi2point mul 6 dpi2point mul 4
  dpi2point mul] 0 setdash } bdef
% macros for lines and objects
/L {lineto stroke} bdef
/MP {3 1 roll moveto 1 sub {rlineto} repeat} bdef
/AP {{rlineto} repeat} bdef
/PDlw -1 def
/W {/PDlw currentlinewidth def setlinewidth} def
/PP {closepath eofill} bdef
/DP {closepath stroke} bdef
/MR {4 -2 roll moveto dup  0 exch rlineto exch 0 rlineto
  neg 0 exch rlineto closepath} bdef
/FR {MR stroke} bdef
/PR {MR fill} bdef
/L1i {{currentfile picstr readhexstring pop} image} bdef
/tMatrix matrix def
/MakeOval {newpath tMatrix currentmatrix pop translate scale
0 0 1 0 360 arc tMatrix setmatrix} bdef
/FO {MakeOval stroke} bdef
/PO {MakeOval fill} bdef
/PD {currentlinewidth 2 div 0 360 arc fill
   PDlw -1 eq not {PDlw w /PDlw -1 def} if} def
/FA {newpath tMatrix currentmatrix pop translate scale
  0 0 1 5 -2 roll arc tMatrix setmatrix stroke} bdef
/PA {newpath tMatrix currentmatrix pop	translate 0 0 moveto scale
  0 0 1 5 -2 roll arc closepath tMatrix setmatrix fill} bdef
/FAn {newpath tMatrix currentmatrix pop translate scale
  0 0 1 5 -2 roll arcn tMatrix setmatrix stroke} bdef
/PAn {newpath tMatrix currentmatrix pop translate 0 0 moveto scale
  0 0 1 5 -2 roll arcn closepath tMatrix setmatrix fill} bdef
/vradius 0 def /hradius 0 def /lry 0 def
/lrx 0 def /uly 0 def /ulx 0 def /rad 0 def
/MRR {/vradius xdef /hradius xdef /lry xdef /lrx xdef /uly xdef
  /ulx xdef newpath tMatrix currentmatrix pop ulx hradius add uly
  vradius add translate hradius vradius scale 0 0 1 180 270 arc 
  tMatrix setmatrix lrx hradius sub uly vradius add translate
  hradius vradius scale 0 0 1 270 360 arc tMatrix setmatrix
  lrx hradius sub lry vradius sub translate hradius vradius scale
  0 0 1 0 90 arc tMatrix setmatrix ulx hradius add lry vradius sub
  translate hradius vradius scale 0 0 1 90 180 arc tMatrix setmatrix
  closepath} bdef
/FRR {MRR stroke } bdef
/PRR {MRR fill } bdef
/MlrRR {/lry xdef /lrx xdef /uly xdef /ulx xdef /rad lry uly sub 2 div def
  newpath tMatrix currentmatrix pop ulx rad add uly rad add translate
  rad rad scale 0 0 1 90 270 arc tMatrix setmatrix lrx rad sub lry rad
  sub translate rad rad scale 0 0 1 270 90 arc tMatrix setmatrix
  closepath} bdef
/FlrRR {MlrRR stroke } bdef
/PlrRR {MlrRR fill } bdef
/MtbRR {/lry xdef /lrx xdef /uly xdef /ulx xdef /rad lrx ulx sub 2 div def
  newpath tMatrix currentmatrix pop ulx rad add uly rad add translate
  rad rad scale 0 0 1 180 360 arc tMatrix setmatrix lrx rad sub lry rad
  sub translate rad rad scale 0 0 1 0 180 arc tMatrix setmatrix
  closepath} bdef
/FtbRR {MtbRR stroke } bdef
/PtbRR {MtbRR fill } bdef
/stri 6 array def /dtri 6 array def
/smat 6 array def /dmat 6 array def
/tmat1 6 array def /tmat2 6 array def /dif 3 array def
/asub {/ind2 exch def /ind1 exch def dup dup
  ind1 get exch ind2 get sub exch } bdef
/tri_to_matrix {
  2 0 asub 3 1 asub 4 0 asub 5 1 asub
  dup 0 get exch 1 get 7 -1 roll astore } bdef
/compute_transform {
  dmat dtri tri_to_matrix tmat1 invertmatrix 
  smat stri tri_to_matrix tmat2 concatmatrix } bdef
/ds {stri astore pop} bdef
/dt {dtri astore pop} bdef
/db {2 copy /cols xdef /rows xdef mul dup 3 mul string
  currentfile 
  3 index 0 eq {/ASCIIHexDecode filter}
  {/ASCII85Decode filter 3 index 2 eq {/RunLengthDecode filter} if }
  ifelse exch readstring pop
  dup 0 3 index getinterval /rbmap xdef
  dup 2 index dup getinterval /gbmap xdef
  1 index dup 2 mul exch getinterval /bbmap xdef pop pop}bdef
/it {gs np dtri aload pop moveto lineto lineto cp c
  cols rows 8 compute_transform 
  rbmap gbmap bbmap true 3 colorimage gr}bdef
/il {newpath moveto lineto stroke}bdef
currentdict end def
%%EndProlog

%%BeginSetup
MathWorks begin

0 cap

end
%%EndSetup

%%Page: 1 1
%%BeginPageSetup
%%PageBoundingBox:    50   203   560   587
MathWorks begin
bpage
%%EndPageSetup

%%BeginObject: obj1
bplot

/dpi2point 12 def
portraitMode 0600 7044 csm

    0     0  6123  4597 rc
85 dict begin %Colortable dictionary
/c0 { 0.000000 0.000000 0.000000 sr} bdef
/c1 { 1.000000 1.000000 1.000000 sr} bdef
/c2 { 0.900000 0.000000 0.000000 sr} bdef
/c3 { 0.000000 0.820000 0.000000 sr} bdef
/c4 { 0.000000 0.000000 0.800000 sr} bdef
/c5 { 0.910000 0.820000 0.320000 sr} bdef
/c6 { 1.000000 0.260000 0.820000 sr} bdef
/c7 { 0.000000 0.820000 0.820000 sr} bdef
c0
1 j
1 sg
   0    0 6124 4598 rf
6 w
0 3746 4745 0 0 -3746 796 4091 4 MP
PP
-4745 0 0 3746 4745 0 0 -3746 796 4091 5 MP stroke
4 w
DO
SO
6 w
0 sg
 796 4091 mt 5541 4091 L
 796  345 mt 5541  345 L
 796 4091 mt  796  345 L
5541 4091 mt 5541  345 L
 796 4091 mt 5541 4091 L
 796 4091 mt  796  345 L
 796 4091 mt  796 4067 L
 796  345 mt  796  368 L
 796 4091 mt  796 4043 L
 796  345 mt  796  392 L
%%IncludeResource: font Helvetica
/Helvetica /ISOLatin1Encoding 120 FMSR

 708 4273 mt 
(10) s
%%IncludeResource: font Helvetica
/Helvetica /ISOLatin1Encoding 80 FMSR

 841 4199 mt 
(1) s
1272 4091 mt 1272 4067 L
1272  345 mt 1272  368 L
1550 4091 mt 1550 4067 L
1550  345 mt 1550  368 L
1748 4091 mt 1748 4067 L
1748  345 mt 1748  368 L
1901 4091 mt 1901 4067 L
1901  345 mt 1901  368 L
2026 4091 mt 2026 4067 L
2026  345 mt 2026  368 L
2132 4091 mt 2132 4067 L
2132  345 mt 2132  368 L
2224 4091 mt 2224 4067 L
2224  345 mt 2224  368 L
2305 4091 mt 2305 4067 L
2305  345 mt 2305  368 L
2377 4091 mt 2377 4067 L
2377  345 mt 2377  368 L
2377 4091 mt 2377 4043 L
2377  345 mt 2377  392 L
%%IncludeResource: font Helvetica
/Helvetica /ISOLatin1Encoding 120 FMSR

2289 4273 mt 
(10) s
%%IncludeResource: font Helvetica
/Helvetica /ISOLatin1Encoding 80 FMSR

2422 4199 mt 
(2) s
2853 4091 mt 2853 4067 L
2853  345 mt 2853  368 L
3132 4091 mt 3132 4067 L
3132  345 mt 3132  368 L
3329 4091 mt 3329 4067 L
3329  345 mt 3329  368 L
3483 4091 mt 3483 4067 L
3483  345 mt 3483  368 L
3608 4091 mt 3608 4067 L
3608  345 mt 3608  368 L
3714 4091 mt 3714 4067 L
3714  345 mt 3714  368 L
3806 4091 mt 3806 4067 L
3806  345 mt 3806  368 L
3886 4091 mt 3886 4067 L
3886  345 mt 3886  368 L
3959 4091 mt 3959 4067 L
3959  345 mt 3959  368 L
3959 4091 mt 3959 4043 L
3959  345 mt 3959  392 L
%%IncludeResource: font Helvetica
/Helvetica /ISOLatin1Encoding 120 FMSR

3871 4273 mt 
(10) s
%%IncludeResource: font Helvetica
/Helvetica /ISOLatin1Encoding 80 FMSR

4004 4199 mt 
(3) s
4435 4091 mt 4435 4067 L
4435  345 mt 4435  368 L
4713 4091 mt 4713 4067 L
4713  345 mt 4713  368 L
4911 4091 mt 4911 4067 L
4911  345 mt 4911  368 L
5064 4091 mt 5064 4067 L
5064  345 mt 5064  368 L
5190 4091 mt 5190 4067 L
5190  345 mt 5190  368 L
5295 4091 mt 5295 4067 L
5295  345 mt 5295  368 L
5387 4091 mt 5387 4067 L
5387  345 mt 5387  368 L
5468 4091 mt 5468 4067 L
5468  345 mt 5468  368 L
5541 4091 mt 5541 4067 L
5541  345 mt 5541  368 L
5541 4091 mt 5541 4043 L
5541  345 mt 5541  392 L
%%IncludeResource: font Helvetica
/Helvetica /ISOLatin1Encoding 120 FMSR

5453 4273 mt 
(10) s
%%IncludeResource: font Helvetica
/Helvetica /ISOLatin1Encoding 80 FMSR

5586 4199 mt 
(4) s
 796 4091 mt  843 4091 L
5541 4091 mt 5493 4091 L
%%IncludeResource: font Helvetica
/Helvetica /ISOLatin1Encoding 120 FMSR

 695 4135 mt 
(0) s
 796 3622 mt  843 3622 L
5541 3622 mt 5493 3622 L
 595 3666 mt 
(0.5) s
 796 3154 mt  843 3154 L
5541 3154 mt 5493 3154 L
 695 3198 mt 
(1) s
 796 2686 mt  843 2686 L
5541 2686 mt 5493 2686 L
 595 2730 mt 
(1.5) s
 796 2218 mt  843 2218 L
5541 2218 mt 5493 2218 L
 695 2262 mt 
(2) s
 796 1749 mt  843 1749 L
5541 1749 mt 5493 1749 L
 595 1793 mt 
(2.5) s
 796 1281 mt  843 1281 L
5541 1281 mt 5493 1281 L
 695 1325 mt 
(3) s
 796  813 mt  843  813 L
5541  813 mt 5493  813 L
 595  857 mt 
(3.5) s
 796  345 mt  843  345 L
5541  345 mt 5493  345 L
 695  389 mt 
(4) s
 796 4091 mt 5541 4091 L
 796  345 mt 5541  345 L
 796 4091 mt  796  345 L
5541 4091 mt 5541  345 L
gs 796 345 4746 3747 rc
/c8 { 0.000000 0.000000 1.000000 sr} bdef
c8
678 164 678 346 678 1010 678 -48 678 512 678 687 677 545 796 698 8 MP stroke
gr

c8

end %%Color Dict

eplot
%%EndObject

epage
end

showpage

%%Trailer
%%EOF
